dL =0   mm  dkr =20   mm  EE =2.89062     diz =57.8125   mm  dd =0   mm Trenutni precnik =20    mm  L =44.4734   mm  
dL =0.1   mm  dkr =20   mm  EE =2.89062     diz =57.8125   mm  dd =0.0425113   mm Trenutni precnik =20.085    mm  L =44.4734   mm  
dL =0.2   mm  dkr =20   mm  EE =2.89062     diz =57.8125   mm  dd =0.0850226   mm Trenutni precnik =20.17    mm  L =44.4734   mm  
dL =0.3   mm  dkr =20   mm  EE =2.89062     diz =57.8125   mm  dd =0.127534   mm Trenutni precnik =20.2551    mm  L =44.4734   mm  
dL =0.4   mm  dkr =20   mm  EE =2.89062     diz =57.8125   mm  dd =0.170045   mm Trenutni precnik =20.3401    mm  L =44.4734   mm  
dL =0.5   mm  dkr =20   mm  EE =2.89062     diz =57.8125   mm  dd =0.212557   mm Trenutni precnik =20.4251    mm  L =44.4734   mm  
dL =0.6   mm  dkr =20   mm  EE =2.89062     diz =57.8125   mm  dd =0.255068   mm Trenutni precnik =20.5101    mm  L =44.4734   mm  
dL =0.7   mm  dkr =20   mm  EE =2.89062     diz =57.8125   mm  dd =0.297579   mm Trenutni precnik =20.5952    mm  L =44.4734   mm  
dL =0.8   mm  dkr =20   mm  EE =2.89062     diz =57.8125   mm  dd =0.34009   mm Trenutni precnik =20.6802    mm  L =44.4734   mm  
dL =0.9   mm  dkr =20   mm  EE =2.89062     diz =57.8125   mm  dd =0.382602   mm Trenutni precnik =20.7652    mm  L =44.4734   mm  
dL =1   mm  dkr =20   mm  EE =2.89062     diz =57.8125   mm  dd =0.425113   mm Trenutni precnik =20.8502    mm  L =44.4734   mm  
dL =1.1   mm  dkr =20   mm  EE =2.89062     diz =57.8125   mm  dd =0.467624   mm Trenutni precnik =20.9352    mm  L =44.4734   mm  
dL =1.2   mm  dkr =20   mm  EE =2.89062     diz =57.8125   mm  dd =0.510136   mm Trenutni precnik =21.0203    mm  L =44.4734   mm  
dL =1.3   mm  dkr =20   mm  EE =2.89062     diz =57.8125   mm  dd =0.552647   mm Trenutni precnik =21.1053    mm  L =44.4734   mm  
dL =1.4   mm  dkr =20   mm  EE =2.89062     diz =57.8125   mm  dd =0.595158   mm Trenutni precnik =21.1903    mm  L =44.4734   mm  
dL =1.5   mm  dkr =20   mm  EE =2.89062     diz =57.8125   mm  dd =0.63767   mm Trenutni precnik =21.2753    mm  L =44.4734   mm  
dL =1.6   mm  dkr =20   mm  EE =2.89062     diz =57.8125   mm  dd =0.680181   mm Trenutni precnik =21.3604    mm  L =44.4734   mm  
dL =1.7   mm  dkr =20   mm  EE =2.89062     diz =57.8125   mm  dd =0.722692   mm Trenutni precnik =21.4454    mm  L =44.4734   mm  
dL =1.8   mm  dkr =20   mm  EE =2.89062     diz =57.8125   mm  dd =0.765204   mm Trenutni precnik =21.5304    mm  L =44.4734   mm  
dL =1.9   mm  dkr =20   mm  EE =2.89062     diz =57.8125   mm  dd =0.807715   mm Trenutni precnik =21.6154    mm  L =44.4734   mm  
dL =2   mm  dkr =20   mm  EE =2.89062     diz =57.8125   mm  dd =0.850226   mm Trenutni precnik =21.7005    mm  L =44.4734   mm  
dL =2.1   mm  dkr =20   mm  EE =2.89062     diz =57.8125   mm  dd =0.892738   mm Trenutni precnik =21.7855    mm  L =44.4734   mm  
dL =2.2   mm  dkr =20   mm  EE =2.89062     diz =57.8125   mm  dd =0.935249   mm Trenutni precnik =21.8705    mm  L =44.4734   mm  
dL =2.3   mm  dkr =20   mm  EE =2.89062     diz =57.8125   mm  dd =0.97776   mm Trenutni precnik =21.9555    mm  L =44.4734   mm  
dL =2.4   mm  dkr =20   mm  EE =2.89062     diz =57.8125   mm  dd =1.02027   mm Trenutni precnik =22.0405    mm  L =44.4734   mm  
dL =2.5   mm  dkr =20   mm  EE =2.89062     diz =57.8125   mm  dd =1.06278   mm Trenutni precnik =22.1256    mm  L =44.4734   mm  
dL =2.6   mm  dkr =20   mm  EE =2.89062     diz =57.8125   mm  dd =1.10529   mm Trenutni precnik =22.2106    mm  L =44.4734   mm  
dL =2.7   mm  dkr =20   mm  EE =2.89062     diz =57.8125   mm  dd =1.14781   mm Trenutni precnik =22.2956    mm  L =44.4734   mm  
dL =2.8   mm  dkr =20   mm  EE =2.89062     diz =57.8125   mm  dd =1.19032   mm Trenutni precnik =22.3806    mm  L =44.4734   mm  
dL =2.9   mm  dkr =20   mm  EE =2.89062     diz =57.8125   mm  dd =1.23283   mm Trenutni precnik =22.4657    mm  L =44.4734   mm  
dL =3   mm  dkr =20   mm  EE =2.89062     diz =57.8125   mm  dd =1.27534   mm Trenutni precnik =22.5507    mm  L =44.4734   mm  
dL =3.1   mm  dkr =20   mm  EE =2.89062     diz =57.8125   mm  dd =1.31785   mm Trenutni precnik =22.6357    mm  L =44.4734   mm  
dL =3.2   mm  dkr =20   mm  EE =2.89062     diz =57.8125   mm  dd =1.36036   mm Trenutni precnik =22.7207    mm  L =44.4734   mm  
dL =3.3   mm  dkr =20   mm  EE =2.89062     diz =57.8125   mm  dd =1.40287   mm Trenutni precnik =22.8057    mm  L =44.4734   mm  
dL =3.4   mm  dkr =20   mm  EE =2.89062     diz =57.8125   mm  dd =1.44538   mm Trenutni precnik =22.8908    mm  L =44.4734   mm  
dL =3.5   mm  dkr =20   mm  EE =2.89062     diz =57.8125   mm  dd =1.4879   mm Trenutni precnik =22.9758    mm  L =44.4734   mm  
dL =3.6   mm  dkr =20   mm  EE =2.89062     diz =57.8125   mm  dd =1.53041   mm Trenutni precnik =23.0608    mm  L =44.4734   mm  
dL =3.7   mm  dkr =20   mm  EE =2.89062     diz =57.8125   mm  dd =1.57292   mm Trenutni precnik =23.1458    mm  L =44.4734   mm  
dL =3.8   mm  dkr =20   mm  EE =2.89062     diz =57.8125   mm  dd =1.61543   mm Trenutni precnik =23.2309    mm  L =44.4734   mm  
dL =3.9   mm  dkr =20   mm  EE =2.89062     diz =57.8125   mm  dd =1.65794   mm Trenutni precnik =23.3159    mm  L =44.4734   mm  
dL =4   mm  dkr =20   mm  EE =2.89062     diz =57.8125   mm  dd =1.70045   mm Trenutni precnik =23.4009    mm  L =44.4734   mm  
dL =4.1   mm  dkr =20   mm  EE =2.89062     diz =57.8125   mm  dd =1.74296   mm Trenutni precnik =23.4859    mm  L =44.4734   mm  
dL =4.2   mm  dkr =20   mm  EE =2.89062     diz =57.8125   mm  dd =1.78548   mm Trenutni precnik =23.571    mm  L =44.4734   mm  
dL =4.3   mm  dkr =20   mm  EE =2.89062     diz =57.8125   mm  dd =1.82799   mm Trenutni precnik =23.656    mm  L =44.4734   mm  
dL =4.4   mm  dkr =20   mm  EE =2.89062     diz =57.8125   mm  dd =1.8705   mm Trenutni precnik =23.741    mm  L =44.4734   mm  
dL =4.5   mm  dkr =20   mm  EE =2.89062     diz =57.8125   mm  dd =1.91301   mm Trenutni precnik =23.826    mm  L =44.4734   mm  
dL =4.6   mm  dkr =20   mm  EE =2.89062     diz =57.8125   mm  dd =1.95552   mm Trenutni precnik =23.911    mm  L =44.4734   mm  
dL =4.7   mm  dkr =20   mm  EE =2.89062     diz =57.8125   mm  dd =1.99803   mm Trenutni precnik =23.9961    mm  L =44.4734   mm  
dL =4.8   mm  dkr =20   mm  EE =2.89062     diz =57.8125   mm  dd =2.04054   mm Trenutni precnik =24.0811    mm  L =44.4734   mm  
dL =4.9   mm  dkr =20   mm  EE =2.89062     diz =57.8125   mm  dd =2.08305   mm Trenutni precnik =24.1661    mm  L =44.4734   mm  
dL =5   mm  dkr =20   mm  EE =2.89062     diz =57.8125   mm  dd =2.12557   mm Trenutni precnik =24.2511    mm  L =44.4734   mm  
dL =5.1   mm  dkr =20   mm  EE =2.89062     diz =57.8125   mm  dd =2.16808   mm Trenutni precnik =24.3362    mm  L =44.4734   mm  
dL =5.2   mm  dkr =20   mm  EE =2.89062     diz =57.8125   mm  dd =2.21059   mm Trenutni precnik =24.4212    mm  L =44.4734   mm  
dL =5.3   mm  dkr =20   mm  EE =2.89062     diz =57.8125   mm  dd =2.2531   mm Trenutni precnik =24.5062    mm  L =44.4734   mm  
dL =5.4   mm  dkr =20   mm  EE =2.89062     diz =57.8125   mm  dd =2.29561   mm Trenutni precnik =24.5912    mm  L =44.4734   mm  
dL =5.5   mm  dkr =20   mm  EE =2.89062     diz =57.8125   mm  dd =2.33812   mm Trenutni precnik =24.6762    mm  L =44.4734   mm  
dL =5.6   mm  dkr =20   mm  EE =2.89062     diz =57.8125   mm  dd =2.38063   mm Trenutni precnik =24.7613    mm  L =44.4734   mm  
dL =5.7   mm  dkr =20   mm  EE =2.89062     diz =57.8125   mm  dd =2.42314   mm Trenutni precnik =24.8463    mm  L =44.4734   mm  
dL =5.8   mm  dkr =20   mm  EE =2.89062     diz =57.8125   mm  dd =2.46566   mm Trenutni precnik =24.9313    mm  L =44.4734   mm  
dL =5.9   mm  dkr =20   mm  EE =2.89062     diz =57.8125   mm  dd =2.50817   mm Trenutni precnik =25.0163    mm  L =44.4734   mm  
dL =6   mm  dkr =20   mm  EE =2.89062     diz =57.8125   mm  dd =2.55068   mm Trenutni precnik =25.1014    mm  L =44.4734   mm  
dL =6.1   mm  dkr =20   mm  EE =2.89062     diz =57.8125   mm  dd =2.59319   mm Trenutni precnik =25.1864    mm  L =44.4734   mm  
dL =6.2   mm  dkr =20   mm  EE =2.89062     diz =57.8125   mm  dd =2.6357   mm Trenutni precnik =25.2714    mm  L =44.4734   mm  
dL =6.3   mm  dkr =20   mm  EE =2.89062     diz =57.8125   mm  dd =2.67821   mm Trenutni precnik =25.3564    mm  L =44.4734   mm  
dL =6.4   mm  dkr =20   mm  EE =2.89062     diz =57.8125   mm  dd =2.72072   mm Trenutni precnik =25.4414    mm  L =44.4734   mm  
dL =6.5   mm  dkr =20   mm  EE =2.89062     diz =57.8125   mm  dd =2.76324   mm Trenutni precnik =25.5265    mm  L =44.4734   mm  
dL =6.6   mm  dkr =20   mm  EE =2.89062     diz =57.8125   mm  dd =2.80575   mm Trenutni precnik =25.6115    mm  L =44.4734   mm  
dL =6.7   mm  dkr =20   mm  EE =2.89062     diz =57.8125   mm  dd =2.84826   mm Trenutni precnik =25.6965    mm  L =44.4734   mm  
dL =6.8   mm  dkr =20   mm  EE =2.89062     diz =57.8125   mm  dd =2.89077   mm Trenutni precnik =25.7815    mm  L =44.4734   mm  
dL =6.9   mm  dkr =20   mm  EE =2.89062     diz =57.8125   mm  dd =2.93328   mm Trenutni precnik =25.8666    mm  L =44.4734   mm  
dL =7   mm  dkr =20   mm  EE =2.89062     diz =57.8125   mm  dd =2.97579   mm Trenutni precnik =25.9516    mm  L =44.4734   mm  
dL =7.1   mm  dkr =20   mm  EE =2.89062     diz =57.8125   mm  dd =3.0183   mm Trenutni precnik =26.0366    mm  L =44.4734   mm  
dL =7.2   mm  dkr =20   mm  EE =2.89062     diz =57.8125   mm  dd =3.06081   mm Trenutni precnik =26.1216    mm  L =44.4734   mm  
dL =7.3   mm  dkr =20   mm  EE =2.89062     diz =57.8125   mm  dd =3.10333   mm Trenutni precnik =26.2067    mm  L =44.4734   mm  
dL =7.4   mm  dkr =20   mm  EE =2.89062     diz =57.8125   mm  dd =3.14584   mm Trenutni precnik =26.2917    mm  L =44.4734   mm  
dL =7.5   mm  dkr =20   mm  EE =2.89062     diz =57.8125   mm  dd =3.18835   mm Trenutni precnik =26.3767    mm  L =44.4734   mm  
dL =7.6   mm  dkr =20   mm  EE =2.89062     diz =57.8125   mm  dd =3.23086   mm Trenutni precnik =26.4617    mm  L =44.4734   mm  
dL =7.7   mm  dkr =20   mm  EE =2.89062     diz =57.8125   mm  dd =3.27337   mm Trenutni precnik =26.5467    mm  L =44.4734   mm  
dL =7.8   mm  dkr =20   mm  EE =2.89062     diz =57.8125   mm  dd =3.31588   mm Trenutni precnik =26.6318    mm  L =44.4734   mm  
dL =7.9   mm  dkr =20   mm  EE =2.89062     diz =57.8125   mm  dd =3.35839   mm Trenutni precnik =26.7168    mm  L =44.4734   mm  
dL =8   mm  dkr =20   mm  EE =2.89062     diz =57.8125   mm  dd =3.4009   mm Trenutni precnik =26.8018    mm  L =44.4734   mm  
dL =8.1   mm  dkr =20   mm  EE =2.89062     diz =57.8125   mm  dd =3.44342   mm Trenutni precnik =26.8868    mm  L =44.4734   mm  
dL =8.2   mm  dkr =20   mm  EE =2.89062     diz =57.8125   mm  dd =3.48593   mm Trenutni precnik =26.9719    mm  L =44.4734   mm  
dL =8.3   mm  dkr =20   mm  EE =2.89062     diz =57.8125   mm  dd =3.52844   mm Trenutni precnik =27.0569    mm  L =44.4734   mm  
dL =8.4   mm  dkr =20   mm  EE =2.89062     diz =57.8125   mm  dd =3.57095   mm Trenutni precnik =27.1419    mm  L =44.4734   mm  
dL =8.5   mm  dkr =20   mm  EE =2.89062     diz =57.8125   mm  dd =3.61346   mm Trenutni precnik =27.2269    mm  L =44.4734   mm  
dL =8.6   mm  dkr =20   mm  EE =2.89062     diz =57.8125   mm  dd =3.65597   mm Trenutni precnik =27.3119    mm  L =44.4734   mm  
dL =8.7   mm  dkr =20   mm  EE =2.89062     diz =57.8125   mm  dd =3.69848   mm Trenutni precnik =27.397    mm  L =44.4734   mm  
dL =8.8   mm  dkr =20   mm  EE =2.89062     diz =57.8125   mm  dd =3.741   mm Trenutni precnik =27.482    mm  L =44.4734   mm  
dL =8.9   mm  dkr =20   mm  EE =2.89062     diz =57.8125   mm  dd =3.78351   mm Trenutni precnik =27.567    mm  L =44.4734   mm  
dL =9   mm  dkr =20   mm  EE =2.89062     diz =57.8125   mm  dd =3.82602   mm Trenutni precnik =27.652    mm  L =44.4734   mm  
dL =9.1   mm  dkr =20   mm  EE =2.89062     diz =57.8125   mm  dd =3.86853   mm Trenutni precnik =27.7371    mm  L =44.4734   mm  
dL =9.2   mm  dkr =20   mm  EE =2.89062     diz =57.8125   mm  dd =3.91104   mm Trenutni precnik =27.8221    mm  L =44.4734   mm  
dL =9.3   mm  dkr =20   mm  EE =2.89062     diz =57.8125   mm  dd =3.95355   mm Trenutni precnik =27.9071    mm  L =44.4734   mm  
dL =9.4   mm  dkr =20   mm  EE =2.89062     diz =57.8125   mm  dd =3.99606   mm Trenutni precnik =27.9921    mm  L =44.4734   mm  
dL =9.5   mm  dkr =20   mm  EE =2.89062     diz =57.8125   mm  dd =4.03857   mm Trenutni precnik =28.0771    mm  L =44.4734   mm  
dL =9.6   mm  dkr =20   mm  EE =2.89062     diz =57.8125   mm  dd =4.08109   mm Trenutni precnik =28.1622    mm  L =44.4734   mm  
dL =9.7   mm  dkr =20   mm  EE =2.89062     diz =57.8125   mm  dd =4.1236   mm Trenutni precnik =28.2472    mm  L =44.4734   mm  
dL =9.8   mm  dkr =20   mm  EE =2.89062     diz =57.8125   mm  dd =4.16611   mm Trenutni precnik =28.3322    mm  L =44.4734   mm  
dL =9.9   mm  dkr =20   mm  EE =2.89062     diz =57.8125   mm  dd =4.20862   mm Trenutni precnik =28.4172    mm  L =44.4734   mm  
dL =10   mm  dkr =20   mm  EE =2.89062     diz =57.8125   mm  dd =4.25113   mm Trenutni precnik =28.5023    mm  L =44.4734   mm  
dL =10.1   mm  dkr =20   mm  EE =2.89062     diz =57.8125   mm  dd =4.29364   mm Trenutni precnik =28.5873    mm  L =44.4734   mm  
dL =10.2   mm  dkr =20   mm  EE =2.89062     diz =57.8125   mm  dd =4.33615   mm Trenutni precnik =28.6723    mm  L =44.4734   mm  
dL =10.3   mm  dkr =20   mm  EE =2.89062     diz =57.8125   mm  dd =4.37867   mm Trenutni precnik =28.7573    mm  L =44.4734   mm  
dL =10.4   mm  dkr =20   mm  EE =2.89062     diz =57.8125   mm  dd =4.42118   mm Trenutni precnik =28.8424    mm  L =44.4734   mm  
dL =10.5   mm  dkr =20   mm  EE =2.89062     diz =57.8125   mm  dd =4.46369   mm Trenutni precnik =28.9274    mm  L =44.4734   mm  
dL =10.6   mm  dkr =20   mm  EE =2.89062     diz =57.8125   mm  dd =4.5062   mm Trenutni precnik =29.0124    mm  L =44.4734   mm  
dL =10.7   mm  dkr =20   mm  EE =2.89062     diz =57.8125   mm  dd =4.54871   mm Trenutni precnik =29.0974    mm  L =44.4734   mm  
dL =10.8   mm  dkr =20   mm  EE =2.89062     diz =57.8125   mm  dd =4.59122   mm Trenutni precnik =29.1824    mm  L =44.4734   mm  
dL =10.9   mm  dkr =20   mm  EE =2.89062     diz =57.8125   mm  dd =4.63373   mm Trenutni precnik =29.2675    mm  L =44.4734   mm  
dL =11   mm  dkr =20   mm  EE =2.89062     diz =57.8125   mm  dd =4.67624   mm Trenutni precnik =29.3525    mm  L =44.4734   mm  
dL =11.1   mm  dkr =20   mm  EE =2.89062     diz =57.8125   mm  dd =4.71876   mm Trenutni precnik =29.4375    mm  L =44.4734   mm  
dL =11.2   mm  dkr =20   mm  EE =2.89062     diz =57.8125   mm  dd =4.76127   mm Trenutni precnik =29.5225    mm  L =44.4734   mm  
dL =11.3   mm  dkr =20   mm  EE =2.89062     diz =57.8125   mm  dd =4.80378   mm Trenutni precnik =29.6076    mm  L =44.4734   mm  
dL =11.4   mm  dkr =20   mm  EE =2.89062     diz =57.8125   mm  dd =4.84629   mm Trenutni precnik =29.6926    mm  L =44.4734   mm  
dL =11.5   mm  dkr =20   mm  EE =2.89062     diz =57.8125   mm  dd =4.8888   mm Trenutni precnik =29.7776    mm  L =44.4734   mm  
dL =11.6   mm  dkr =20   mm  EE =2.89062     diz =57.8125   mm  dd =4.93131   mm Trenutni precnik =29.8626    mm  L =44.4734   mm  
dL =11.7   mm  dkr =20   mm  EE =2.89062     diz =57.8125   mm  dd =4.97382   mm Trenutni precnik =29.9476    mm  L =44.4734   mm  
dL =11.8   mm  dkr =20   mm  EE =2.89062     diz =57.8125   mm  dd =5.01633   mm Trenutni precnik =30.0327    mm  L =44.4734   mm  
dL =11.9   mm  dkr =20   mm  EE =2.89062     diz =57.8125   mm  dd =5.05885   mm Trenutni precnik =30.1177    mm  L =44.4734   mm  
dL =12   mm  dkr =20   mm  EE =2.89062     diz =57.8125   mm  dd =5.10136   mm Trenutni precnik =30.2027    mm  L =44.4734   mm  
dL =12.1   mm  dkr =20   mm  EE =2.89062     diz =57.8125   mm  dd =5.14387   mm Trenutni precnik =30.2877    mm  L =44.4734   mm  
dL =12.2   mm  dkr =20   mm  EE =2.89062     diz =57.8125   mm  dd =5.18638   mm Trenutni precnik =30.3728    mm  L =44.4734   mm  
dL =12.3   mm  dkr =20   mm  EE =2.89062     diz =57.8125   mm  dd =5.22889   mm Trenutni precnik =30.4578    mm  L =44.4734   mm  
dL =12.4   mm  dkr =20   mm  EE =2.89062     diz =57.8125   mm  dd =5.2714   mm Trenutni precnik =30.5428    mm  L =44.4734   mm  
dL =12.5   mm  dkr =20   mm  EE =2.89062     diz =57.8125   mm  dd =5.31391   mm Trenutni precnik =30.6278    mm  L =44.4734   mm  
dL =12.6   mm  dkr =20   mm  EE =2.89062     diz =57.8125   mm  dd =5.35643   mm Trenutni precnik =30.7129    mm  L =44.4734   mm  
dL =12.7   mm  dkr =20   mm  EE =2.89062     diz =57.8125   mm  dd =5.39894   mm Trenutni precnik =30.7979    mm  L =44.4734   mm  
dL =12.8   mm  dkr =20   mm  EE =2.89062     diz =57.8125   mm  dd =5.44145   mm Trenutni precnik =30.8829    mm  L =44.4734   mm  
dL =12.9   mm  dkr =20   mm  EE =2.89062     diz =57.8125   mm  dd =5.48396   mm Trenutni precnik =30.9679    mm  L =44.4734   mm  
dL =13   mm  dkr =20   mm  EE =2.89062     diz =57.8125   mm  dd =5.52647   mm Trenutni precnik =31.0529    mm  L =44.4734   mm  
dL =13.1   mm  dkr =20   mm  EE =2.89062     diz =57.8125   mm  dd =5.56898   mm Trenutni precnik =31.138    mm  L =44.4734   mm  
dL =13.2   mm  dkr =20   mm  EE =2.89062     diz =57.8125   mm  dd =5.61149   mm Trenutni precnik =31.223    mm  L =44.4734   mm  
dL =13.3   mm  dkr =20   mm  EE =2.89062     diz =57.8125   mm  dd =5.654   mm Trenutni precnik =31.308    mm  L =44.4734   mm  
dL =13.4   mm  dkr =20   mm  EE =2.89062     diz =57.8125   mm  dd =5.69652   mm Trenutni precnik =31.393    mm  L =44.4734   mm  
dL =13.5   mm  dkr =20   mm  EE =2.89062     diz =57.8125   mm  dd =5.73903   mm Trenutni precnik =31.4781    mm  L =44.4734   mm  
dL =13.6   mm  dkr =20   mm  EE =2.89062     diz =57.8125   mm  dd =5.78154   mm Trenutni precnik =31.5631    mm  L =44.4734   mm  
dL =13.7   mm  dkr =20   mm  EE =2.89062     diz =57.8125   mm  dd =5.82405   mm Trenutni precnik =31.6481    mm  L =44.4734   mm  
dL =13.8   mm  dkr =20   mm  EE =2.89062     diz =57.8125   mm  dd =5.86656   mm Trenutni precnik =31.7331    mm  L =44.4734   mm  
dL =13.9   mm  dkr =20   mm  EE =2.89062     diz =57.8125   mm  dd =5.90907   mm Trenutni precnik =31.8181    mm  L =44.4734   mm  
dL =14   mm  dkr =20   mm  EE =2.89062     diz =57.8125   mm  dd =5.95158   mm Trenutni precnik =31.9032    mm  L =44.4734   mm  
dL =14.1   mm  dkr =20   mm  EE =2.89062     diz =57.8125   mm  dd =5.9941   mm Trenutni precnik =31.9882    mm  L =44.4734   mm  
dL =14.2   mm  dkr =20   mm  EE =2.89062     diz =57.8125   mm  dd =6.03661   mm Trenutni precnik =32.0732    mm  L =44.4734   mm  
dL =14.3   mm  dkr =20   mm  EE =2.89062     diz =57.8125   mm  dd =6.07912   mm Trenutni precnik =32.1582    mm  L =44.4734   mm  
dL =14.4   mm  dkr =20   mm  EE =2.89062     diz =57.8125   mm  dd =6.12163   mm Trenutni precnik =32.2433    mm  L =44.4734   mm  
dL =14.5   mm  dkr =20   mm  EE =2.89062     diz =57.8125   mm  dd =6.16414   mm Trenutni precnik =32.3283    mm  L =44.4734   mm  
dL =14.6   mm  dkr =20   mm  EE =2.89062     diz =57.8125   mm  dd =6.20665   mm Trenutni precnik =32.4133    mm  L =44.4734   mm  
dL =14.7   mm  dkr =20   mm  EE =2.89062     diz =57.8125   mm  dd =6.24916   mm Trenutni precnik =32.4983    mm  L =44.4734   mm  
dL =14.8   mm  dkr =20   mm  EE =2.89062     diz =57.8125   mm  dd =6.29167   mm Trenutni precnik =32.5833    mm  L =44.4734   mm  
dL =14.9   mm  dkr =20   mm  EE =2.89062     diz =57.8125   mm  dd =6.33419   mm Trenutni precnik =32.6684    mm  L =44.4734   mm  
dL =15   mm  dkr =20   mm  EE =2.89062     diz =57.8125   mm  dd =6.3767   mm Trenutni precnik =32.7534    mm  L =44.4734   mm  
dL =15.1   mm  dkr =20   mm  EE =2.89062     diz =57.8125   mm  dd =6.41921   mm Trenutni precnik =32.8384    mm  L =44.4734   mm  
dL =15.2   mm  dkr =20   mm  EE =2.89062     diz =57.8125   mm  dd =6.46172   mm Trenutni precnik =32.9234    mm  L =44.4734   mm  
dL =15.3   mm  dkr =20   mm  EE =2.89062     diz =57.8125   mm  dd =6.50423   mm Trenutni precnik =33.0085    mm  L =44.4734   mm  
dL =15.4   mm  dkr =20   mm  EE =2.89062     diz =57.8125   mm  dd =6.54674   mm Trenutni precnik =33.0935    mm  L =44.4734   mm  
dL =15.5   mm  dkr =20   mm  EE =2.89062     diz =57.8125   mm  dd =6.58925   mm Trenutni precnik =33.1785    mm  L =44.4734   mm  
dL =15.6   mm  dkr =20   mm  EE =2.89062     diz =57.8125   mm  dd =6.63176   mm Trenutni precnik =33.2635    mm  L =44.4734   mm  
dL =15.7   mm  dkr =20   mm  EE =2.89062     diz =57.8125   mm  dd =6.67428   mm Trenutni precnik =33.3486    mm  L =44.4734   mm  
dL =15.8   mm  dkr =20   mm  EE =2.89062     diz =57.8125   mm  dd =6.71679   mm Trenutni precnik =33.4336    mm  L =44.4734   mm  
dL =15.9   mm  dkr =20   mm  EE =2.89062     diz =57.8125   mm  dd =6.7593   mm Trenutni precnik =33.5186    mm  L =44.4734   mm  
dL =16   mm  dkr =20   mm  EE =2.89062     diz =57.8125   mm  dd =6.80181   mm Trenutni precnik =33.6036    mm  L =44.4734   mm  
dL =16.1   mm  dkr =20   mm  EE =2.89062     diz =57.8125   mm  dd =6.84432   mm Trenutni precnik =33.6886    mm  L =44.4734   mm  
dL =16.2   mm  dkr =20   mm  EE =2.89062     diz =57.8125   mm  dd =6.88683   mm Trenutni precnik =33.7737    mm  L =44.4734   mm  
dL =16.3   mm  dkr =20   mm  EE =2.89062     diz =57.8125   mm  dd =6.92934   mm Trenutni precnik =33.8587    mm  L =44.4734   mm  
dL =16.4   mm  dkr =20   mm  EE =2.89062     diz =57.8125   mm  dd =6.97186   mm Trenutni precnik =33.9437    mm  L =44.4734   mm  
dL =16.5   mm  dkr =20   mm  EE =2.89062     diz =57.8125   mm  dd =7.01437   mm Trenutni precnik =34.0287    mm  L =44.4734   mm  
dL =16.6   mm  dkr =20   mm  EE =2.89062     diz =57.8125   mm  dd =7.05688   mm Trenutni precnik =34.1138    mm  L =44.4734   mm  
dL =16.7   mm  dkr =20   mm  EE =2.89062     diz =57.8125   mm  dd =7.09939   mm Trenutni precnik =34.1988    mm  L =44.4734   mm  
dL =16.8   mm  dkr =20   mm  EE =2.89062     diz =57.8125   mm  dd =7.1419   mm Trenutni precnik =34.2838    mm  L =44.4734   mm  
dL =16.9   mm  dkr =20   mm  EE =2.89062     diz =57.8125   mm  dd =7.18441   mm Trenutni precnik =34.3688    mm  L =44.4734   mm  
dL =17   mm  dkr =20   mm  EE =2.89062     diz =57.8125   mm  dd =7.22692   mm Trenutni precnik =34.4538    mm  L =44.4734   mm  
dL =17.1   mm  dkr =20   mm  EE =2.89062     diz =57.8125   mm  dd =7.26943   mm Trenutni precnik =34.5389    mm  L =44.4734   mm  
dL =17.2   mm  dkr =20   mm  EE =2.89062     diz =57.8125   mm  dd =7.31195   mm Trenutni precnik =34.6239    mm  L =44.4734   mm  
dL =17.3   mm  dkr =20   mm  EE =2.89062     diz =57.8125   mm  dd =7.35446   mm Trenutni precnik =34.7089    mm  L =44.4734   mm  
dL =17.4   mm  dkr =20   mm  EE =2.89062     diz =57.8125   mm  dd =7.39697   mm Trenutni precnik =34.7939    mm  L =44.4734   mm  
dL =17.5   mm  dkr =20   mm  EE =2.89062     diz =57.8125   mm  dd =7.43948   mm Trenutni precnik =34.879    mm  L =44.4734   mm  
dL =17.6   mm  dkr =20   mm  EE =2.89062     diz =57.8125   mm  dd =7.48199   mm Trenutni precnik =34.964    mm  L =44.4734   mm  
dL =17.7   mm  dkr =20   mm  EE =2.89062     diz =57.8125   mm  dd =7.5245   mm Trenutni precnik =35.049    mm  L =44.4734   mm  
dL =17.8   mm  dkr =20   mm  EE =2.89062     diz =57.8125   mm  dd =7.56701   mm Trenutni precnik =35.134    mm  L =44.4734   mm  
dL =17.9   mm  dkr =20   mm  EE =2.89062     diz =57.8125   mm  dd =7.60952   mm Trenutni precnik =35.219    mm  L =44.4734   mm  
dL =18   mm  dkr =20   mm  EE =2.89062     diz =57.8125   mm  dd =7.65204   mm Trenutni precnik =35.3041    mm  L =44.4734   mm  
dL =18.1   mm  dkr =20   mm  EE =2.89062     diz =57.8125   mm  dd =7.69455   mm Trenutni precnik =35.3891    mm  L =44.4734   mm  
dL =18.2   mm  dkr =20   mm  EE =2.89062     diz =57.8125   mm  dd =7.73706   mm Trenutni precnik =35.4741    mm  L =44.4734   mm  
dL =18.3   mm  dkr =20   mm  EE =2.89062     diz =57.8125   mm  dd =7.77957   mm Trenutni precnik =35.5591    mm  L =44.4734   mm  
dL =18.4   mm  dkr =20   mm  EE =2.89062     diz =57.8125   mm  dd =7.82208   mm Trenutni precnik =35.6442    mm  L =44.4734   mm  
dL =18.5   mm  dkr =20   mm  EE =2.89062     diz =57.8125   mm  dd =7.86459   mm Trenutni precnik =35.7292    mm  L =44.4734   mm  
dL =18.6   mm  dkr =20   mm  EE =2.89062     diz =57.8125   mm  dd =7.9071   mm Trenutni precnik =35.8142    mm  L =44.4734   mm  
dL =18.7   mm  dkr =20   mm  EE =2.89062     diz =57.8125   mm  dd =7.94962   mm Trenutni precnik =35.8992    mm  L =44.4734   mm  
dL =18.8   mm  dkr =20   mm  EE =2.89062     diz =57.8125   mm  dd =7.99213   mm Trenutni precnik =35.9843    mm  L =44.4734   mm  
dL =18.9   mm  dkr =20   mm  EE =2.89062     diz =57.8125   mm  dd =8.03464   mm Trenutni precnik =36.0693    mm  L =44.4734   mm  
dL =19   mm  dkr =20   mm  EE =2.89062     diz =57.8125   mm  dd =8.07715   mm Trenutni precnik =36.1543    mm  L =44.4734   mm  
dL =19.1   mm  dkr =20   mm  EE =2.89062     diz =57.8125   mm  dd =8.11966   mm Trenutni precnik =36.2393    mm  L =44.4734   mm  
dL =19.2   mm  dkr =20   mm  EE =2.89062     diz =57.8125   mm  dd =8.16217   mm Trenutni precnik =36.3243    mm  L =44.4734   mm  
dL =19.3   mm  dkr =20   mm  EE =2.89062     diz =57.8125   mm  dd =8.20468   mm Trenutni precnik =36.4094    mm  L =44.4734   mm  
dL =19.4   mm  dkr =20   mm  EE =2.89062     diz =57.8125   mm  dd =8.24719   mm Trenutni precnik =36.4944    mm  L =44.4734   mm  
dL =19.5   mm  dkr =20   mm  EE =2.89062     diz =57.8125   mm  dd =8.28971   mm Trenutni precnik =36.5794    mm  L =44.4734   mm  
dL =19.6   mm  dkr =20   mm  EE =2.89062     diz =57.8125   mm  dd =8.33222   mm Trenutni precnik =36.6644    mm  L =44.4734   mm  
dL =19.7   mm  dkr =20   mm  EE =2.89062     diz =57.8125   mm  dd =8.37473   mm Trenutni precnik =36.7495    mm  L =44.4734   mm  
dL =19.8   mm  dkr =20   mm  EE =2.89062     diz =57.8125   mm  dd =8.41724   mm Trenutni precnik =36.8345    mm  L =44.4734   mm  
dL =19.9   mm  dkr =20   mm  EE =2.89062     diz =57.8125   mm  dd =8.45975   mm Trenutni precnik =36.9195    mm  L =44.4734   mm  
dL =20   mm  dkr =20   mm  EE =2.89062     diz =57.8125   mm  dd =8.50226   mm Trenutni precnik =37.0045    mm  L =44.4734   mm  
dL =20.1   mm  dkr =20   mm  EE =2.89062     diz =57.8125   mm  dd =8.54477   mm Trenutni precnik =37.0895    mm  L =44.4734   mm  
dL =20.2   mm  dkr =20   mm  EE =2.89062     diz =57.8125   mm  dd =8.58729   mm Trenutni precnik =37.1746    mm  L =44.4734   mm  
dL =20.3   mm  dkr =20   mm  EE =2.89062     diz =57.8125   mm  dd =8.6298   mm Trenutni precnik =37.2596    mm  L =44.4734   mm  
dL =20.4   mm  dkr =20   mm  EE =2.89062     diz =57.8125   mm  dd =8.67231   mm Trenutni precnik =37.3446    mm  L =44.4734   mm  
dL =20.5   mm  dkr =20   mm  EE =2.89062     diz =57.8125   mm  dd =8.71482   mm Trenutni precnik =37.4296    mm  L =44.4734   mm  
dL =20.6   mm  dkr =20   mm  EE =2.89062     diz =57.8125   mm  dd =8.75733   mm Trenutni precnik =37.5147    mm  L =44.4734   mm  
dL =20.7   mm  dkr =20   mm  EE =2.89062     diz =57.8125   mm  dd =8.79984   mm Trenutni precnik =37.5997    mm  L =44.4734   mm  
dL =20.8   mm  dkr =20   mm  EE =2.89062     diz =57.8125   mm  dd =8.84235   mm Trenutni precnik =37.6847    mm  L =44.4734   mm  
dL =20.9   mm  dkr =20   mm  EE =2.89062     diz =57.8125   mm  dd =8.88486   mm Trenutni precnik =37.7697    mm  L =44.4734   mm  
dL =21   mm  dkr =20   mm  EE =2.89062     diz =57.8125   mm  dd =8.92738   mm Trenutni precnik =37.8548    mm  L =44.4734   mm  
dL =21.1   mm  dkr =20   mm  EE =2.89062     diz =57.8125   mm  dd =8.96989   mm Trenutni precnik =37.9398    mm  L =44.4734   mm  
dL =21.2   mm  dkr =20   mm  EE =2.89062     diz =57.8125   mm  dd =9.0124   mm Trenutni precnik =38.0248    mm  L =44.4734   mm  
dL =21.3   mm  dkr =20   mm  EE =2.89062     diz =57.8125   mm  dd =9.05491   mm Trenutni precnik =38.1098    mm  L =44.4734   mm  
dL =21.4   mm  dkr =20   mm  EE =2.89062     diz =57.8125   mm  dd =9.09742   mm Trenutni precnik =38.1948    mm  L =44.4734   mm  
dL =21.5   mm  dkr =20   mm  EE =2.89062     diz =57.8125   mm  dd =9.13993   mm Trenutni precnik =38.2799    mm  L =44.4734   mm  
dL =21.6   mm  dkr =20   mm  EE =2.89062     diz =57.8125   mm  dd =9.18244   mm Trenutni precnik =38.3649    mm  L =44.4734   mm  
dL =21.7   mm  dkr =20   mm  EE =2.89062     diz =57.8125   mm  dd =9.22495   mm Trenutni precnik =38.4499    mm  L =44.4734   mm  
dL =21.8   mm  dkr =20   mm  EE =2.89062     diz =57.8125   mm  dd =9.26747   mm Trenutni precnik =38.5349    mm  L =44.4734   mm  
dL =21.9   mm  dkr =20   mm  EE =2.89062     diz =57.8125   mm  dd =9.30998   mm Trenutni precnik =38.62    mm  L =44.4734   mm  
dL =22   mm  dkr =20   mm  EE =2.89062     diz =57.8125   mm  dd =9.35249   mm Trenutni precnik =38.705    mm  L =44.4734   mm  
dL =22.1   mm  dkr =20   mm  EE =2.89062     diz =57.8125   mm  dd =9.395   mm Trenutni precnik =38.79    mm  L =44.4734   mm  
dL =22.2   mm  dkr =20   mm  EE =2.89062     diz =57.8125   mm  dd =9.43751   mm Trenutni precnik =38.875    mm  L =44.4734   mm  
dL =22.3   mm  dkr =20   mm  EE =2.89062     diz =57.8125   mm  dd =9.48002   mm Trenutni precnik =38.96    mm  L =44.4734   mm  
dL =22.4   mm  dkr =20   mm  EE =2.89062     diz =57.8125   mm  dd =9.52253   mm Trenutni precnik =39.0451    mm  L =44.4734   mm  
dL =22.5   mm  dkr =20   mm  EE =2.89062     diz =57.8125   mm  dd =9.56505   mm Trenutni precnik =39.1301    mm  L =44.4734   mm  
dL =22.6   mm  dkr =20   mm  EE =2.89062     diz =57.8125   mm  dd =9.60756   mm Trenutni precnik =39.2151    mm  L =44.4734   mm  
dL =22.7   mm  dkr =20   mm  EE =2.89062     diz =57.8125   mm  dd =9.65007   mm Trenutni precnik =39.3001    mm  L =44.4734   mm  
dL =22.8   mm  dkr =20   mm  EE =2.89062     diz =57.8125   mm  dd =9.69258   mm Trenutni precnik =39.3852    mm  L =44.4734   mm  
dL =22.9   mm  dkr =20   mm  EE =2.89062     diz =57.8125   mm  dd =9.73509   mm Trenutni precnik =39.4702    mm  L =44.4734   mm  
dL =23   mm  dkr =20   mm  EE =2.89062     diz =57.8125   mm  dd =9.7776   mm Trenutni precnik =39.5552    mm  L =44.4734   mm  
dL =23.1   mm  dkr =20   mm  EE =2.89062     diz =57.8125   mm  dd =9.82011   mm Trenutni precnik =39.6402    mm  L =44.4734   mm  
dL =23.2   mm  dkr =20   mm  EE =2.89062     diz =57.8125   mm  dd =9.86262   mm Trenutni precnik =39.7252    mm  L =44.4734   mm  
dL =23.3   mm  dkr =20   mm  EE =2.89062     diz =57.8125   mm  dd =9.90514   mm Trenutni precnik =39.8103    mm  L =44.4734   mm  
dL =23.4   mm  dkr =20   mm  EE =2.89062     diz =57.8125   mm  dd =9.94765   mm Trenutni precnik =39.8953    mm  L =44.4734   mm  
dL =23.5   mm  dkr =20   mm  EE =2.89062     diz =57.8125   mm  dd =9.99016   mm Trenutni precnik =39.9803    mm  L =44.4734   mm  
dL =23.6   mm  dkr =20   mm  EE =2.89062     diz =57.8125   mm  dd =10.0327   mm Trenutni precnik =40.0653    mm  L =44.4734   mm  
dL =23.7   mm  dkr =20   mm  EE =2.89062     diz =57.8125   mm  dd =10.0752   mm Trenutni precnik =40.1504    mm  L =44.4734   mm  
dL =23.8   mm  dkr =20   mm  EE =2.89062     diz =57.8125   mm  dd =10.1177   mm Trenutni precnik =40.2354    mm  L =44.4734   mm  
dL =23.9   mm  dkr =20   mm  EE =2.89062     diz =57.8125   mm  dd =10.1602   mm Trenutni precnik =40.3204    mm  L =44.4734   mm  
dL =24   mm  dkr =20   mm  EE =2.89062     diz =57.8125   mm  dd =10.2027   mm Trenutni precnik =40.4054    mm  L =44.4734   mm  
dL =24.1   mm  dkr =20   mm  EE =2.89062     diz =57.8125   mm  dd =10.2452   mm Trenutni precnik =40.4905    mm  L =44.4734   mm  
dL =24.2   mm  dkr =20   mm  EE =2.89062     diz =57.8125   mm  dd =10.2877   mm Trenutni precnik =40.5755    mm  L =44.4734   mm  
dL =24.3   mm  dkr =20   mm  EE =2.89062     diz =57.8125   mm  dd =10.3302   mm Trenutni precnik =40.6605    mm  L =44.4734   mm  
dL =24.4   mm  dkr =20   mm  EE =2.89062     diz =57.8125   mm  dd =10.3728   mm Trenutni precnik =40.7455    mm  L =44.4734   mm  
dL =24.5   mm  dkr =20   mm  EE =2.89062     diz =57.8125   mm  dd =10.4153   mm Trenutni precnik =40.8305    mm  L =44.4734   mm  
dL =24.6   mm  dkr =20   mm  EE =2.89062     diz =57.8125   mm  dd =10.4578   mm Trenutni precnik =40.9156    mm  L =44.4734   mm  
dL =24.7   mm  dkr =20   mm  EE =2.89062     diz =57.8125   mm  dd =10.5003   mm Trenutni precnik =41.0006    mm  L =44.4734   mm  
dL =24.8   mm  dkr =20   mm  EE =2.89062     diz =57.8125   mm  dd =10.5428   mm Trenutni precnik =41.0856    mm  L =44.4734   mm  
dL =24.9   mm  dkr =20   mm  EE =2.89062     diz =57.8125   mm  dd =10.5853   mm Trenutni precnik =41.1706    mm  L =44.4734   mm  
dL =25   mm  dkr =20   mm  EE =2.89062     diz =57.8125   mm  dd =10.6278   mm Trenutni precnik =41.2557    mm  L =44.4734   mm  
dL =25.1   mm  dkr =20   mm  EE =2.89062     diz =57.8125   mm  dd =10.6703   mm Trenutni precnik =41.3407    mm  L =44.4734   mm  
dL =25.2   mm  dkr =20   mm  EE =2.89062     diz =57.8125   mm  dd =10.7129   mm Trenutni precnik =41.4257    mm  L =44.4734   mm  
dL =25.3   mm  dkr =20   mm  EE =2.89062     diz =57.8125   mm  dd =10.7554   mm Trenutni precnik =41.5107    mm  L =44.4734   mm  
dL =25.4   mm  dkr =20   mm  EE =2.89062     diz =57.8125   mm  dd =10.7979   mm Trenutni precnik =41.5957    mm  L =44.4734   mm  
dL =25.5   mm  dkr =20   mm  EE =2.89062     diz =57.8125   mm  dd =10.8404   mm Trenutni precnik =41.6808    mm  L =44.4734   mm  
dL =25.6   mm  dkr =20   mm  EE =2.89062     diz =57.8125   mm  dd =10.8829   mm Trenutni precnik =41.7658    mm  L =44.4734   mm  
dL =25.7   mm  dkr =20   mm  EE =2.89062     diz =57.8125   mm  dd =10.9254   mm Trenutni precnik =41.8508    mm  L =44.4734   mm  
dL =25.8   mm  dkr =20   mm  EE =2.89062     diz =57.8125   mm  dd =10.9679   mm Trenutni precnik =41.9358    mm  L =44.4734   mm  
dL =25.9   mm  dkr =20   mm  EE =2.89062     diz =57.8125   mm  dd =11.0104   mm Trenutni precnik =42.0209    mm  L =44.4734   mm  
dL =26   mm  dkr =20   mm  EE =2.89062     diz =57.8125   mm  dd =11.0529   mm Trenutni precnik =42.1059    mm  L =44.4734   mm  
dL =26.1   mm  dkr =20   mm  EE =2.89062     diz =57.8125   mm  dd =11.0955   mm Trenutni precnik =42.1909    mm  L =44.4734   mm  
dL =26.2   mm  dkr =20   mm  EE =2.89062     diz =57.8125   mm  dd =11.138   mm Trenutni precnik =42.2759    mm  L =44.4734   mm  
dL =26.3   mm  dkr =20   mm  EE =2.89062     diz =57.8125   mm  dd =11.1805   mm Trenutni precnik =42.361    mm  L =44.4734   mm  
dL =26.4   mm  dkr =20   mm  EE =2.89062     diz =57.8125   mm  dd =11.223   mm Trenutni precnik =42.446    mm  L =44.4734   mm  
dL =26.5   mm  dkr =20   mm  EE =2.89062     diz =57.8125   mm  dd =11.2655   mm Trenutni precnik =42.531    mm  L =44.4734   mm  
dL =26.6   mm  dkr =20   mm  EE =2.89062     diz =57.8125   mm  dd =11.308   mm Trenutni precnik =42.616    mm  L =44.4734   mm  
dL =26.7   mm  dkr =20   mm  EE =2.89062     diz =57.8125   mm  dd =11.3505   mm Trenutni precnik =42.701    mm  L =44.4734   mm  
dL =26.8   mm  dkr =20   mm  EE =2.89062     diz =57.8125   mm  dd =11.393   mm Trenutni precnik =42.7861    mm  L =44.4734   mm  
dL =26.9   mm  dkr =20   mm  EE =2.89062     diz =57.8125   mm  dd =11.4355   mm Trenutni precnik =42.8711    mm  L =44.4734   mm  
dL =27   mm  dkr =20   mm  EE =2.89062     diz =57.8125   mm  dd =11.4781   mm Trenutni precnik =42.9561    mm  L =44.4734   mm  
dL =27.1   mm  dkr =20   mm  EE =2.89062     diz =57.8125   mm  dd =11.5206   mm Trenutni precnik =43.0411    mm  L =44.4734   mm  
dL =27.2   mm  dkr =20   mm  EE =2.89062     diz =57.8125   mm  dd =11.5631   mm Trenutni precnik =43.1262    mm  L =44.4734   mm  
dL =27.3   mm  dkr =20   mm  EE =2.89062     diz =57.8125   mm  dd =11.6056   mm Trenutni precnik =43.2112    mm  L =44.4734   mm  
dL =27.4   mm  dkr =20   mm  EE =2.89062     diz =57.8125   mm  dd =11.6481   mm Trenutni precnik =43.2962    mm  L =44.4734   mm  
dL =27.5   mm  dkr =20   mm  EE =2.89062     diz =57.8125   mm  dd =11.6906   mm Trenutni precnik =43.3812    mm  L =44.4734   mm  
dL =27.6   mm  dkr =20   mm  EE =2.89062     diz =57.8125   mm  dd =11.7331   mm Trenutni precnik =43.4662    mm  L =44.4734   mm  
dL =27.7   mm  dkr =20   mm  EE =2.89062     diz =57.8125   mm  dd =11.7756   mm Trenutni precnik =43.5513    mm  L =44.4734   mm  
dL =27.8   mm  dkr =20   mm  EE =2.89062     diz =57.8125   mm  dd =11.8181   mm Trenutni precnik =43.6363    mm  L =44.4734   mm  
dL =27.9   mm  dkr =20   mm  EE =2.89062     diz =57.8125   mm  dd =11.8607   mm Trenutni precnik =43.7213    mm  L =44.4734   mm  
dL =28   mm  dkr =20   mm  EE =2.89062     diz =57.8125   mm  dd =11.9032   mm Trenutni precnik =43.8063    mm  L =44.4734   mm  
dL =28.1   mm  dkr =20   mm  EE =2.89062     diz =57.8125   mm  dd =11.9457   mm Trenutni precnik =43.8914    mm  L =44.4734   mm  
dL =28.2   mm  dkr =20   mm  EE =2.89062     diz =57.8125   mm  dd =11.9882   mm Trenutni precnik =43.9764    mm  L =44.4734   mm  
dL =28.3   mm  dkr =20   mm  EE =2.89062     diz =57.8125   mm  dd =12.0307   mm Trenutni precnik =44.0614    mm  L =44.4734   mm  
dL =28.4   mm  dkr =20   mm  EE =2.89062     diz =57.8125   mm  dd =12.0732   mm Trenutni precnik =44.1464    mm  L =44.4734   mm  
dL =28.5   mm  dkr =20   mm  EE =2.89062     diz =57.8125   mm  dd =12.1157   mm Trenutni precnik =44.2314    mm  L =44.4734   mm  
dL =28.6   mm  dkr =20   mm  EE =2.89062     diz =57.8125   mm  dd =12.1582   mm Trenutni precnik =44.3165    mm  L =44.4734   mm  
dL =28.7   mm  dkr =20   mm  EE =2.89062     diz =57.8125   mm  dd =12.2007   mm Trenutni precnik =44.4015    mm  L =44.4734   mm  
dL =28.8   mm  dkr =20   mm  EE =2.89062     diz =57.8125   mm  dd =12.2433   mm Trenutni precnik =44.4865    mm  L =44.4734   mm  
dL =28.9   mm  dkr =20   mm  EE =2.89062     diz =57.8125   mm  dd =12.2858   mm Trenutni precnik =44.5715    mm  L =44.4734   mm  
dL =29   mm  dkr =20   mm  EE =2.89062     diz =57.8125   mm  dd =12.3283   mm Trenutni precnik =44.6566    mm  L =44.4734   mm  
dL =29.1   mm  dkr =20   mm  EE =2.89062     diz =57.8125   mm  dd =12.3708   mm Trenutni precnik =44.7416    mm  L =44.4734   mm  
dL =29.2   mm  dkr =20   mm  EE =2.89062     diz =57.8125   mm  dd =12.4133   mm Trenutni precnik =44.8266    mm  L =44.4734   mm  
dL =29.3   mm  dkr =20   mm  EE =2.89062     diz =57.8125   mm  dd =12.4558   mm Trenutni precnik =44.9116    mm  L =44.4734   mm  
dL =29.4   mm  dkr =20   mm  EE =2.89062     diz =57.8125   mm  dd =12.4983   mm Trenutni precnik =44.9967    mm  L =44.4734   mm  
dL =29.5   mm  dkr =20   mm  EE =2.89062     diz =57.8125   mm  dd =12.5408   mm Trenutni precnik =45.0817    mm  L =44.4734   mm  
dL =29.6   mm  dkr =20   mm  EE =2.89062     diz =57.8125   mm  dd =12.5833   mm Trenutni precnik =45.1667    mm  L =44.4734   mm  
dL =29.7   mm  dkr =20   mm  EE =2.89062     diz =57.8125   mm  dd =12.6259   mm Trenutni precnik =45.2517    mm  L =44.4734   mm  
dL =29.8   mm  dkr =20   mm  EE =2.89062     diz =57.8125   mm  dd =12.6684   mm Trenutni precnik =45.3367    mm  L =44.4734   mm  
dL =29.9   mm  dkr =20   mm  EE =2.89062     diz =57.8125   mm  dd =12.7109   mm Trenutni precnik =45.4218    mm  L =44.4734   mm  
dL =30   mm  dkr =20   mm  EE =2.89062     diz =57.8125   mm  dd =12.7534   mm Trenutni precnik =45.5068    mm  L =44.4734   mm  
dL =30.1   mm  dkr =20   mm  EE =2.89062     diz =57.8125   mm  dd =12.7959   mm Trenutni precnik =45.5918    mm  L =44.4734   mm  
dL =30.2   mm  dkr =20   mm  EE =2.89062     diz =57.8125   mm  dd =12.8384   mm Trenutni precnik =45.6768    mm  L =44.4734   mm  
dL =30.3   mm  dkr =20   mm  EE =2.89062     diz =57.8125   mm  dd =12.8809   mm Trenutni precnik =45.7619    mm  L =44.4734   mm  
dL =30.4   mm  dkr =20   mm  EE =2.89062     diz =57.8125   mm  dd =12.9234   mm Trenutni precnik =45.8469    mm  L =44.4734   mm  
dL =30.5   mm  dkr =20   mm  EE =2.89062     diz =57.8125   mm  dd =12.966   mm Trenutni precnik =45.9319    mm  L =44.4734   mm  
dL =30.6   mm  dkr =20   mm  EE =2.89062     diz =57.8125   mm  dd =13.0085   mm Trenutni precnik =46.0169    mm  L =44.4734   mm  
dL =30.7   mm  dkr =20   mm  EE =2.89062     diz =57.8125   mm  dd =13.051   mm Trenutni precnik =46.1019    mm  L =44.4734   mm  
dL =30.8   mm  dkr =20   mm  EE =2.89062     diz =57.8125   mm  dd =13.0935   mm Trenutni precnik =46.187    mm  L =44.4734   mm  
dL =30.9   mm  dkr =20   mm  EE =2.89062     diz =57.8125   mm  dd =13.136   mm Trenutni precnik =46.272    mm  L =44.4734   mm  
dL =31   mm  dkr =20   mm  EE =2.89062     diz =57.8125   mm  dd =13.1785   mm Trenutni precnik =46.357    mm  L =44.4734   mm  
dL =31.1   mm  dkr =20   mm  EE =2.89062     diz =57.8125   mm  dd =13.221   mm Trenutni precnik =46.442    mm  L =44.4734   mm  
dL =31.2   mm  dkr =20   mm  EE =2.89062     diz =57.8125   mm  dd =13.2635   mm Trenutni precnik =46.5271    mm  L =44.4734   mm  
dL =31.3   mm  dkr =20   mm  EE =2.89062     diz =57.8125   mm  dd =13.306   mm Trenutni precnik =46.6121    mm  L =44.4734   mm  
dL =31.4   mm  dkr =20   mm  EE =2.89062     diz =57.8125   mm  dd =13.3486   mm Trenutni precnik =46.6971    mm  L =44.4734   mm  
dL =31.5   mm  dkr =20   mm  EE =2.89062     diz =57.8125   mm  dd =13.3911   mm Trenutni precnik =46.7821    mm  L =44.4734   mm  
dL =31.6   mm  dkr =20   mm  EE =2.89062     diz =57.8125   mm  dd =13.4336   mm Trenutni precnik =46.8671    mm  L =44.4734   mm  
dL =31.7   mm  dkr =20   mm  EE =2.89062     diz =57.8125   mm  dd =13.4761   mm Trenutni precnik =46.9522    mm  L =44.4734   mm  
dL =31.8   mm  dkr =20   mm  EE =2.89062     diz =57.8125   mm  dd =13.5186   mm Trenutni precnik =47.0372    mm  L =44.4734   mm  
dL =31.9   mm  dkr =20   mm  EE =2.89062     diz =57.8125   mm  dd =13.5611   mm Trenutni precnik =47.1222    mm  L =44.4734   mm  
dL =32   mm  dkr =20   mm  EE =2.89062     diz =57.8125   mm  dd =13.6036   mm Trenutni precnik =47.2072    mm  L =44.4734   mm  
dL =32.1   mm  dkr =20   mm  EE =2.89062     diz =57.8125   mm  dd =13.6461   mm Trenutni precnik =47.2923    mm  L =44.4734   mm  
dL =32.2   mm  dkr =20   mm  EE =2.89062     diz =57.8125   mm  dd =13.6886   mm Trenutni precnik =47.3773    mm  L =44.4734   mm  
dL =32.3   mm  dkr =20   mm  EE =2.89062     diz =57.8125   mm  dd =13.7312   mm Trenutni precnik =47.4623    mm  L =44.4734   mm  
dL =32.4   mm  dkr =20   mm  EE =2.89062     diz =57.8125   mm  dd =13.7737   mm Trenutni precnik =47.5473    mm  L =44.4734   mm  
dL =32.5   mm  dkr =20   mm  EE =2.89062     diz =57.8125   mm  dd =13.8162   mm Trenutni precnik =47.6324    mm  L =44.4734   mm  
dL =32.6   mm  dkr =20   mm  EE =2.89062     diz =57.8125   mm  dd =13.8587   mm Trenutni precnik =47.7174    mm  L =44.4734   mm  
dL =32.7   mm  dkr =20   mm  EE =2.89062     diz =57.8125   mm  dd =13.9012   mm Trenutni precnik =47.8024    mm  L =44.4734   mm  
dL =32.8   mm  dkr =20   mm  EE =2.89062     diz =57.8125   mm  dd =13.9437   mm Trenutni precnik =47.8874    mm  L =44.4734   mm  
dL =32.9   mm  dkr =20   mm  EE =2.89062     diz =57.8125   mm  dd =13.9862   mm Trenutni precnik =47.9724    mm  L =44.4734   mm  
dL =33   mm  dkr =20   mm  EE =2.89062     diz =57.8125   mm  dd =14.0287   mm Trenutni precnik =48.0575    mm  L =44.4734   mm  
dL =33.1   mm  dkr =20   mm  EE =2.89062     diz =57.8125   mm  dd =14.0712   mm Trenutni precnik =48.1425    mm  L =44.4734   mm  
dL =33.2   mm  dkr =20   mm  EE =2.89062     diz =57.8125   mm  dd =14.1138   mm Trenutni precnik =48.2275    mm  L =44.4734   mm  
dL =33.3   mm  dkr =20   mm  EE =2.89062     diz =57.8125   mm  dd =14.1563   mm Trenutni precnik =48.3125    mm  L =44.4734   mm  
dL =33.4   mm  dkr =20   mm  EE =2.89062     diz =57.8125   mm  dd =14.1988   mm Trenutni precnik =48.3976    mm  L =44.4734   mm  
dL =33.5   mm  dkr =20   mm  EE =2.89062     diz =57.8125   mm  dd =14.2413   mm Trenutni precnik =48.4826    mm  L =44.4734   mm  
dL =33.6   mm  dkr =20   mm  EE =2.89062     diz =57.8125   mm  dd =14.2838   mm Trenutni precnik =48.5676    mm  L =44.4734   mm  
dL =33.7   mm  dkr =20   mm  EE =2.89062     diz =57.8125   mm  dd =14.3263   mm Trenutni precnik =48.6526    mm  L =44.4734   mm  
dL =33.8   mm  dkr =20   mm  EE =2.89062     diz =57.8125   mm  dd =14.3688   mm Trenutni precnik =48.7376    mm  L =44.4734   mm  
dL =33.9   mm  dkr =20   mm  EE =2.89062     diz =57.8125   mm  dd =14.4113   mm Trenutni precnik =48.8227    mm  L =44.4734   mm  
dL =34   mm  dkr =20   mm  EE =2.89062     diz =57.8125   mm  dd =14.4538   mm Trenutni precnik =48.9077    mm  L =44.4734   mm  
dL =34.1   mm  dkr =20   mm  EE =2.89062     diz =57.8125   mm  dd =14.4964   mm Trenutni precnik =48.9927    mm  L =44.4734   mm  
dL =34.2   mm  dkr =20   mm  EE =2.89062     diz =57.8125   mm  dd =14.5389   mm Trenutni precnik =49.0777    mm  L =44.4734   mm  
dL =34.3   mm  dkr =20   mm  EE =2.89062     diz =57.8125   mm  dd =14.5814   mm Trenutni precnik =49.1628    mm  L =44.4734   mm  
dL =34.4   mm  dkr =20   mm  EE =2.89062     diz =57.8125   mm  dd =14.6239   mm Trenutni precnik =49.2478    mm  L =44.4734   mm  
dL =34.5   mm  dkr =20   mm  EE =2.89062     diz =57.8125   mm  dd =14.6664   mm Trenutni precnik =49.3328    mm  L =44.4734   mm  
dL =34.6   mm  dkr =20   mm  EE =2.89062     diz =57.8125   mm  dd =14.7089   mm Trenutni precnik =49.4178    mm  L =44.4734   mm  
dL =34.7   mm  dkr =20   mm  EE =2.89062     diz =57.8125   mm  dd =14.7514   mm Trenutni precnik =49.5029    mm  L =44.4734   mm  
dL =34.8   mm  dkr =20   mm  EE =2.89062     diz =57.8125   mm  dd =14.7939   mm Trenutni precnik =49.5879    mm  L =44.4734   mm  
dL =34.9   mm  dkr =20   mm  EE =2.89062     diz =57.8125   mm  dd =14.8364   mm Trenutni precnik =49.6729    mm  L =44.4734   mm  
dL =35   mm  dkr =20   mm  EE =2.89062     diz =57.8125   mm  dd =14.879   mm Trenutni precnik =49.7579    mm  L =44.4734   mm  
dL =35.1   mm  dkr =20   mm  EE =2.89062     diz =57.8125   mm  dd =14.9215   mm Trenutni precnik =49.8429    mm  L =44.4734   mm  
dL =35.2   mm  dkr =20   mm  EE =2.89062     diz =57.8125   mm  dd =14.964   mm Trenutni precnik =49.928    mm  L =44.4734   mm  
dL =35.3   mm  dkr =20   mm  EE =2.89062     diz =57.8125   mm  dd =15.0065   mm Trenutni precnik =50.013    mm  L =44.4734   mm  
dL =35.4   mm  dkr =20   mm  EE =2.89062     diz =57.8125   mm  dd =15.049   mm Trenutni precnik =50.098    mm  L =44.4734   mm  
dL =35.5   mm  dkr =20   mm  EE =2.89062     diz =57.8125   mm  dd =15.0915   mm Trenutni precnik =50.183    mm  L =44.4734   mm  
dL =35.6   mm  dkr =20   mm  EE =2.89062     diz =57.8125   mm  dd =15.134   mm Trenutni precnik =50.2681    mm  L =44.4734   mm  
dL =35.7   mm  dkr =20   mm  EE =2.89062     diz =57.8125   mm  dd =15.1765   mm Trenutni precnik =50.3531    mm  L =44.4734   mm  
dL =35.8   mm  dkr =20   mm  EE =2.89062     diz =57.8125   mm  dd =15.219   mm Trenutni precnik =50.4381    mm  L =44.4734   mm  
dL =35.9   mm  dkr =20   mm  EE =2.89062     diz =57.8125   mm  dd =15.2616   mm Trenutni precnik =50.5231    mm  L =44.4734   mm  
dL =36   mm  dkr =20   mm  EE =2.89062     diz =57.8125   mm  dd =15.3041   mm Trenutni precnik =50.6081    mm  L =44.4734   mm  
dL =36.1   mm  dkr =20   mm  EE =2.89062     diz =57.8125   mm  dd =15.3466   mm Trenutni precnik =50.6932    mm  L =44.4734   mm  
dL =36.2   mm  dkr =20   mm  EE =2.89062     diz =57.8125   mm  dd =15.3891   mm Trenutni precnik =50.7782    mm  L =44.4734   mm  
dL =36.3   mm  dkr =20   mm  EE =2.89062     diz =57.8125   mm  dd =15.4316   mm Trenutni precnik =50.8632    mm  L =44.4734   mm  
dL =36.4   mm  dkr =20   mm  EE =2.89062     diz =57.8125   mm  dd =15.4741   mm Trenutni precnik =50.9482    mm  L =44.4734   mm  
dL =36.5   mm  dkr =20   mm  EE =2.89062     diz =57.8125   mm  dd =15.5166   mm Trenutni precnik =51.0333    mm  L =44.4734   mm  
dL =36.6   mm  dkr =20   mm  EE =2.89062     diz =57.8125   mm  dd =15.5591   mm Trenutni precnik =51.1183    mm  L =44.4734   mm  
dL =36.7   mm  dkr =20   mm  EE =2.89062     diz =57.8125   mm  dd =15.6017   mm Trenutni precnik =51.2033    mm  L =44.4734   mm  
dL =36.8   mm  dkr =20   mm  EE =2.89062     diz =57.8125   mm  dd =15.6442   mm Trenutni precnik =51.2883    mm  L =44.4734   mm  
dL =36.9   mm  dkr =20   mm  EE =2.89062     diz =57.8125   mm  dd =15.6867   mm Trenutni precnik =51.3733    mm  L =44.4734   mm  
dL =37   mm  dkr =20   mm  EE =2.89062     diz =57.8125   mm  dd =15.7292   mm Trenutni precnik =51.4584    mm  L =44.4734   mm  
dL =37.1   mm  dkr =20   mm  EE =2.89062     diz =57.8125   mm  dd =15.7717   mm Trenutni precnik =51.5434    mm  L =44.4734   mm  
dL =37.2   mm  dkr =20   mm  EE =2.89062     diz =57.8125   mm  dd =15.8142   mm Trenutni precnik =51.6284    mm  L =44.4734   mm  
dL =37.3   mm  dkr =20   mm  EE =2.89062     diz =57.8125   mm  dd =15.8567   mm Trenutni precnik =51.7134    mm  L =44.4734   mm  
dL =37.4   mm  dkr =20   mm  EE =2.89062     diz =57.8125   mm  dd =15.8992   mm Trenutni precnik =51.7985    mm  L =44.4734   mm  
dL =37.5   mm  dkr =20   mm  EE =2.89062     diz =57.8125   mm  dd =15.9417   mm Trenutni precnik =51.8835    mm  L =44.4734   mm  
dL =37.6   mm  dkr =20   mm  EE =2.89062     diz =57.8125   mm  dd =15.9843   mm Trenutni precnik =51.9685    mm  L =44.4734   mm  
dL =37.7   mm  dkr =20   mm  EE =2.89062     diz =57.8125   mm  dd =16.0268   mm Trenutni precnik =52.0535    mm  L =44.4734   mm  
dL =37.8   mm  dkr =20   mm  EE =2.89062     diz =57.8125   mm  dd =16.0693   mm Trenutni precnik =52.1386    mm  L =44.4734   mm  
dL =37.9   mm  dkr =20   mm  EE =2.89062     diz =57.8125   mm  dd =16.1118   mm Trenutni precnik =52.2236    mm  L =44.4734   mm  
dL =38   mm  dkr =20   mm  EE =2.89062     diz =57.8125   mm  dd =16.1543   mm Trenutni precnik =52.3086    mm  L =44.4734   mm  
dL =38.1   mm  dkr =20   mm  EE =2.89062     diz =57.8125   mm  dd =16.1968   mm Trenutni precnik =52.3936    mm  L =44.4734   mm  
dL =38.2   mm  dkr =20   mm  EE =2.89062     diz =57.8125   mm  dd =16.2393   mm Trenutni precnik =52.4786    mm  L =44.4734   mm  
dL =38.3   mm  dkr =20   mm  EE =2.89062     diz =57.8125   mm  dd =16.2818   mm Trenutni precnik =52.5637    mm  L =44.4734   mm  
dL =38.4   mm  dkr =20   mm  EE =2.89062     diz =57.8125   mm  dd =16.3243   mm Trenutni precnik =52.6487    mm  L =44.4734   mm  
dL =38.5   mm  dkr =20   mm  EE =2.89062     diz =57.8125   mm  dd =16.3669   mm Trenutni precnik =52.7337    mm  L =44.4734   mm  
dL =38.6   mm  dkr =20   mm  EE =2.89062     diz =57.8125   mm  dd =16.4094   mm Trenutni precnik =52.8187    mm  L =44.4734   mm  
dL =38.7   mm  dkr =20   mm  EE =2.89062     diz =57.8125   mm  dd =16.4519   mm Trenutni precnik =52.9038    mm  L =44.4734   mm  
dL =38.8   mm  dkr =20   mm  EE =2.89062     diz =57.8125   mm  dd =16.4944   mm Trenutni precnik =52.9888    mm  L =44.4734   mm  
dL =38.9   mm  dkr =20   mm  EE =2.89062     diz =57.8125   mm  dd =16.5369   mm Trenutni precnik =53.0738    mm  L =44.4734   mm  
dL =39   mm  dkr =20   mm  EE =2.89062     diz =57.8125   mm  dd =16.5794   mm Trenutni precnik =53.1588    mm  L =44.4734   mm  
dL =39.1   mm  dkr =20   mm  EE =2.89062     diz =57.8125   mm  dd =16.6219   mm Trenutni precnik =53.2438    mm  L =44.4734   mm  
dL =39.2   mm  dkr =20   mm  EE =2.89062     diz =57.8125   mm  dd =16.6644   mm Trenutni precnik =53.3289    mm  L =44.4734   mm  
dL =39.3   mm  dkr =20   mm  EE =2.89062     diz =57.8125   mm  dd =16.7069   mm Trenutni precnik =53.4139    mm  L =44.4734   mm  
dL =39.4   mm  dkr =20   mm  EE =2.89062     diz =57.8125   mm  dd =16.7495   mm Trenutni precnik =53.4989    mm  L =44.4734   mm  
dL =39.5   mm  dkr =20   mm  EE =2.89062     diz =57.8125   mm  dd =16.792   mm Trenutni precnik =53.5839    mm  L =44.4734   mm  
dL =39.6   mm  dkr =20   mm  EE =2.89062     diz =57.8125   mm  dd =16.8345   mm Trenutni precnik =53.669    mm  L =44.4734   mm  
dL =39.7   mm  dkr =20   mm  EE =2.89062     diz =57.8125   mm  dd =16.877   mm Trenutni precnik =53.754    mm  L =44.4734   mm  
dL =39.8   mm  dkr =20   mm  EE =2.89062     diz =57.8125   mm  dd =16.9195   mm Trenutni precnik =53.839    mm  L =44.4734   mm  
dL =39.9   mm  dkr =20   mm  EE =2.89062     diz =57.8125   mm  dd =16.962   mm Trenutni precnik =53.924    mm  L =44.4734   mm  
dL =40   mm  dkr =20   mm  EE =2.89062     diz =57.8125   mm  dd =17.0045   mm Trenutni precnik =54.009    mm  L =44.4734   mm  
dL =40.1   mm  dkr =20   mm  EE =2.89062     diz =57.8125   mm  dd =17.047   mm Trenutni precnik =54.0941    mm  L =44.4734   mm  
dL =40.2   mm  dkr =20   mm  EE =2.89062     diz =57.8125   mm  dd =17.0895   mm Trenutni precnik =54.1791    mm  L =44.4734   mm  
dL =40.3   mm  dkr =20   mm  EE =2.89062     diz =57.8125   mm  dd =17.1321   mm Trenutni precnik =54.2641    mm  L =44.4734   mm  
dL =40.4   mm  dkr =20   mm  EE =2.89062     diz =57.8125   mm  dd =17.1746   mm Trenutni precnik =54.3491    mm  L =44.4734   mm  
dL =40.5   mm  dkr =20   mm  EE =2.89062     diz =57.8125   mm  dd =17.2171   mm Trenutni precnik =54.4342    mm  L =44.4734   mm  
dL =40.6   mm  dkr =20   mm  EE =2.89062     diz =57.8125   mm  dd =17.2596   mm Trenutni precnik =54.5192    mm  L =44.4734   mm  
dL =40.7   mm  dkr =20   mm  EE =2.89062     diz =57.8125   mm  dd =17.3021   mm Trenutni precnik =54.6042    mm  L =44.4734   mm  
dL =40.8   mm  dkr =20   mm  EE =2.89062     diz =57.8125   mm  dd =17.3446   mm Trenutni precnik =54.6892    mm  L =44.4734   mm  
dL =40.9   mm  dkr =20   mm  EE =2.89062     diz =57.8125   mm  dd =17.3871   mm Trenutni precnik =54.7743    mm  L =44.4734   mm  
dL =41   mm  dkr =20   mm  EE =2.89062     diz =57.8125   mm  dd =17.4296   mm Trenutni precnik =54.8593    mm  L =44.4734   mm  
dL =41.1   mm  dkr =20   mm  EE =2.89062     diz =57.8125   mm  dd =17.4721   mm Trenutni precnik =54.9443    mm  L =44.4734   mm  
dL =41.2   mm  dkr =20   mm  EE =2.89062     diz =57.8125   mm  dd =17.5147   mm Trenutni precnik =55.0293    mm  L =44.4734   mm  
dL =41.3   mm  dkr =20   mm  EE =2.89062     diz =57.8125   mm  dd =17.5572   mm Trenutni precnik =55.1143    mm  L =44.4734   mm  
dL =41.4   mm  dkr =20   mm  EE =2.89062     diz =57.8125   mm  dd =17.5997   mm Trenutni precnik =55.1994    mm  L =44.4734   mm  
dL =41.5   mm  dkr =20   mm  EE =2.89062     diz =57.8125   mm  dd =17.6422   mm Trenutni precnik =55.2844    mm  L =44.4734   mm  
dL =41.6   mm  dkr =20   mm  EE =2.89062     diz =57.8125   mm  dd =17.6847   mm Trenutni precnik =55.3694    mm  L =44.4734   mm  
dL =41.7   mm  dkr =20   mm  EE =2.89062     diz =57.8125   mm  dd =17.7272   mm Trenutni precnik =55.4544    mm  L =44.4734   mm  
dL =41.8   mm  dkr =20   mm  EE =2.89062     diz =57.8125   mm  dd =17.7697   mm Trenutni precnik =55.5395    mm  L =44.4734   mm  
dL =41.9   mm  dkr =20   mm  EE =2.89062     diz =57.8125   mm  dd =17.8122   mm Trenutni precnik =55.6245    mm  L =44.4734   mm  
dL =42   mm  dkr =20   mm  EE =2.89062     diz =57.8125   mm  dd =17.8548   mm Trenutni precnik =55.7095    mm  L =44.4734   mm  
dL =42.1   mm  dkr =20   mm  EE =2.89062     diz =57.8125   mm  dd =17.8973   mm Trenutni precnik =55.7945    mm  L =44.4734   mm  
dL =42.2   mm  dkr =20   mm  EE =2.89062     diz =57.8125   mm  dd =17.9398   mm Trenutni precnik =55.8795    mm  L =44.4734   mm  
dL =42.3   mm  dkr =20   mm  EE =2.89062     diz =57.8125   mm  dd =17.9823   mm Trenutni precnik =55.9646    mm  L =44.4734   mm  
dL =42.4   mm  dkr =20   mm  EE =2.89062     diz =57.8125   mm  dd =18.0248   mm Trenutni precnik =56.0496    mm  L =44.4734   mm  
dL =42.5   mm  dkr =20   mm  EE =2.89062     diz =57.8125   mm  dd =18.0673   mm Trenutni precnik =56.1346    mm  L =44.4734   mm  
dL =42.6   mm  dkr =20   mm  EE =2.89062     diz =57.8125   mm  dd =18.1098   mm Trenutni precnik =56.2196    mm  L =44.4734   mm  
dL =42.7   mm  dkr =20   mm  EE =2.89062     diz =57.8125   mm  dd =18.1523   mm Trenutni precnik =56.3047    mm  L =44.4734   mm  
dL =42.8   mm  dkr =20   mm  EE =2.89062     diz =57.8125   mm  dd =18.1948   mm Trenutni precnik =56.3897    mm  L =44.4734   mm  
dL =42.9   mm  dkr =20   mm  EE =2.89062     diz =57.8125   mm  dd =18.2374   mm Trenutni precnik =56.4747    mm  L =44.4734   mm  
dL =43   mm  dkr =20   mm  EE =2.89062     diz =57.8125   mm  dd =18.2799   mm Trenutni precnik =56.5597    mm  L =44.4734   mm  
dL =43.1   mm  dkr =20   mm  EE =2.89062     diz =57.8125   mm  dd =18.3224   mm Trenutni precnik =56.6448    mm  L =44.4734   mm  
dL =43.2   mm  dkr =20   mm  EE =2.89062     diz =57.8125   mm  dd =18.3649   mm Trenutni precnik =56.7298    mm  L =44.4734   mm  
dL =43.3   mm  dkr =20   mm  EE =2.89062     diz =57.8125   mm  dd =18.4074   mm Trenutni precnik =56.8148    mm  L =44.4734   mm  
dL =43.4   mm  dkr =20   mm  EE =2.89062     diz =57.8125   mm  dd =18.4499   mm Trenutni precnik =56.8998    mm  L =44.4734   mm  
dL =43.5   mm  dkr =20   mm  EE =2.89062     diz =57.8125   mm  dd =18.4924   mm Trenutni precnik =56.9848    mm  L =44.4734   mm  
dL =43.6   mm  dkr =20   mm  EE =2.89062     diz =57.8125   mm  dd =18.5349   mm Trenutni precnik =57.0699    mm  L =44.4734   mm  
dL =43.7   mm  dkr =20   mm  EE =2.89062     diz =57.8125   mm  dd =18.5774   mm Trenutni precnik =57.1549    mm  L =44.4734   mm  
dL =43.8   mm  dkr =20   mm  EE =2.89062     diz =57.8125   mm  dd =18.62   mm Trenutni precnik =57.2399    mm  L =44.4734   mm  
dL =43.9   mm  dkr =20   mm  EE =2.89062     diz =57.8125   mm  dd =18.6625   mm Trenutni precnik =57.3249    mm  L =44.4734   mm  
dL =44   mm  dkr =20   mm  EE =2.89062     diz =57.8125   mm  dd =18.705   mm Trenutni precnik =57.41    mm  L =44.4734   mm  
dL =44.1   mm  dkr =20   mm  EE =2.89062     diz =57.8125   mm  dd =18.7475   mm Trenutni precnik =57.495    mm  L =44.4734   mm  
dL =44.2   mm  dkr =20   mm  EE =2.89062     diz =57.8125   mm  dd =18.79   mm Trenutni precnik =57.58    mm  L =44.4734   mm  
dL =44.3   mm  dkr =20   mm  EE =2.89062     diz =57.8125   mm  dd =18.8325   mm Trenutni precnik =57.665    mm  L =44.4734   mm  
dL =44.4   mm  dkr =20   mm  EE =2.89062     diz =57.8125   mm  dd =18.875   mm Trenutni precnik =57.75    mm  L =44.4734   mm  
