dT=  -25  C    Ukriticno =231.456 m/s    
dT=  -24.9  C    Ukriticno =231.503 m/s    
dT=  -24.8  C    Ukriticno =231.55 m/s    
dT=  -24.7  C    Ukriticno =231.596 m/s    
dT=  -24.6  C    Ukriticno =231.643 m/s    
dT=  -24.5  C    Ukriticno =231.689 m/s    
dT=  -24.4  C    Ukriticno =231.736 m/s    
dT=  -24.3  C    Ukriticno =231.783 m/s    
dT=  -24.2  C    Ukriticno =231.829 m/s    
dT=  -24.1  C    Ukriticno =231.876 m/s    
dT=  -24  C    Ukriticno =231.922 m/s    
dT=  -23.9  C    Ukriticno =231.969 m/s    
dT=  -23.8  C    Ukriticno =232.015 m/s    
dT=  -23.7  C    Ukriticno =232.062 m/s    
dT=  -23.6  C    Ukriticno =232.108 m/s    
dT=  -23.5  C    Ukriticno =232.155 m/s    
dT=  -23.4  C    Ukriticno =232.201 m/s    
dT=  -23.3  C    Ukriticno =232.248 m/s    
dT=  -23.2  C    Ukriticno =232.294 m/s    
dT=  -23.1  C    Ukriticno =232.341 m/s    
dT=  -23  C    Ukriticno =232.387 m/s    
dT=  -22.9  C    Ukriticno =232.434 m/s    
dT=  -22.8  C    Ukriticno =232.48 m/s    
dT=  -22.7  C    Ukriticno =232.527 m/s    
dT=  -22.6  C    Ukriticno =232.573 m/s    
dT=  -22.5  C    Ukriticno =232.619 m/s    
dT=  -22.4  C    Ukriticno =232.666 m/s    
dT=  -22.3  C    Ukriticno =232.712 m/s    
dT=  -22.2  C    Ukriticno =232.759 m/s    
dT=  -22.1  C    Ukriticno =232.805 m/s    
dT=  -22  C    Ukriticno =232.851 m/s    
dT=  -21.9  C    Ukriticno =232.898 m/s    
dT=  -21.8  C    Ukriticno =232.944 m/s    
dT=  -21.7  C    Ukriticno =232.99 m/s    
dT=  -21.6  C    Ukriticno =233.037 m/s    
dT=  -21.5  C    Ukriticno =233.083 m/s    
dT=  -21.4  C    Ukriticno =233.129 m/s    
dT=  -21.3  C    Ukriticno =233.176 m/s    
dT=  -21.2  C    Ukriticno =233.222 m/s    
dT=  -21.1  C    Ukriticno =233.268 m/s    
dT=  -21  C    Ukriticno =233.314 m/s    
dT=  -20.9  C    Ukriticno =233.361 m/s    
dT=  -20.8  C    Ukriticno =233.407 m/s    
dT=  -20.7  C    Ukriticno =233.453 m/s    
dT=  -20.6  C    Ukriticno =233.499 m/s    
dT=  -20.5  C    Ukriticno =233.546 m/s    
dT=  -20.4  C    Ukriticno =233.592 m/s    
dT=  -20.3  C    Ukriticno =233.638 m/s    
dT=  -20.2  C    Ukriticno =233.684 m/s    
dT=  -20.1  C    Ukriticno =233.73 m/s    
dT=  -20  C    Ukriticno =233.777 m/s    
dT=  -19.9  C    Ukriticno =233.823 m/s    
dT=  -19.8  C    Ukriticno =233.869 m/s    
dT=  -19.7  C    Ukriticno =233.915 m/s    
dT=  -19.6  C    Ukriticno =233.961 m/s    
dT=  -19.5  C    Ukriticno =234.007 m/s    
dT=  -19.4  C    Ukriticno =234.053 m/s    
dT=  -19.3  C    Ukriticno =234.1 m/s    
dT=  -19.2  C    Ukriticno =234.146 m/s    
dT=  -19.1  C    Ukriticno =234.192 m/s    
dT=  -19  C    Ukriticno =234.238 m/s    
dT=  -18.9  C    Ukriticno =234.284 m/s    
dT=  -18.8  C    Ukriticno =234.33 m/s    
dT=  -18.7  C    Ukriticno =234.376 m/s    
dT=  -18.6  C    Ukriticno =234.422 m/s    
dT=  -18.5  C    Ukriticno =234.468 m/s    
dT=  -18.4  C    Ukriticno =234.514 m/s    
dT=  -18.3  C    Ukriticno =234.56 m/s    
dT=  -18.2  C    Ukriticno =234.606 m/s    
dT=  -18.1  C    Ukriticno =234.652 m/s    
dT=  -18  C    Ukriticno =234.698 m/s    
dT=  -17.9  C    Ukriticno =234.744 m/s    
dT=  -17.8  C    Ukriticno =234.79 m/s    
dT=  -17.7  C    Ukriticno =234.836 m/s    
dT=  -17.6  C    Ukriticno =234.882 m/s    
dT=  -17.5  C    Ukriticno =234.928 m/s    
dT=  -17.4  C    Ukriticno =234.974 m/s    
dT=  -17.3  C    Ukriticno =235.02 m/s    
dT=  -17.2  C    Ukriticno =235.066 m/s    
dT=  -17.1  C    Ukriticno =235.112 m/s    
dT=  -17  C    Ukriticno =235.158 m/s    
dT=  -16.9  C    Ukriticno =235.204 m/s    
dT=  -16.8  C    Ukriticno =235.249 m/s    
dT=  -16.7  C    Ukriticno =235.295 m/s    
dT=  -16.6  C    Ukriticno =235.341 m/s    
dT=  -16.5  C    Ukriticno =235.387 m/s    
dT=  -16.4  C    Ukriticno =235.433 m/s    
dT=  -16.3  C    Ukriticno =235.479 m/s    
dT=  -16.2  C    Ukriticno =235.525 m/s    
dT=  -16.1  C    Ukriticno =235.57 m/s    
dT=  -16  C    Ukriticno =235.616 m/s    
dT=  -15.9  C    Ukriticno =235.662 m/s    
dT=  -15.8  C    Ukriticno =235.708 m/s    
dT=  -15.7  C    Ukriticno =235.754 m/s    
dT=  -15.6  C    Ukriticno =235.799 m/s    
dT=  -15.5  C    Ukriticno =235.845 m/s    
dT=  -15.4  C    Ukriticno =235.891 m/s    
dT=  -15.3  C    Ukriticno =235.937 m/s    
dT=  -15.2  C    Ukriticno =235.982 m/s    
dT=  -15.1  C    Ukriticno =236.028 m/s    
dT=  -15  C    Ukriticno =236.074 m/s    
dT=  -14.9  C    Ukriticno =236.12 m/s    
dT=  -14.8  C    Ukriticno =236.165 m/s    
dT=  -14.7  C    Ukriticno =236.211 m/s    
dT=  -14.6  C    Ukriticno =236.257 m/s    
dT=  -14.5  C    Ukriticno =236.302 m/s    
dT=  -14.4  C    Ukriticno =236.348 m/s    
dT=  -14.3  C    Ukriticno =236.394 m/s    
dT=  -14.2  C    Ukriticno =236.439 m/s    
dT=  -14.1  C    Ukriticno =236.485 m/s    
dT=  -14  C    Ukriticno =236.531 m/s    
dT=  -13.9  C    Ukriticno =236.576 m/s    
dT=  -13.8  C    Ukriticno =236.622 m/s    
dT=  -13.7  C    Ukriticno =236.668 m/s    
dT=  -13.6  C    Ukriticno =236.713 m/s    
dT=  -13.5  C    Ukriticno =236.759 m/s    
dT=  -13.4  C    Ukriticno =236.804 m/s    
dT=  -13.3  C    Ukriticno =236.85 m/s    
dT=  -13.2  C    Ukriticno =236.896 m/s    
dT=  -13.1  C    Ukriticno =236.941 m/s    
dT=  -13  C    Ukriticno =236.987 m/s    
dT=  -12.9  C    Ukriticno =237.032 m/s    
dT=  -12.8  C    Ukriticno =237.078 m/s    
dT=  -12.7  C    Ukriticno =237.123 m/s    
dT=  -12.6  C    Ukriticno =237.169 m/s    
dT=  -12.5  C    Ukriticno =237.214 m/s    
dT=  -12.4  C    Ukriticno =237.26 m/s    
dT=  -12.3  C    Ukriticno =237.305 m/s    
dT=  -12.2  C    Ukriticno =237.351 m/s    
dT=  -12.1  C    Ukriticno =237.396 m/s    
dT=  -12  C    Ukriticno =237.442 m/s    
dT=  -11.9  C    Ukriticno =237.487 m/s    
dT=  -11.8  C    Ukriticno =237.533 m/s    
dT=  -11.7  C    Ukriticno =237.578 m/s    
dT=  -11.6  C    Ukriticno =237.623 m/s    
dT=  -11.5  C    Ukriticno =237.669 m/s    
dT=  -11.4  C    Ukriticno =237.714 m/s    
dT=  -11.3  C    Ukriticno =237.76 m/s    
dT=  -11.2  C    Ukriticno =237.805 m/s    
dT=  -11.1  C    Ukriticno =237.85 m/s    
dT=  -11  C    Ukriticno =237.896 m/s    
dT=  -10.9  C    Ukriticno =237.941 m/s    
dT=  -10.8  C    Ukriticno =237.987 m/s    
dT=  -10.7  C    Ukriticno =238.032 m/s    
dT=  -10.6  C    Ukriticno =238.077 m/s    
dT=  -10.5  C    Ukriticno =238.123 m/s    
dT=  -10.4  C    Ukriticno =238.168 m/s    
dT=  -10.3  C    Ukriticno =238.213 m/s    
dT=  -10.2  C    Ukriticno =238.259 m/s    
dT=  -10.1  C    Ukriticno =238.304 m/s    
dT=  -10  C    Ukriticno =238.349 m/s    
dT=  -9.9  C    Ukriticno =238.394 m/s    
dT=  -9.8  C    Ukriticno =238.44 m/s    
dT=  -9.7  C    Ukriticno =238.485 m/s    
dT=  -9.6  C    Ukriticno =238.53 m/s    
dT=  -9.5  C    Ukriticno =238.575 m/s    
dT=  -9.4  C    Ukriticno =238.621 m/s    
dT=  -9.3  C    Ukriticno =238.666 m/s    
dT=  -9.2  C    Ukriticno =238.711 m/s    
dT=  -9.1  C    Ukriticno =238.756 m/s    
dT=  -9  C    Ukriticno =238.802 m/s    
dT=  -8.9  C    Ukriticno =238.847 m/s    
dT=  -8.8  C    Ukriticno =238.892 m/s    
dT=  -8.7  C    Ukriticno =238.937 m/s    
dT=  -8.6  C    Ukriticno =238.982 m/s    
dT=  -8.5  C    Ukriticno =239.028 m/s    
dT=  -8.4  C    Ukriticno =239.073 m/s    
dT=  -8.3  C    Ukriticno =239.118 m/s    
dT=  -8.2  C    Ukriticno =239.163 m/s    
dT=  -8.1  C    Ukriticno =239.208 m/s    
dT=  -8  C    Ukriticno =239.253 m/s    
dT=  -7.9  C    Ukriticno =239.298 m/s    
dT=  -7.8  C    Ukriticno =239.343 m/s    
dT=  -7.7  C    Ukriticno =239.389 m/s    
dT=  -7.6  C    Ukriticno =239.434 m/s    
dT=  -7.5  C    Ukriticno =239.479 m/s    
dT=  -7.4  C    Ukriticno =239.524 m/s    
dT=  -7.3  C    Ukriticno =239.569 m/s    
dT=  -7.2  C    Ukriticno =239.614 m/s    
dT=  -7.1  C    Ukriticno =239.659 m/s    
dT=  -7  C    Ukriticno =239.704 m/s    
dT=  -6.9  C    Ukriticno =239.749 m/s    
dT=  -6.8  C    Ukriticno =239.794 m/s    
dT=  -6.7  C    Ukriticno =239.839 m/s    
dT=  -6.6  C    Ukriticno =239.884 m/s    
dT=  -6.5  C    Ukriticno =239.929 m/s    
dT=  -6.4  C    Ukriticno =239.974 m/s    
dT=  -6.3  C    Ukriticno =240.019 m/s    
dT=  -6.2  C    Ukriticno =240.064 m/s    
dT=  -6.1  C    Ukriticno =240.109 m/s    
dT=  -6  C    Ukriticno =240.154 m/s    
dT=  -5.9  C    Ukriticno =240.199 m/s    
dT=  -5.8  C    Ukriticno =240.244 m/s    
dT=  -5.7  C    Ukriticno =240.289 m/s    
dT=  -5.6  C    Ukriticno =240.334 m/s    
dT=  -5.5  C    Ukriticno =240.378 m/s    
dT=  -5.4  C    Ukriticno =240.423 m/s    
dT=  -5.3  C    Ukriticno =240.468 m/s    
dT=  -5.2  C    Ukriticno =240.513 m/s    
dT=  -5.1  C    Ukriticno =240.558 m/s    
dT=  -5  C    Ukriticno =240.603 m/s    
dT=  -4.9  C    Ukriticno =240.648 m/s    
dT=  -4.8  C    Ukriticno =240.693 m/s    
dT=  -4.7  C    Ukriticno =240.737 m/s    
dT=  -4.6  C    Ukriticno =240.782 m/s    
dT=  -4.5  C    Ukriticno =240.827 m/s    
dT=  -4.4  C    Ukriticno =240.872 m/s    
dT=  -4.3  C    Ukriticno =240.917 m/s    
dT=  -4.2  C    Ukriticno =240.962 m/s    
dT=  -4.1  C    Ukriticno =241.006 m/s    
dT=  -4  C    Ukriticno =241.051 m/s    
dT=  -3.9  C    Ukriticno =241.096 m/s    
dT=  -3.8  C    Ukriticno =241.141 m/s    
dT=  -3.7  C    Ukriticno =241.185 m/s    
dT=  -3.6  C    Ukriticno =241.23 m/s    
dT=  -3.5  C    Ukriticno =241.275 m/s    
dT=  -3.4  C    Ukriticno =241.32 m/s    
dT=  -3.3  C    Ukriticno =241.364 m/s    
dT=  -3.2  C    Ukriticno =241.409 m/s    
dT=  -3.1  C    Ukriticno =241.454 m/s    
dT=  -3  C    Ukriticno =241.499 m/s    
dT=  -2.9  C    Ukriticno =241.543 m/s    
dT=  -2.8  C    Ukriticno =241.588 m/s    
dT=  -2.7  C    Ukriticno =241.633 m/s    
dT=  -2.6  C    Ukriticno =241.677 m/s    
dT=  -2.5  C    Ukriticno =241.722 m/s    
dT=  -2.4  C    Ukriticno =241.767 m/s    
dT=  -2.3  C    Ukriticno =241.811 m/s    
dT=  -2.2  C    Ukriticno =241.856 m/s    
dT=  -2.1  C    Ukriticno =241.9 m/s    
dT=  -2  C    Ukriticno =241.945 m/s    
dT=  -1.9  C    Ukriticno =241.99 m/s    
dT=  -1.8  C    Ukriticno =242.034 m/s    
dT=  -1.7  C    Ukriticno =242.079 m/s    
dT=  -1.6  C    Ukriticno =242.123 m/s    
dT=  -1.5  C    Ukriticno =242.168 m/s    
dT=  -1.4  C    Ukriticno =242.213 m/s    
dT=  -1.3  C    Ukriticno =242.257 m/s    
dT=  -1.2  C    Ukriticno =242.302 m/s    
dT=  -1.1  C    Ukriticno =242.346 m/s    
dT=  -1  C    Ukriticno =242.391 m/s    
dT=  -0.9  C    Ukriticno =242.435 m/s    
dT=  -0.8  C    Ukriticno =242.48 m/s    
dT=  -0.7  C    Ukriticno =242.524 m/s    
dT=  -0.6  C    Ukriticno =242.569 m/s    
dT=  -0.5  C    Ukriticno =242.613 m/s    
dT=  -0.4  C    Ukriticno =242.658 m/s    
dT=  -0.3  C    Ukriticno =242.702 m/s    
dT=  -0.2  C    Ukriticno =242.747 m/s    
dT=  -0.1  C    Ukriticno =242.791 m/s    
dT=  3.46745e-012  C    Ukriticno =242.836 m/s    
dT=  0.1  C    Ukriticno =242.88 m/s    
dT=  0.2  C    Ukriticno =242.925 m/s    
dT=  0.3  C    Ukriticno =242.969 m/s    
dT=  0.4  C    Ukriticno =243.013 m/s    
dT=  0.5  C    Ukriticno =243.058 m/s    
dT=  0.6  C    Ukriticno =243.102 m/s    
dT=  0.7  C    Ukriticno =243.147 m/s    
dT=  0.8  C    Ukriticno =243.191 m/s    
dT=  0.9  C    Ukriticno =243.235 m/s    
dT=  1  C    Ukriticno =243.28 m/s    
dT=  1.1  C    Ukriticno =243.324 m/s    
dT=  1.2  C    Ukriticno =243.369 m/s    
dT=  1.3  C    Ukriticno =243.413 m/s    
dT=  1.4  C    Ukriticno =243.457 m/s    
dT=  1.5  C    Ukriticno =243.502 m/s    
dT=  1.6  C    Ukriticno =243.546 m/s    
dT=  1.7  C    Ukriticno =243.59 m/s    
dT=  1.8  C    Ukriticno =243.635 m/s    
dT=  1.9  C    Ukriticno =243.679 m/s    
dT=  2  C    Ukriticno =243.723 m/s    
dT=  2.1  C    Ukriticno =243.767 m/s    
dT=  2.2  C    Ukriticno =243.812 m/s    
dT=  2.3  C    Ukriticno =243.856 m/s    
dT=  2.4  C    Ukriticno =243.9 m/s    
dT=  2.5  C    Ukriticno =243.944 m/s    
dT=  2.6  C    Ukriticno =243.989 m/s    
dT=  2.7  C    Ukriticno =244.033 m/s    
dT=  2.8  C    Ukriticno =244.077 m/s    
dT=  2.9  C    Ukriticno =244.121 m/s    
dT=  3  C    Ukriticno =244.166 m/s    
dT=  3.1  C    Ukriticno =244.21 m/s    
dT=  3.2  C    Ukriticno =244.254 m/s    
dT=  3.3  C    Ukriticno =244.298 m/s    
dT=  3.4  C    Ukriticno =244.342 m/s    
dT=  3.5  C    Ukriticno =244.387 m/s    
dT=  3.6  C    Ukriticno =244.431 m/s    
dT=  3.7  C    Ukriticno =244.475 m/s    
dT=  3.8  C    Ukriticno =244.519 m/s    
dT=  3.9  C    Ukriticno =244.563 m/s    
dT=  4  C    Ukriticno =244.607 m/s    
dT=  4.1  C    Ukriticno =244.651 m/s    
dT=  4.2  C    Ukriticno =244.696 m/s    
dT=  4.3  C    Ukriticno =244.74 m/s    
dT=  4.4  C    Ukriticno =244.784 m/s    
dT=  4.5  C    Ukriticno =244.828 m/s    
dT=  4.6  C    Ukriticno =244.872 m/s    
dT=  4.7  C    Ukriticno =244.916 m/s    
dT=  4.8  C    Ukriticno =244.96 m/s    
dT=  4.9  C    Ukriticno =245.004 m/s    
dT=  5  C    Ukriticno =245.048 m/s    
dT=  5.1  C    Ukriticno =245.092 m/s    
dT=  5.2  C    Ukriticno =245.136 m/s    
dT=  5.3  C    Ukriticno =245.18 m/s    
dT=  5.4  C    Ukriticno =245.224 m/s    
dT=  5.5  C    Ukriticno =245.268 m/s    
dT=  5.6  C    Ukriticno =245.312 m/s    
dT=  5.7  C    Ukriticno =245.356 m/s    
dT=  5.8  C    Ukriticno =245.4 m/s    
dT=  5.9  C    Ukriticno =245.444 m/s    
dT=  6  C    Ukriticno =245.488 m/s    
dT=  6.1  C    Ukriticno =245.532 m/s    
dT=  6.2  C    Ukriticno =245.576 m/s    
dT=  6.3  C    Ukriticno =245.62 m/s    
dT=  6.4  C    Ukriticno =245.664 m/s    
dT=  6.5  C    Ukriticno =245.708 m/s    
dT=  6.6  C    Ukriticno =245.752 m/s    
dT=  6.7  C    Ukriticno =245.796 m/s    
dT=  6.8  C    Ukriticno =245.84 m/s    
dT=  6.9  C    Ukriticno =245.884 m/s    
dT=  7  C    Ukriticno =245.928 m/s    
dT=  7.1  C    Ukriticno =245.971 m/s    
dT=  7.2  C    Ukriticno =246.015 m/s    
dT=  7.3  C    Ukriticno =246.059 m/s    
dT=  7.4  C    Ukriticno =246.103 m/s    
dT=  7.5  C    Ukriticno =246.147 m/s    
dT=  7.6  C    Ukriticno =246.191 m/s    
dT=  7.7  C    Ukriticno =246.235 m/s    
dT=  7.8  C    Ukriticno =246.278 m/s    
dT=  7.9  C    Ukriticno =246.322 m/s    
dT=  8  C    Ukriticno =246.366 m/s    
dT=  8.1  C    Ukriticno =246.41 m/s    
dT=  8.2  C    Ukriticno =246.454 m/s    
dT=  8.3  C    Ukriticno =246.498 m/s    
dT=  8.4  C    Ukriticno =246.541 m/s    
dT=  8.5  C    Ukriticno =246.585 m/s    
dT=  8.6  C    Ukriticno =246.629 m/s    
dT=  8.7  C    Ukriticno =246.673 m/s    
dT=  8.8  C    Ukriticno =246.716 m/s    
dT=  8.9  C    Ukriticno =246.76 m/s    
dT=  9  C    Ukriticno =246.804 m/s    
dT=  9.1  C    Ukriticno =246.848 m/s    
dT=  9.2  C    Ukriticno =246.891 m/s    
dT=  9.3  C    Ukriticno =246.935 m/s    
dT=  9.4  C    Ukriticno =246.979 m/s    
dT=  9.5  C    Ukriticno =247.022 m/s    
dT=  9.6  C    Ukriticno =247.066 m/s    
dT=  9.7  C    Ukriticno =247.11 m/s    
dT=  9.8  C    Ukriticno =247.154 m/s    
dT=  9.9  C    Ukriticno =247.197 m/s    
dT=  10  C    Ukriticno =247.241 m/s    
dT=  10.1  C    Ukriticno =247.285 m/s    
dT=  10.2  C    Ukriticno =247.328 m/s    
dT=  10.3  C    Ukriticno =247.372 m/s    
dT=  10.4  C    Ukriticno =247.415 m/s    
dT=  10.5  C    Ukriticno =247.459 m/s    
dT=  10.6  C    Ukriticno =247.503 m/s    
dT=  10.7  C    Ukriticno =247.546 m/s    
dT=  10.8  C    Ukriticno =247.59 m/s    
dT=  10.9  C    Ukriticno =247.633 m/s    
dT=  11  C    Ukriticno =247.677 m/s    
dT=  11.1  C    Ukriticno =247.721 m/s    
dT=  11.2  C    Ukriticno =247.764 m/s    
dT=  11.3  C    Ukriticno =247.808 m/s    
dT=  11.4  C    Ukriticno =247.851 m/s    
dT=  11.5  C    Ukriticno =247.895 m/s    
dT=  11.6  C    Ukriticno =247.938 m/s    
dT=  11.7  C    Ukriticno =247.982 m/s    
dT=  11.8  C    Ukriticno =248.025 m/s    
dT=  11.9  C    Ukriticno =248.069 m/s    
dT=  12  C    Ukriticno =248.112 m/s    
dT=  12.1  C    Ukriticno =248.156 m/s    
dT=  12.2  C    Ukriticno =248.199 m/s    
dT=  12.3  C    Ukriticno =248.243 m/s    
dT=  12.4  C    Ukriticno =248.286 m/s    
dT=  12.5  C    Ukriticno =248.33 m/s    
dT=  12.6  C    Ukriticno =248.373 m/s    
dT=  12.7  C    Ukriticno =248.417 m/s    
dT=  12.8  C    Ukriticno =248.46 m/s    
dT=  12.9  C    Ukriticno =248.504 m/s    
dT=  13  C    Ukriticno =248.547 m/s    
dT=  13.1  C    Ukriticno =248.591 m/s    
dT=  13.2  C    Ukriticno =248.634 m/s    
dT=  13.3  C    Ukriticno =248.677 m/s    
dT=  13.4  C    Ukriticno =248.721 m/s    
dT=  13.5  C    Ukriticno =248.764 m/s    
dT=  13.6  C    Ukriticno =248.808 m/s    
dT=  13.7  C    Ukriticno =248.851 m/s    
dT=  13.8  C    Ukriticno =248.894 m/s    
dT=  13.9  C    Ukriticno =248.938 m/s    
dT=  14  C    Ukriticno =248.981 m/s    
dT=  14.1  C    Ukriticno =249.024 m/s    
dT=  14.2  C    Ukriticno =249.068 m/s    
dT=  14.3  C    Ukriticno =249.111 m/s    
dT=  14.4  C    Ukriticno =249.154 m/s    
dT=  14.5  C    Ukriticno =249.198 m/s    
dT=  14.6  C    Ukriticno =249.241 m/s    
dT=  14.7  C    Ukriticno =249.284 m/s    
dT=  14.8  C    Ukriticno =249.328 m/s    
dT=  14.9  C    Ukriticno =249.371 m/s    
dT=  15  C    Ukriticno =249.414 m/s    
dT=  15.1  C    Ukriticno =249.458 m/s    
dT=  15.2  C    Ukriticno =249.501 m/s    
dT=  15.3  C    Ukriticno =249.544 m/s    
dT=  15.4  C    Ukriticno =249.587 m/s    
dT=  15.5  C    Ukriticno =249.631 m/s    
dT=  15.6  C    Ukriticno =249.674 m/s    
dT=  15.7  C    Ukriticno =249.717 m/s    
dT=  15.8  C    Ukriticno =249.76 m/s    
dT=  15.9  C    Ukriticno =249.803 m/s    
dT=  16  C    Ukriticno =249.847 m/s    
dT=  16.1  C    Ukriticno =249.89 m/s    
dT=  16.2  C    Ukriticno =249.933 m/s    
dT=  16.3  C    Ukriticno =249.976 m/s    
dT=  16.4  C    Ukriticno =250.019 m/s    
dT=  16.5  C    Ukriticno =250.063 m/s    
dT=  16.6  C    Ukriticno =250.106 m/s    
dT=  16.7  C    Ukriticno =250.149 m/s    
dT=  16.8  C    Ukriticno =250.192 m/s    
dT=  16.9  C    Ukriticno =250.235 m/s    
dT=  17  C    Ukriticno =250.278 m/s    
dT=  17.1  C    Ukriticno =250.321 m/s    
dT=  17.2  C    Ukriticno =250.365 m/s    
dT=  17.3  C    Ukriticno =250.408 m/s    
dT=  17.4  C    Ukriticno =250.451 m/s    
dT=  17.5  C    Ukriticno =250.494 m/s    
dT=  17.6  C    Ukriticno =250.537 m/s    
dT=  17.7  C    Ukriticno =250.58 m/s    
dT=  17.8  C    Ukriticno =250.623 m/s    
dT=  17.9  C    Ukriticno =250.666 m/s    
dT=  18  C    Ukriticno =250.709 m/s    
dT=  18.1  C    Ukriticno =250.752 m/s    
dT=  18.2  C    Ukriticno =250.795 m/s    
dT=  18.3  C    Ukriticno =250.838 m/s    
dT=  18.4  C    Ukriticno =250.881 m/s    
dT=  18.5  C    Ukriticno =250.924 m/s    
dT=  18.6  C    Ukriticno =250.967 m/s    
dT=  18.7  C    Ukriticno =251.01 m/s    
dT=  18.8  C    Ukriticno =251.053 m/s    
dT=  18.9  C    Ukriticno =251.096 m/s    
dT=  19  C    Ukriticno =251.139 m/s    
dT=  19.1  C    Ukriticno =251.182 m/s    
dT=  19.2  C    Ukriticno =251.225 m/s    
dT=  19.3  C    Ukriticno =251.268 m/s    
dT=  19.4  C    Ukriticno =251.311 m/s    
dT=  19.5  C    Ukriticno =251.354 m/s    
dT=  19.6  C    Ukriticno =251.397 m/s    
dT=  19.7  C    Ukriticno =251.44 m/s    
dT=  19.8  C    Ukriticno =251.483 m/s    
dT=  19.9  C    Ukriticno =251.526 m/s    
dT=  20  C    Ukriticno =251.569 m/s    
dT=  20.1  C    Ukriticno =251.612 m/s    
dT=  20.2  C    Ukriticno =251.655 m/s    
dT=  20.3  C    Ukriticno =251.698 m/s    
dT=  20.4  C    Ukriticno =251.74 m/s    
dT=  20.5  C    Ukriticno =251.783 m/s    
dT=  20.6  C    Ukriticno =251.826 m/s    
dT=  20.7  C    Ukriticno =251.869 m/s    
dT=  20.8  C    Ukriticno =251.912 m/s    
dT=  20.9  C    Ukriticno =251.955 m/s    
dT=  21  C    Ukriticno =251.998 m/s    
dT=  21.1  C    Ukriticno =252.04 m/s    
dT=  21.2  C    Ukriticno =252.083 m/s    
dT=  21.3  C    Ukriticno =252.126 m/s    
dT=  21.4  C    Ukriticno =252.169 m/s    
dT=  21.5  C    Ukriticno =252.212 m/s    
dT=  21.6  C    Ukriticno =252.254 m/s    
dT=  21.7  C    Ukriticno =252.297 m/s    
dT=  21.8  C    Ukriticno =252.34 m/s    
dT=  21.9  C    Ukriticno =252.383 m/s    
dT=  22  C    Ukriticno =252.426 m/s    
dT=  22.1  C    Ukriticno =252.468 m/s    
dT=  22.2  C    Ukriticno =252.511 m/s    
dT=  22.3  C    Ukriticno =252.554 m/s    
dT=  22.4  C    Ukriticno =252.597 m/s    
dT=  22.5  C    Ukriticno =252.639 m/s    
dT=  22.6  C    Ukriticno =252.682 m/s    
dT=  22.7  C    Ukriticno =252.725 m/s    
dT=  22.8  C    Ukriticno =252.767 m/s    
dT=  22.9  C    Ukriticno =252.81 m/s    
dT=  23  C    Ukriticno =252.853 m/s    
dT=  23.1  C    Ukriticno =252.896 m/s    
dT=  23.2  C    Ukriticno =252.938 m/s    
dT=  23.3  C    Ukriticno =252.981 m/s    
dT=  23.4  C    Ukriticno =253.024 m/s    
dT=  23.5  C    Ukriticno =253.066 m/s    
dT=  23.6  C    Ukriticno =253.109 m/s    
dT=  23.7  C    Ukriticno =253.151 m/s    
dT=  23.8  C    Ukriticno =253.194 m/s    
dT=  23.9  C    Ukriticno =253.237 m/s    
dT=  24  C    Ukriticno =253.279 m/s    
dT=  24.1  C    Ukriticno =253.322 m/s    
dT=  24.2  C    Ukriticno =253.365 m/s    
dT=  24.3  C    Ukriticno =253.407 m/s    
dT=  24.4  C    Ukriticno =253.45 m/s    
dT=  24.5  C    Ukriticno =253.492 m/s    
dT=  24.6  C    Ukriticno =253.535 m/s    
dT=  24.7  C    Ukriticno =253.578 m/s    
dT=  24.8  C    Ukriticno =253.62 m/s    
dT=  24.9  C    Ukriticno =253.663 m/s    
dT=  25  C    Ukriticno =253.705 m/s    
dT=  25.1  C    Ukriticno =253.748 m/s    
dT=  25.2  C    Ukriticno =253.79 m/s    
dT=  25.3  C    Ukriticno =253.833 m/s    
dT=  25.4  C    Ukriticno =253.875 m/s    
dT=  25.5  C    Ukriticno =253.918 m/s    
dT=  25.6  C    Ukriticno =253.96 m/s    
dT=  25.7  C    Ukriticno =254.003 m/s    
dT=  25.8  C    Ukriticno =254.045 m/s    
dT=  25.9  C    Ukriticno =254.088 m/s    
dT=  26  C    Ukriticno =254.13 m/s    
dT=  26.1  C    Ukriticno =254.173 m/s    
dT=  26.2  C    Ukriticno =254.215 m/s    
dT=  26.3  C    Ukriticno =254.258 m/s    
dT=  26.4  C    Ukriticno =254.3 m/s    
dT=  26.5  C    Ukriticno =254.343 m/s    
dT=  26.6  C    Ukriticno =254.385 m/s    
dT=  26.7  C    Ukriticno =254.427 m/s    
dT=  26.8  C    Ukriticno =254.47 m/s    
dT=  26.9  C    Ukriticno =254.512 m/s    
dT=  27  C    Ukriticno =254.555 m/s    
dT=  27.1  C    Ukriticno =254.597 m/s    
dT=  27.2  C    Ukriticno =254.639 m/s    
dT=  27.3  C    Ukriticno =254.682 m/s    
dT=  27.4  C    Ukriticno =254.724 m/s    
dT=  27.5  C    Ukriticno =254.767 m/s    
dT=  27.6  C    Ukriticno =254.809 m/s    
dT=  27.7  C    Ukriticno =254.851 m/s    
dT=  27.8  C    Ukriticno =254.894 m/s    
dT=  27.9  C    Ukriticno =254.936 m/s    
dT=  28  C    Ukriticno =254.978 m/s    
dT=  28.1  C    Ukriticno =255.021 m/s    
dT=  28.2  C    Ukriticno =255.063 m/s    
dT=  28.3  C    Ukriticno =255.105 m/s    
dT=  28.4  C    Ukriticno =255.148 m/s    
dT=  28.5  C    Ukriticno =255.19 m/s    
dT=  28.6  C    Ukriticno =255.232 m/s    
dT=  28.7  C    Ukriticno =255.275 m/s    
dT=  28.8  C    Ukriticno =255.317 m/s    
dT=  28.9  C    Ukriticno =255.359 m/s    
dT=  29  C    Ukriticno =255.401 m/s    
dT=  29.1  C    Ukriticno =255.444 m/s    
dT=  29.2  C    Ukriticno =255.486 m/s    
dT=  29.3  C    Ukriticno =255.528 m/s    
dT=  29.4  C    Ukriticno =255.57 m/s    
dT=  29.5  C    Ukriticno =255.613 m/s    
dT=  29.6  C    Ukriticno =255.655 m/s    
dT=  29.7  C    Ukriticno =255.697 m/s    
dT=  29.8  C    Ukriticno =255.739 m/s    
dT=  29.9  C    Ukriticno =255.781 m/s    
dT=  30  C    Ukriticno =255.824 m/s    
dT=  30.1  C    Ukriticno =255.866 m/s    
dT=  30.2  C    Ukriticno =255.908 m/s    
dT=  30.3  C    Ukriticno =255.95 m/s    
dT=  30.4  C    Ukriticno =255.992 m/s    
dT=  30.5  C    Ukriticno =256.035 m/s    
dT=  30.6  C    Ukriticno =256.077 m/s    
dT=  30.7  C    Ukriticno =256.119 m/s    
dT=  30.8  C    Ukriticno =256.161 m/s    
dT=  30.9  C    Ukriticno =256.203 m/s    
dT=  31  C    Ukriticno =256.245 m/s    
dT=  31.1  C    Ukriticno =256.287 m/s    
dT=  31.2  C    Ukriticno =256.33 m/s    
dT=  31.3  C    Ukriticno =256.372 m/s    
dT=  31.4  C    Ukriticno =256.414 m/s    
dT=  31.5  C    Ukriticno =256.456 m/s    
dT=  31.6  C    Ukriticno =256.498 m/s    
dT=  31.7  C    Ukriticno =256.54 m/s    
dT=  31.8  C    Ukriticno =256.582 m/s    
dT=  31.9  C    Ukriticno =256.624 m/s    
dT=  32  C    Ukriticno =256.666 m/s    
dT=  32.1  C    Ukriticno =256.708 m/s    
dT=  32.2  C    Ukriticno =256.75 m/s    
dT=  32.3  C    Ukriticno =256.792 m/s    
dT=  32.4  C    Ukriticno =256.834 m/s    
dT=  32.5  C    Ukriticno =256.876 m/s    
dT=  32.6  C    Ukriticno =256.918 m/s    
dT=  32.7  C    Ukriticno =256.96 m/s    
dT=  32.8  C    Ukriticno =257.002 m/s    
dT=  32.9  C    Ukriticno =257.044 m/s    
dT=  33  C    Ukriticno =257.086 m/s    
dT=  33.1  C    Ukriticno =257.128 m/s    
dT=  33.2  C    Ukriticno =257.17 m/s    
dT=  33.3  C    Ukriticno =257.212 m/s    
dT=  33.4  C    Ukriticno =257.254 m/s    
dT=  33.5  C    Ukriticno =257.296 m/s    
dT=  33.6  C    Ukriticno =257.338 m/s    
dT=  33.7  C    Ukriticno =257.38 m/s    
dT=  33.8  C    Ukriticno =257.422 m/s    
dT=  33.9  C    Ukriticno =257.464 m/s    
dT=  34  C    Ukriticno =257.506 m/s    
dT=  34.1  C    Ukriticno =257.548 m/s    
dT=  34.2  C    Ukriticno =257.59 m/s    
dT=  34.3  C    Ukriticno =257.632 m/s    
dT=  34.4  C    Ukriticno =257.674 m/s    
dT=  34.5  C    Ukriticno =257.715 m/s    
dT=  34.6  C    Ukriticno =257.757 m/s    
dT=  34.7  C    Ukriticno =257.799 m/s    
dT=  34.8  C    Ukriticno =257.841 m/s    
dT=  34.9  C    Ukriticno =257.883 m/s    
dT=  35  C    Ukriticno =257.925 m/s    
dT=  35.1  C    Ukriticno =257.967 m/s    
dT=  35.2  C    Ukriticno =258.008 m/s    
dT=  35.3  C    Ukriticno =258.05 m/s    
dT=  35.4  C    Ukriticno =258.092 m/s    
dT=  35.5  C    Ukriticno =258.134 m/s    
dT=  35.6  C    Ukriticno =258.176 m/s    
dT=  35.7  C    Ukriticno =258.218 m/s    
dT=  35.8  C    Ukriticno =258.259 m/s    
dT=  35.9  C    Ukriticno =258.301 m/s    
dT=  36  C    Ukriticno =258.343 m/s    
dT=  36.1  C    Ukriticno =258.385 m/s    
dT=  36.2  C    Ukriticno =258.426 m/s    
dT=  36.3  C    Ukriticno =258.468 m/s    
dT=  36.4  C    Ukriticno =258.51 m/s    
dT=  36.5  C    Ukriticno =258.552 m/s    
dT=  36.6  C    Ukriticno =258.594 m/s    
dT=  36.7  C    Ukriticno =258.635 m/s    
dT=  36.8  C    Ukriticno =258.677 m/s    
dT=  36.9  C    Ukriticno =258.719 m/s    
dT=  37  C    Ukriticno =258.76 m/s    
dT=  37.1  C    Ukriticno =258.802 m/s    
dT=  37.2  C    Ukriticno =258.844 m/s    
dT=  37.3  C    Ukriticno =258.886 m/s    
dT=  37.4  C    Ukriticno =258.927 m/s    
dT=  37.5  C    Ukriticno =258.969 m/s    
dT=  37.6  C    Ukriticno =259.011 m/s    
dT=  37.7  C    Ukriticno =259.052 m/s    
dT=  37.8  C    Ukriticno =259.094 m/s    
dT=  37.9  C    Ukriticno =259.136 m/s    
dT=  38  C    Ukriticno =259.177 m/s    
dT=  38.1  C    Ukriticno =259.219 m/s    
dT=  38.2  C    Ukriticno =259.261 m/s    
dT=  38.3  C    Ukriticno =259.302 m/s    
dT=  38.4  C    Ukriticno =259.344 m/s    
dT=  38.5  C    Ukriticno =259.385 m/s    
dT=  38.6  C    Ukriticno =259.427 m/s    
dT=  38.7  C    Ukriticno =259.469 m/s    
dT=  38.8  C    Ukriticno =259.51 m/s    
dT=  38.9  C    Ukriticno =259.552 m/s    
dT=  39  C    Ukriticno =259.593 m/s    
dT=  39.1  C    Ukriticno =259.635 m/s    
dT=  39.2  C    Ukriticno =259.677 m/s    
dT=  39.3  C    Ukriticno =259.718 m/s    
dT=  39.4  C    Ukriticno =259.76 m/s    
dT=  39.5  C    Ukriticno =259.801 m/s    
dT=  39.6  C    Ukriticno =259.843 m/s    
dT=  39.7  C    Ukriticno =259.884 m/s    
dT=  39.8  C    Ukriticno =259.926 m/s    
dT=  39.9  C    Ukriticno =259.967 m/s    
dT=  40  C    Ukriticno =260.009 m/s    
dT=  40.1  C    Ukriticno =260.05 m/s    
dT=  40.2  C    Ukriticno =260.092 m/s    
dT=  40.3  C    Ukriticno =260.133 m/s    
dT=  40.4  C    Ukriticno =260.175 m/s    
dT=  40.5  C    Ukriticno =260.216 m/s    
dT=  40.6  C    Ukriticno =260.258 m/s    
dT=  40.7  C    Ukriticno =260.299 m/s    
dT=  40.8  C    Ukriticno =260.341 m/s    
dT=  40.9  C    Ukriticno =260.382 m/s    
dT=  41  C    Ukriticno =260.424 m/s    
dT=  41.1  C    Ukriticno =260.465 m/s    
dT=  41.2  C    Ukriticno =260.507 m/s    
dT=  41.3  C    Ukriticno =260.548 m/s    
dT=  41.4  C    Ukriticno =260.589 m/s    
dT=  41.5  C    Ukriticno =260.631 m/s    
dT=  41.6  C    Ukriticno =260.672 m/s    
dT=  41.7  C    Ukriticno =260.714 m/s    
dT=  41.8  C    Ukriticno =260.755 m/s    
dT=  41.9  C    Ukriticno =260.796 m/s    
dT=  42  C    Ukriticno =260.838 m/s    
dT=  42.1  C    Ukriticno =260.879 m/s    
dT=  42.2  C    Ukriticno =260.921 m/s    
dT=  42.3  C    Ukriticno =260.962 m/s    
dT=  42.4  C    Ukriticno =261.003 m/s    
dT=  42.5  C    Ukriticno =261.045 m/s    
dT=  42.6  C    Ukriticno =261.086 m/s    
dT=  42.7  C    Ukriticno =261.127 m/s    
dT=  42.8  C    Ukriticno =261.169 m/s    
dT=  42.9  C    Ukriticno =261.21 m/s    
dT=  43  C    Ukriticno =261.251 m/s    
dT=  43.1  C    Ukriticno =261.293 m/s    
dT=  43.2  C    Ukriticno =261.334 m/s    
dT=  43.3  C    Ukriticno =261.375 m/s    
dT=  43.4  C    Ukriticno =261.417 m/s    
dT=  43.5  C    Ukriticno =261.458 m/s    
dT=  43.6  C    Ukriticno =261.499 m/s    
dT=  43.7  C    Ukriticno =261.54 m/s    
dT=  43.8  C    Ukriticno =261.582 m/s    
dT=  43.9  C    Ukriticno =261.623 m/s    
dT=  44  C    Ukriticno =261.664 m/s    
dT=  44.1  C    Ukriticno =261.705 m/s    
dT=  44.2  C    Ukriticno =261.747 m/s    
dT=  44.3  C    Ukriticno =261.788 m/s    
dT=  44.4  C    Ukriticno =261.829 m/s    
dT=  44.5  C    Ukriticno =261.87 m/s    
dT=  44.6  C    Ukriticno =261.912 m/s    
dT=  44.7  C    Ukriticno =261.953 m/s    
dT=  44.8  C    Ukriticno =261.994 m/s    
dT=  44.9  C    Ukriticno =262.035 m/s    
dT=  45  C    Ukriticno =262.076 m/s    
dT=  45.1  C    Ukriticno =262.118 m/s    
dT=  45.2  C    Ukriticno =262.159 m/s    
dT=  45.3  C    Ukriticno =262.2 m/s    
dT=  45.4  C    Ukriticno =262.241 m/s    
dT=  45.5  C    Ukriticno =262.282 m/s    
dT=  45.6  C    Ukriticno =262.323 m/s    
dT=  45.7  C    Ukriticno =262.365 m/s    
dT=  45.8  C    Ukriticno =262.406 m/s    
dT=  45.9  C    Ukriticno =262.447 m/s    
dT=  46  C    Ukriticno =262.488 m/s    
dT=  46.1  C    Ukriticno =262.529 m/s    
dT=  46.2  C    Ukriticno =262.57 m/s    
dT=  46.3  C    Ukriticno =262.611 m/s    
dT=  46.4  C    Ukriticno =262.652 m/s    
dT=  46.5  C    Ukriticno =262.693 m/s    
dT=  46.6  C    Ukriticno =262.735 m/s    
dT=  46.7  C    Ukriticno =262.776 m/s    
dT=  46.8  C    Ukriticno =262.817 m/s    
dT=  46.9  C    Ukriticno =262.858 m/s    
dT=  47  C    Ukriticno =262.899 m/s    
dT=  47.1  C    Ukriticno =262.94 m/s    
dT=  47.2  C    Ukriticno =262.981 m/s    
dT=  47.3  C    Ukriticno =263.022 m/s    
dT=  47.4  C    Ukriticno =263.063 m/s    
dT=  47.5  C    Ukriticno =263.104 m/s    
dT=  47.6  C    Ukriticno =263.145 m/s    
dT=  47.7  C    Ukriticno =263.186 m/s    
dT=  47.8  C    Ukriticno =263.227 m/s    
dT=  47.9  C    Ukriticno =263.268 m/s    
dT=  48  C    Ukriticno =263.309 m/s    
dT=  48.1  C    Ukriticno =263.35 m/s    
dT=  48.2  C    Ukriticno =263.391 m/s    
dT=  48.3  C    Ukriticno =263.432 m/s    
dT=  48.4  C    Ukriticno =263.473 m/s    
dT=  48.5  C    Ukriticno =263.514 m/s    
dT=  48.6  C    Ukriticno =263.555 m/s    
dT=  48.7  C    Ukriticno =263.596 m/s    
dT=  48.8  C    Ukriticno =263.637 m/s    
dT=  48.9  C    Ukriticno =263.678 m/s    
dT=  49  C    Ukriticno =263.719 m/s    
dT=  49.1  C    Ukriticno =263.76 m/s    
dT=  49.2  C    Ukriticno =263.801 m/s    
dT=  49.3  C    Ukriticno =263.842 m/s    
dT=  49.4  C    Ukriticno =263.882 m/s    
dT=  49.5  C    Ukriticno =263.923 m/s    
dT=  49.6  C    Ukriticno =263.964 m/s    
dT=  49.7  C    Ukriticno =264.005 m/s    
dT=  49.8  C    Ukriticno =264.046 m/s    
dT=  49.9  C    Ukriticno =264.087 m/s    
dT=  50  C    Ukriticno =264.128 m/s    
dT=  50.1  C    Ukriticno =264.169 m/s    
dT=  50.2  C    Ukriticno =264.209 m/s    
dT=  50.3  C    Ukriticno =264.25 m/s    
dT=  50.4  C    Ukriticno =264.291 m/s    
dT=  50.5  C    Ukriticno =264.332 m/s    
dT=  50.6  C    Ukriticno =264.373 m/s    
dT=  50.7  C    Ukriticno =264.414 m/s    
dT=  50.8  C    Ukriticno =264.454 m/s    
dT=  50.9  C    Ukriticno =264.495 m/s    
dT=  51  C    Ukriticno =264.536 m/s    
dT=  51.1  C    Ukriticno =264.577 m/s    
dT=  51.2  C    Ukriticno =264.618 m/s    
dT=  51.3  C    Ukriticno =264.658 m/s    
dT=  51.4  C    Ukriticno =264.699 m/s    
dT=  51.5  C    Ukriticno =264.74 m/s    
dT=  51.6  C    Ukriticno =264.781 m/s    
dT=  51.7  C    Ukriticno =264.822 m/s    
dT=  51.8  C    Ukriticno =264.862 m/s    
dT=  51.9  C    Ukriticno =264.903 m/s    
dT=  52  C    Ukriticno =264.944 m/s    
dT=  52.1  C    Ukriticno =264.985 m/s    
dT=  52.2  C    Ukriticno =265.025 m/s    
dT=  52.3  C    Ukriticno =265.066 m/s    
dT=  52.4  C    Ukriticno =265.107 m/s    
dT=  52.5  C    Ukriticno =265.147 m/s    
dT=  52.6  C    Ukriticno =265.188 m/s    
dT=  52.7  C    Ukriticno =265.229 m/s    
dT=  52.8  C    Ukriticno =265.27 m/s    
dT=  52.9  C    Ukriticno =265.31 m/s    
dT=  53  C    Ukriticno =265.351 m/s    
dT=  53.1  C    Ukriticno =265.392 m/s    
dT=  53.2  C    Ukriticno =265.432 m/s    
dT=  53.3  C    Ukriticno =265.473 m/s    
dT=  53.4  C    Ukriticno =265.514 m/s    
dT=  53.5  C    Ukriticno =265.554 m/s    
dT=  53.6  C    Ukriticno =265.595 m/s    
dT=  53.7  C    Ukriticno =265.636 m/s    
dT=  53.8  C    Ukriticno =265.676 m/s    
dT=  53.9  C    Ukriticno =265.717 m/s    
dT=  54  C    Ukriticno =265.757 m/s    
dT=  54.1  C    Ukriticno =265.798 m/s    
dT=  54.2  C    Ukriticno =265.839 m/s    
dT=  54.3  C    Ukriticno =265.879 m/s    
dT=  54.4  C    Ukriticno =265.92 m/s    
dT=  54.5  C    Ukriticno =265.96 m/s    
dT=  54.6  C    Ukriticno =266.001 m/s    
dT=  54.7  C    Ukriticno =266.042 m/s    
dT=  54.8  C    Ukriticno =266.082 m/s    
dT=  54.9  C    Ukriticno =266.123 m/s    
dT=  55  C    Ukriticno =266.163 m/s    
dT=  55.1  C    Ukriticno =266.204 m/s    
dT=  55.2  C    Ukriticno =266.244 m/s    
dT=  55.3  C    Ukriticno =266.285 m/s    
dT=  55.4  C    Ukriticno =266.325 m/s    
dT=  55.5  C    Ukriticno =266.366 m/s    
dT=  55.6  C    Ukriticno =266.407 m/s    
dT=  55.7  C    Ukriticno =266.447 m/s    
dT=  55.8  C    Ukriticno =266.488 m/s    
dT=  55.9  C    Ukriticno =266.528 m/s    
dT=  56  C    Ukriticno =266.569 m/s    
dT=  56.1  C    Ukriticno =266.609 m/s    
dT=  56.2  C    Ukriticno =266.65 m/s    
dT=  56.3  C    Ukriticno =266.69 m/s    
dT=  56.4  C    Ukriticno =266.73 m/s    
dT=  56.5  C    Ukriticno =266.771 m/s    
dT=  56.6  C    Ukriticno =266.811 m/s    
dT=  56.7  C    Ukriticno =266.852 m/s    
dT=  56.8  C    Ukriticno =266.892 m/s    
dT=  56.9  C    Ukriticno =266.933 m/s    
dT=  57  C    Ukriticno =266.973 m/s    
dT=  57.1  C    Ukriticno =267.014 m/s    
dT=  57.2  C    Ukriticno =267.054 m/s    
dT=  57.3  C    Ukriticno =267.094 m/s    
dT=  57.4  C    Ukriticno =267.135 m/s    
dT=  57.5  C    Ukriticno =267.175 m/s    
dT=  57.6  C    Ukriticno =267.216 m/s    
dT=  57.7  C    Ukriticno =267.256 m/s    
dT=  57.8  C    Ukriticno =267.296 m/s    
dT=  57.9  C    Ukriticno =267.337 m/s    
dT=  58  C    Ukriticno =267.377 m/s    
dT=  58.1  C    Ukriticno =267.418 m/s    
dT=  58.2  C    Ukriticno =267.458 m/s    
dT=  58.3  C    Ukriticno =267.498 m/s    
dT=  58.4  C    Ukriticno =267.539 m/s    
dT=  58.5  C    Ukriticno =267.579 m/s    
dT=  58.6  C    Ukriticno =267.619 m/s    
dT=  58.7  C    Ukriticno =267.66 m/s    
dT=  58.8  C    Ukriticno =267.7 m/s    
dT=  58.9  C    Ukriticno =267.74 m/s    
dT=  59  C    Ukriticno =267.781 m/s    
dT=  59.1  C    Ukriticno =267.821 m/s    
dT=  59.2  C    Ukriticno =267.861 m/s    
dT=  59.3  C    Ukriticno =267.901 m/s    
dT=  59.4  C    Ukriticno =267.942 m/s    
dT=  59.5  C    Ukriticno =267.982 m/s    
dT=  59.6  C    Ukriticno =268.022 m/s    
dT=  59.7  C    Ukriticno =268.063 m/s    
dT=  59.8  C    Ukriticno =268.103 m/s    
dT=  59.9  C    Ukriticno =268.143 m/s    
dT=  60  C    Ukriticno =268.183 m/s    
dT=  60.1  C    Ukriticno =268.224 m/s    
dT=  60.2  C    Ukriticno =268.264 m/s    
dT=  60.3  C    Ukriticno =268.304 m/s    
dT=  60.4  C    Ukriticno =268.344 m/s    
dT=  60.5  C    Ukriticno =268.385 m/s    
dT=  60.6  C    Ukriticno =268.425 m/s    
dT=  60.7  C    Ukriticno =268.465 m/s    
dT=  60.8  C    Ukriticno =268.505 m/s    
dT=  60.9  C    Ukriticno =268.545 m/s    
dT=  61  C    Ukriticno =268.586 m/s    
dT=  61.1  C    Ukriticno =268.626 m/s    
dT=  61.2  C    Ukriticno =268.666 m/s    
dT=  61.3  C    Ukriticno =268.706 m/s    
dT=  61.4  C    Ukriticno =268.746 m/s    
dT=  61.5  C    Ukriticno =268.786 m/s    
dT=  61.6  C    Ukriticno =268.827 m/s    
dT=  61.7  C    Ukriticno =268.867 m/s    
dT=  61.8  C    Ukriticno =268.907 m/s    
dT=  61.9  C    Ukriticno =268.947 m/s    
dT=  62  C    Ukriticno =268.987 m/s    
dT=  62.1  C    Ukriticno =269.027 m/s    
dT=  62.2  C    Ukriticno =269.067 m/s    
dT=  62.3  C    Ukriticno =269.108 m/s    
dT=  62.4  C    Ukriticno =269.148 m/s    
dT=  62.5  C    Ukriticno =269.188 m/s    
dT=  62.6  C    Ukriticno =269.228 m/s    
dT=  62.7  C    Ukriticno =269.268 m/s    
dT=  62.8  C    Ukriticno =269.308 m/s    
dT=  62.9  C    Ukriticno =269.348 m/s    
dT=  63  C    Ukriticno =269.388 m/s    
dT=  63.1  C    Ukriticno =269.428 m/s    
dT=  63.2  C    Ukriticno =269.468 m/s    
dT=  63.3  C    Ukriticno =269.508 m/s    
dT=  63.4  C    Ukriticno =269.548 m/s    
dT=  63.5  C    Ukriticno =269.588 m/s    
dT=  63.6  C    Ukriticno =269.628 m/s    
dT=  63.7  C    Ukriticno =269.669 m/s    
dT=  63.8  C    Ukriticno =269.709 m/s    
dT=  63.9  C    Ukriticno =269.749 m/s    
dT=  64  C    Ukriticno =269.789 m/s    
dT=  64.1  C    Ukriticno =269.829 m/s    
dT=  64.2  C    Ukriticno =269.869 m/s    
dT=  64.3  C    Ukriticno =269.909 m/s    
dT=  64.4  C    Ukriticno =269.949 m/s    
dT=  64.5  C    Ukriticno =269.989 m/s    
dT=  64.6  C    Ukriticno =270.029 m/s    
dT=  64.7  C    Ukriticno =270.068 m/s    
dT=  64.8  C    Ukriticno =270.108 m/s    
dT=  64.9  C    Ukriticno =270.148 m/s    
dT=  65  C    Ukriticno =270.188 m/s    
dT=  65.1  C    Ukriticno =270.228 m/s    
dT=  65.2  C    Ukriticno =270.268 m/s    
dT=  65.3  C    Ukriticno =270.308 m/s    
dT=  65.4  C    Ukriticno =270.348 m/s    
dT=  65.5  C    Ukriticno =270.388 m/s    
dT=  65.6  C    Ukriticno =270.428 m/s    
dT=  65.7  C    Ukriticno =270.468 m/s    
dT=  65.8  C    Ukriticno =270.508 m/s    
dT=  65.9  C    Ukriticno =270.548 m/s    
dT=  66  C    Ukriticno =270.588 m/s    
dT=  66.1  C    Ukriticno =270.627 m/s    
dT=  66.2  C    Ukriticno =270.667 m/s    
dT=  66.3  C    Ukriticno =270.707 m/s    
dT=  66.4  C    Ukriticno =270.747 m/s    
dT=  66.5  C    Ukriticno =270.787 m/s    
dT=  66.6  C    Ukriticno =270.827 m/s    
dT=  66.7  C    Ukriticno =270.867 m/s    
dT=  66.8  C    Ukriticno =270.907 m/s    
dT=  66.9  C    Ukriticno =270.946 m/s    
dT=  67  C    Ukriticno =270.986 m/s    
dT=  67.1  C    Ukriticno =271.026 m/s    
dT=  67.2  C    Ukriticno =271.066 m/s    
dT=  67.3  C    Ukriticno =271.106 m/s    
dT=  67.4  C    Ukriticno =271.145 m/s    
dT=  67.5  C    Ukriticno =271.185 m/s    
dT=  67.6  C    Ukriticno =271.225 m/s    
dT=  67.7  C    Ukriticno =271.265 m/s    
dT=  67.8  C    Ukriticno =271.305 m/s    
dT=  67.9  C    Ukriticno =271.344 m/s    
dT=  68  C    Ukriticno =271.384 m/s    
dT=  68.1  C    Ukriticno =271.424 m/s    
dT=  68.2  C    Ukriticno =271.464 m/s    
dT=  68.3  C    Ukriticno =271.504 m/s    
dT=  68.4  C    Ukriticno =271.543 m/s    
dT=  68.5  C    Ukriticno =271.583 m/s    
dT=  68.6  C    Ukriticno =271.623 m/s    
dT=  68.7  C    Ukriticno =271.663 m/s    
dT=  68.8  C    Ukriticno =271.702 m/s    
dT=  68.9  C    Ukriticno =271.742 m/s    
dT=  69  C    Ukriticno =271.782 m/s    
dT=  69.1  C    Ukriticno =271.821 m/s    
dT=  69.2  C    Ukriticno =271.861 m/s    
dT=  69.3  C    Ukriticno =271.901 m/s    
dT=  69.4  C    Ukriticno =271.941 m/s    
dT=  69.5  C    Ukriticno =271.98 m/s    
dT=  69.6  C    Ukriticno =272.02 m/s    
dT=  69.7  C    Ukriticno =272.06 m/s    
dT=  69.8  C    Ukriticno =272.099 m/s    
dT=  69.9  C    Ukriticno =272.139 m/s    
dT=  70  C    Ukriticno =272.179 m/s    
dT=  70.1  C    Ukriticno =272.218 m/s    
dT=  70.2  C    Ukriticno =272.258 m/s    
dT=  70.3  C    Ukriticno =272.298 m/s    
dT=  70.4  C    Ukriticno =272.337 m/s    
dT=  70.5  C    Ukriticno =272.377 m/s    
dT=  70.6  C    Ukriticno =272.416 m/s    
dT=  70.7  C    Ukriticno =272.456 m/s    
dT=  70.8  C    Ukriticno =272.496 m/s    
dT=  70.9  C    Ukriticno =272.535 m/s    
dT=  71  C    Ukriticno =272.575 m/s    
dT=  71.1  C    Ukriticno =272.614 m/s    
dT=  71.2  C    Ukriticno =272.654 m/s    
dT=  71.3  C    Ukriticno =272.694 m/s    
dT=  71.4  C    Ukriticno =272.733 m/s    
dT=  71.5  C    Ukriticno =272.773 m/s    
dT=  71.6  C    Ukriticno =272.812 m/s    
dT=  71.7  C    Ukriticno =272.852 m/s    
dT=  71.8  C    Ukriticno =272.892 m/s    
dT=  71.9  C    Ukriticno =272.931 m/s    
dT=  72  C    Ukriticno =272.971 m/s    
dT=  72.1  C    Ukriticno =273.01 m/s    
dT=  72.2  C    Ukriticno =273.05 m/s    
dT=  72.3  C    Ukriticno =273.089 m/s    
dT=  72.4  C    Ukriticno =273.129 m/s    
dT=  72.5  C    Ukriticno =273.168 m/s    
dT=  72.6  C    Ukriticno =273.208 m/s    
dT=  72.7  C    Ukriticno =273.247 m/s    
dT=  72.8  C    Ukriticno =273.287 m/s    
dT=  72.9  C    Ukriticno =273.326 m/s    
dT=  73  C    Ukriticno =273.366 m/s    
dT=  73.1  C    Ukriticno =273.405 m/s    
dT=  73.2  C    Ukriticno =273.445 m/s    
dT=  73.3  C    Ukriticno =273.484 m/s    
dT=  73.4  C    Ukriticno =273.524 m/s    
dT=  73.5  C    Ukriticno =273.563 m/s    
dT=  73.6  C    Ukriticno =273.603 m/s    
dT=  73.7  C    Ukriticno =273.642 m/s    
dT=  73.8  C    Ukriticno =273.681 m/s    
dT=  73.9  C    Ukriticno =273.721 m/s    
dT=  74  C    Ukriticno =273.76 m/s    
dT=  74.1  C    Ukriticno =273.8 m/s    
dT=  74.2  C    Ukriticno =273.839 m/s    
dT=  74.3  C    Ukriticno =273.879 m/s    
dT=  74.4  C    Ukriticno =273.918 m/s    
dT=  74.5  C    Ukriticno =273.957 m/s    
dT=  74.6  C    Ukriticno =273.997 m/s    
dT=  74.7  C    Ukriticno =274.036 m/s    
dT=  74.8  C    Ukriticno =274.076 m/s    
dT=  74.9  C    Ukriticno =274.115 m/s    
dT=  75  C    Ukriticno =274.154 m/s    
dT=  75.1  C    Ukriticno =274.194 m/s    
dT=  75.2  C    Ukriticno =274.233 m/s    
dT=  75.3  C    Ukriticno =274.272 m/s    
dT=  75.4  C    Ukriticno =274.312 m/s    
dT=  75.5  C    Ukriticno =274.351 m/s    
dT=  75.6  C    Ukriticno =274.39 m/s    
dT=  75.7  C    Ukriticno =274.43 m/s    
dT=  75.8  C    Ukriticno =274.469 m/s    
dT=  75.9  C    Ukriticno =274.508 m/s    
dT=  76  C    Ukriticno =274.548 m/s    
dT=  76.1  C    Ukriticno =274.587 m/s    
dT=  76.2  C    Ukriticno =274.626 m/s    
dT=  76.3  C    Ukriticno =274.666 m/s    
dT=  76.4  C    Ukriticno =274.705 m/s    
dT=  76.5  C    Ukriticno =274.744 m/s    
dT=  76.6  C    Ukriticno =274.784 m/s    
dT=  76.7  C    Ukriticno =274.823 m/s    
dT=  76.8  C    Ukriticno =274.862 m/s    
dT=  76.9  C    Ukriticno =274.901 m/s    
dT=  77  C    Ukriticno =274.941 m/s    
dT=  77.1  C    Ukriticno =274.98 m/s    
dT=  77.2  C    Ukriticno =275.019 m/s    
dT=  77.3  C    Ukriticno =275.058 m/s    
dT=  77.4  C    Ukriticno =275.098 m/s    
dT=  77.5  C    Ukriticno =275.137 m/s    
dT=  77.6  C    Ukriticno =275.176 m/s    
dT=  77.7  C    Ukriticno =275.215 m/s    
dT=  77.8  C    Ukriticno =275.255 m/s    
dT=  77.9  C    Ukriticno =275.294 m/s    
dT=  78  C    Ukriticno =275.333 m/s    
dT=  78.1  C    Ukriticno =275.372 m/s    
dT=  78.2  C    Ukriticno =275.411 m/s    
dT=  78.3  C    Ukriticno =275.451 m/s    
dT=  78.4  C    Ukriticno =275.49 m/s    
dT=  78.5  C    Ukriticno =275.529 m/s    
dT=  78.6  C    Ukriticno =275.568 m/s    
dT=  78.7  C    Ukriticno =275.607 m/s    
dT=  78.8  C    Ukriticno =275.646 m/s    
dT=  78.9  C    Ukriticno =275.686 m/s    
dT=  79  C    Ukriticno =275.725 m/s    
dT=  79.1  C    Ukriticno =275.764 m/s    
dT=  79.2  C    Ukriticno =275.803 m/s    
dT=  79.3  C    Ukriticno =275.842 m/s    
dT=  79.4  C    Ukriticno =275.881 m/s    
dT=  79.5  C    Ukriticno =275.92 m/s    
dT=  79.6  C    Ukriticno =275.96 m/s    
dT=  79.7  C    Ukriticno =275.999 m/s    
dT=  79.8  C    Ukriticno =276.038 m/s    
dT=  79.9  C    Ukriticno =276.077 m/s    
dT=  80  C    Ukriticno =276.116 m/s    
dT=  80.1  C    Ukriticno =276.155 m/s    
dT=  80.2  C    Ukriticno =276.194 m/s    
dT=  80.3  C    Ukriticno =276.233 m/s    
dT=  80.4  C    Ukriticno =276.272 m/s    
dT=  80.5  C    Ukriticno =276.311 m/s    
dT=  80.6  C    Ukriticno =276.35 m/s    
dT=  80.7  C    Ukriticno =276.39 m/s    
dT=  80.8  C    Ukriticno =276.429 m/s    
dT=  80.9  C    Ukriticno =276.468 m/s    
dT=  81  C    Ukriticno =276.507 m/s    
dT=  81.1  C    Ukriticno =276.546 m/s    
dT=  81.2  C    Ukriticno =276.585 m/s    
dT=  81.3  C    Ukriticno =276.624 m/s    
dT=  81.4  C    Ukriticno =276.663 m/s    
dT=  81.5  C    Ukriticno =276.702 m/s    
dT=  81.6  C    Ukriticno =276.741 m/s    
dT=  81.7  C    Ukriticno =276.78 m/s    
dT=  81.8  C    Ukriticno =276.819 m/s    
dT=  81.9  C    Ukriticno =276.858 m/s    
dT=  82  C    Ukriticno =276.897 m/s    
dT=  82.1  C    Ukriticno =276.936 m/s    
dT=  82.2  C    Ukriticno =276.975 m/s    
dT=  82.3  C    Ukriticno =277.014 m/s    
dT=  82.4  C    Ukriticno =277.053 m/s    
dT=  82.5  C    Ukriticno =277.092 m/s    
dT=  82.6  C    Ukriticno =277.131 m/s    
dT=  82.7  C    Ukriticno =277.169 m/s    
dT=  82.8  C    Ukriticno =277.208 m/s    
dT=  82.9  C    Ukriticno =277.247 m/s    
dT=  83  C    Ukriticno =277.286 m/s    
dT=  83.1  C    Ukriticno =277.325 m/s    
dT=  83.2  C    Ukriticno =277.364 m/s    
dT=  83.3  C    Ukriticno =277.403 m/s    
dT=  83.4  C    Ukriticno =277.442 m/s    
dT=  83.5  C    Ukriticno =277.481 m/s    
dT=  83.6  C    Ukriticno =277.52 m/s    
dT=  83.7  C    Ukriticno =277.559 m/s    
dT=  83.8  C    Ukriticno =277.598 m/s    
dT=  83.9  C    Ukriticno =277.636 m/s    
dT=  84  C    Ukriticno =277.675 m/s    
dT=  84.1  C    Ukriticno =277.714 m/s    
dT=  84.2  C    Ukriticno =277.753 m/s    
dT=  84.3  C    Ukriticno =277.792 m/s    
dT=  84.4  C    Ukriticno =277.831 m/s    
dT=  84.5  C    Ukriticno =277.87 m/s    
dT=  84.6  C    Ukriticno =277.908 m/s    
dT=  84.7  C    Ukriticno =277.947 m/s    
dT=  84.8  C    Ukriticno =277.986 m/s    
dT=  84.9  C    Ukriticno =278.025 m/s    
dT=  85  C    Ukriticno =278.064 m/s    
dT=  85.1  C    Ukriticno =278.103 m/s    
dT=  85.2  C    Ukriticno =278.141 m/s    
dT=  85.3  C    Ukriticno =278.18 m/s    
dT=  85.4  C    Ukriticno =278.219 m/s    
dT=  85.5  C    Ukriticno =278.258 m/s    
dT=  85.6  C    Ukriticno =278.297 m/s    
dT=  85.7  C    Ukriticno =278.335 m/s    
dT=  85.8  C    Ukriticno =278.374 m/s    
dT=  85.9  C    Ukriticno =278.413 m/s    
dT=  86  C    Ukriticno =278.452 m/s    
dT=  86.1  C    Ukriticno =278.49 m/s    
dT=  86.2  C    Ukriticno =278.529 m/s    
dT=  86.3  C    Ukriticno =278.568 m/s    
dT=  86.4  C    Ukriticno =278.607 m/s    
dT=  86.5  C    Ukriticno =278.645 m/s    
dT=  86.6  C    Ukriticno =278.684 m/s    
dT=  86.7  C    Ukriticno =278.723 m/s    
dT=  86.8  C    Ukriticno =278.762 m/s    
dT=  86.9  C    Ukriticno =278.8 m/s    
dT=  87  C    Ukriticno =278.839 m/s    
dT=  87.1  C    Ukriticno =278.878 m/s    
dT=  87.2  C    Ukriticno =278.917 m/s    
dT=  87.3  C    Ukriticno =278.955 m/s    
dT=  87.4  C    Ukriticno =278.994 m/s    
dT=  87.5  C    Ukriticno =279.033 m/s    
dT=  87.6  C    Ukriticno =279.071 m/s    
dT=  87.7  C    Ukriticno =279.11 m/s    
dT=  87.8  C    Ukriticno =279.149 m/s    
dT=  87.9  C    Ukriticno =279.187 m/s    
dT=  88  C    Ukriticno =279.226 m/s    
dT=  88.1  C    Ukriticno =279.265 m/s    
dT=  88.2  C    Ukriticno =279.303 m/s    
dT=  88.3  C    Ukriticno =279.342 m/s    
dT=  88.4  C    Ukriticno =279.381 m/s    
dT=  88.5  C    Ukriticno =279.419 m/s    
dT=  88.6  C    Ukriticno =279.458 m/s    
dT=  88.7  C    Ukriticno =279.496 m/s    
dT=  88.8  C    Ukriticno =279.535 m/s    
dT=  88.9  C    Ukriticno =279.574 m/s    
dT=  89  C    Ukriticno =279.612 m/s    
dT=  89.1  C    Ukriticno =279.651 m/s    
dT=  89.2  C    Ukriticno =279.689 m/s    
dT=  89.3  C    Ukriticno =279.728 m/s    
dT=  89.4  C    Ukriticno =279.767 m/s    
dT=  89.5  C    Ukriticno =279.805 m/s    
dT=  89.6  C    Ukriticno =279.844 m/s    
dT=  89.7  C    Ukriticno =279.882 m/s    
dT=  89.8  C    Ukriticno =279.921 m/s    
dT=  89.9  C    Ukriticno =279.959 m/s    
dT=  90  C    Ukriticno =279.998 m/s    
dT=  90.1  C    Ukriticno =280.037 m/s    
dT=  90.2  C    Ukriticno =280.075 m/s    
dT=  90.3  C    Ukriticno =280.114 m/s    
dT=  90.4  C    Ukriticno =280.152 m/s    
dT=  90.5  C    Ukriticno =280.191 m/s    
dT=  90.6  C    Ukriticno =280.229 m/s    
dT=  90.7  C    Ukriticno =280.268 m/s    
dT=  90.8  C    Ukriticno =280.306 m/s    
dT=  90.9  C    Ukriticno =280.345 m/s    
dT=  91  C    Ukriticno =280.383 m/s    
dT=  91.1  C    Ukriticno =280.422 m/s    
dT=  91.2  C    Ukriticno =280.46 m/s    
dT=  91.3  C    Ukriticno =280.499 m/s    
dT=  91.4  C    Ukriticno =280.537 m/s    
dT=  91.5  C    Ukriticno =280.576 m/s    
dT=  91.6  C    Ukriticno =280.614 m/s    
dT=  91.7  C    Ukriticno =280.653 m/s    
dT=  91.8  C    Ukriticno =280.691 m/s    
dT=  91.9  C    Ukriticno =280.73 m/s    
dT=  92  C    Ukriticno =280.768 m/s    
dT=  92.1  C    Ukriticno =280.806 m/s    
dT=  92.2  C    Ukriticno =280.845 m/s    
dT=  92.3  C    Ukriticno =280.883 m/s    
dT=  92.4  C    Ukriticno =280.922 m/s    
dT=  92.5  C    Ukriticno =280.96 m/s    
dT=  92.6  C    Ukriticno =280.999 m/s    
dT=  92.7  C    Ukriticno =281.037 m/s    
dT=  92.8  C    Ukriticno =281.075 m/s    
dT=  92.9  C    Ukriticno =281.114 m/s    
dT=  93  C    Ukriticno =281.152 m/s    
dT=  93.1  C    Ukriticno =281.191 m/s    
dT=  93.2  C    Ukriticno =281.229 m/s    
dT=  93.3  C    Ukriticno =281.267 m/s    
dT=  93.4  C    Ukriticno =281.306 m/s    
dT=  93.5  C    Ukriticno =281.344 m/s    
dT=  93.6  C    Ukriticno =281.382 m/s    
dT=  93.7  C    Ukriticno =281.421 m/s    
dT=  93.8  C    Ukriticno =281.459 m/s    
dT=  93.9  C    Ukriticno =281.498 m/s    
dT=  94  C    Ukriticno =281.536 m/s    
dT=  94.1  C    Ukriticno =281.574 m/s    
dT=  94.2  C    Ukriticno =281.613 m/s    
dT=  94.3  C    Ukriticno =281.651 m/s    
dT=  94.4  C    Ukriticno =281.689 m/s    
dT=  94.5  C    Ukriticno =281.727 m/s    
dT=  94.6  C    Ukriticno =281.766 m/s    
dT=  94.7  C    Ukriticno =281.804 m/s    
dT=  94.8  C    Ukriticno =281.842 m/s    
dT=  94.9  C    Ukriticno =281.881 m/s    
dT=  95  C    Ukriticno =281.919 m/s    
dT=  95.1  C    Ukriticno =281.957 m/s    
dT=  95.2  C    Ukriticno =281.996 m/s    
dT=  95.3  C    Ukriticno =282.034 m/s    
dT=  95.4  C    Ukriticno =282.072 m/s    
dT=  95.5  C    Ukriticno =282.11 m/s    
dT=  95.6  C    Ukriticno =282.149 m/s    
dT=  95.7  C    Ukriticno =282.187 m/s    
dT=  95.8  C    Ukriticno =282.225 m/s    
dT=  95.9  C    Ukriticno =282.263 m/s    
dT=  96  C    Ukriticno =282.302 m/s    
dT=  96.1  C    Ukriticno =282.34 m/s    
dT=  96.2  C    Ukriticno =282.378 m/s    
dT=  96.3  C    Ukriticno =282.416 m/s    
dT=  96.4  C    Ukriticno =282.455 m/s    
dT=  96.5  C    Ukriticno =282.493 m/s    
dT=  96.6  C    Ukriticno =282.531 m/s    
dT=  96.7  C    Ukriticno =282.569 m/s    
dT=  96.8  C    Ukriticno =282.607 m/s    
dT=  96.9  C    Ukriticno =282.646 m/s    
dT=  97  C    Ukriticno =282.684 m/s    
dT=  97.1  C    Ukriticno =282.722 m/s    
dT=  97.2  C    Ukriticno =282.76 m/s    
dT=  97.3  C    Ukriticno =282.798 m/s    
dT=  97.4  C    Ukriticno =282.836 m/s    
dT=  97.5  C    Ukriticno =282.875 m/s    
dT=  97.6  C    Ukriticno =282.913 m/s    
dT=  97.7  C    Ukriticno =282.951 m/s    
dT=  97.8  C    Ukriticno =282.989 m/s    
dT=  97.9  C    Ukriticno =283.027 m/s    
dT=  98  C    Ukriticno =283.065 m/s    
dT=  98.1  C    Ukriticno =283.103 m/s    
dT=  98.2  C    Ukriticno =283.142 m/s    
dT=  98.3  C    Ukriticno =283.18 m/s    
dT=  98.4  C    Ukriticno =283.218 m/s    
dT=  98.5  C    Ukriticno =283.256 m/s    
dT=  98.6  C    Ukriticno =283.294 m/s    
dT=  98.7  C    Ukriticno =283.332 m/s    
dT=  98.8  C    Ukriticno =283.37 m/s    
dT=  98.9  C    Ukriticno =283.408 m/s    
dT=  99  C    Ukriticno =283.446 m/s    
dT=  99.1  C    Ukriticno =283.484 m/s    
dT=  99.2  C    Ukriticno =283.523 m/s    
dT=  99.3  C    Ukriticno =283.561 m/s    
dT=  99.4  C    Ukriticno =283.599 m/s    
dT=  99.5  C    Ukriticno =283.637 m/s    
dT=  99.6  C    Ukriticno =283.675 m/s    
dT=  99.7  C    Ukriticno =283.713 m/s    
dT=  99.8  C    Ukriticno =283.751 m/s    
dT=  99.9  C    Ukriticno =283.789 m/s    
dT=  100  C    Ukriticno =283.827 m/s    
dT=  100.1  C    Ukriticno =283.865 m/s    
dT=  100.2  C    Ukriticno =283.903 m/s    
dT=  100.3  C    Ukriticno =283.941 m/s    
dT=  100.4  C    Ukriticno =283.979 m/s    
dT=  100.5  C    Ukriticno =284.017 m/s    
dT=  100.6  C    Ukriticno =284.055 m/s    
dT=  100.7  C    Ukriticno =284.093 m/s    
dT=  100.8  C    Ukriticno =284.131 m/s    
dT=  100.9  C    Ukriticno =284.169 m/s    
dT=  101  C    Ukriticno =284.207 m/s    
dT=  101.1  C    Ukriticno =284.245 m/s    
dT=  101.2  C    Ukriticno =284.283 m/s    
dT=  101.3  C    Ukriticno =284.321 m/s    
dT=  101.4  C    Ukriticno =284.359 m/s    
dT=  101.5  C    Ukriticno =284.397 m/s    
dT=  101.6  C    Ukriticno =284.435 m/s    
dT=  101.7  C    Ukriticno =284.473 m/s    
dT=  101.8  C    Ukriticno =284.511 m/s    
dT=  101.9  C    Ukriticno =284.549 m/s    
dT=  102  C    Ukriticno =284.587 m/s    
dT=  102.1  C    Ukriticno =284.625 m/s    
dT=  102.2  C    Ukriticno =284.662 m/s    
dT=  102.3  C    Ukriticno =284.7 m/s    
dT=  102.4  C    Ukriticno =284.738 m/s    
dT=  102.5  C    Ukriticno =284.776 m/s    
dT=  102.6  C    Ukriticno =284.814 m/s    
dT=  102.7  C    Ukriticno =284.852 m/s    
dT=  102.8  C    Ukriticno =284.89 m/s    
dT=  102.9  C    Ukriticno =284.928 m/s    
dT=  103  C    Ukriticno =284.966 m/s    
dT=  103.1  C    Ukriticno =285.004 m/s    
dT=  103.2  C    Ukriticno =285.041 m/s    
dT=  103.3  C    Ukriticno =285.079 m/s    
dT=  103.4  C    Ukriticno =285.117 m/s    
dT=  103.5  C    Ukriticno =285.155 m/s    
dT=  103.6  C    Ukriticno =285.193 m/s    
dT=  103.7  C    Ukriticno =285.231 m/s    
dT=  103.8  C    Ukriticno =285.269 m/s    
dT=  103.9  C    Ukriticno =285.306 m/s    
dT=  104  C    Ukriticno =285.344 m/s    
dT=  104.1  C    Ukriticno =285.382 m/s    
dT=  104.2  C    Ukriticno =285.42 m/s    
dT=  104.3  C    Ukriticno =285.458 m/s    
dT=  104.4  C    Ukriticno =285.495 m/s    
dT=  104.5  C    Ukriticno =285.533 m/s    
dT=  104.6  C    Ukriticno =285.571 m/s    
dT=  104.7  C    Ukriticno =285.609 m/s    
dT=  104.8  C    Ukriticno =285.647 m/s    
dT=  104.9  C    Ukriticno =285.684 m/s    
dT=  105  C    Ukriticno =285.722 m/s    
dT=  105.1  C    Ukriticno =285.76 m/s    
dT=  105.2  C    Ukriticno =285.798 m/s    
dT=  105.3  C    Ukriticno =285.836 m/s    
dT=  105.4  C    Ukriticno =285.873 m/s    
dT=  105.5  C    Ukriticno =285.911 m/s    
dT=  105.6  C    Ukriticno =285.949 m/s    
dT=  105.7  C    Ukriticno =285.987 m/s    
dT=  105.8  C    Ukriticno =286.024 m/s    
dT=  105.9  C    Ukriticno =286.062 m/s    
dT=  106  C    Ukriticno =286.1 m/s    
dT=  106.1  C    Ukriticno =286.137 m/s    
dT=  106.2  C    Ukriticno =286.175 m/s    
dT=  106.3  C    Ukriticno =286.213 m/s    
dT=  106.4  C    Ukriticno =286.251 m/s    
dT=  106.5  C    Ukriticno =286.288 m/s    
dT=  106.6  C    Ukriticno =286.326 m/s    
dT=  106.7  C    Ukriticno =286.364 m/s    
dT=  106.8  C    Ukriticno =286.401 m/s    
dT=  106.9  C    Ukriticno =286.439 m/s    
dT=  107  C    Ukriticno =286.477 m/s    
dT=  107.1  C    Ukriticno =286.514 m/s    
dT=  107.2  C    Ukriticno =286.552 m/s    
dT=  107.3  C    Ukriticno =286.59 m/s    
dT=  107.4  C    Ukriticno =286.627 m/s    
dT=  107.5  C    Ukriticno =286.665 m/s    
dT=  107.6  C    Ukriticno =286.703 m/s    
dT=  107.7  C    Ukriticno =286.74 m/s    
dT=  107.8  C    Ukriticno =286.778 m/s    
dT=  107.9  C    Ukriticno =286.816 m/s    
dT=  108  C    Ukriticno =286.853 m/s    
dT=  108.1  C    Ukriticno =286.891 m/s    
dT=  108.2  C    Ukriticno =286.929 m/s    
dT=  108.3  C    Ukriticno =286.966 m/s    
dT=  108.4  C    Ukriticno =287.004 m/s    
dT=  108.5  C    Ukriticno =287.041 m/s    
dT=  108.6  C    Ukriticno =287.079 m/s    
dT=  108.7  C    Ukriticno =287.117 m/s    
dT=  108.8  C    Ukriticno =287.154 m/s    
dT=  108.9  C    Ukriticno =287.192 m/s    
dT=  109  C    Ukriticno =287.229 m/s    
dT=  109.1  C    Ukriticno =287.267 m/s    
dT=  109.2  C    Ukriticno =287.305 m/s    
dT=  109.3  C    Ukriticno =287.342 m/s    
dT=  109.4  C    Ukriticno =287.38 m/s    
dT=  109.5  C    Ukriticno =287.417 m/s    
dT=  109.6  C    Ukriticno =287.455 m/s    
dT=  109.7  C    Ukriticno =287.492 m/s    
dT=  109.8  C    Ukriticno =287.53 m/s    
dT=  109.9  C    Ukriticno =287.567 m/s    
dT=  110  C    Ukriticno =287.605 m/s    
dT=  110.1  C    Ukriticno =287.642 m/s    
dT=  110.2  C    Ukriticno =287.68 m/s    
dT=  110.3  C    Ukriticno =287.718 m/s    
dT=  110.4  C    Ukriticno =287.755 m/s    
dT=  110.5  C    Ukriticno =287.793 m/s    
dT=  110.6  C    Ukriticno =287.83 m/s    
dT=  110.7  C    Ukriticno =287.868 m/s    
dT=  110.8  C    Ukriticno =287.905 m/s    
dT=  110.9  C    Ukriticno =287.943 m/s    
dT=  111  C    Ukriticno =287.98 m/s    
dT=  111.1  C    Ukriticno =288.018 m/s    
dT=  111.2  C    Ukriticno =288.055 m/s    
dT=  111.3  C    Ukriticno =288.092 m/s    
dT=  111.4  C    Ukriticno =288.13 m/s    
dT=  111.5  C    Ukriticno =288.167 m/s    
dT=  111.6  C    Ukriticno =288.205 m/s    
dT=  111.7  C    Ukriticno =288.242 m/s    
dT=  111.8  C    Ukriticno =288.28 m/s    
dT=  111.9  C    Ukriticno =288.317 m/s    
dT=  112  C    Ukriticno =288.355 m/s    
dT=  112.1  C    Ukriticno =288.392 m/s    
dT=  112.2  C    Ukriticno =288.429 m/s    
dT=  112.3  C    Ukriticno =288.467 m/s    
dT=  112.4  C    Ukriticno =288.504 m/s    
dT=  112.5  C    Ukriticno =288.542 m/s    
dT=  112.6  C    Ukriticno =288.579 m/s    
dT=  112.7  C    Ukriticno =288.617 m/s    
dT=  112.8  C    Ukriticno =288.654 m/s    
dT=  112.9  C    Ukriticno =288.691 m/s    
dT=  113  C    Ukriticno =288.729 m/s    
dT=  113.1  C    Ukriticno =288.766 m/s    
dT=  113.2  C    Ukriticno =288.803 m/s    
dT=  113.3  C    Ukriticno =288.841 m/s    
dT=  113.4  C    Ukriticno =288.878 m/s    
dT=  113.5  C    Ukriticno =288.916 m/s    
dT=  113.6  C    Ukriticno =288.953 m/s    
dT=  113.7  C    Ukriticno =288.99 m/s    
dT=  113.8  C    Ukriticno =289.028 m/s    
dT=  113.9  C    Ukriticno =289.065 m/s    
dT=  114  C    Ukriticno =289.102 m/s    
dT=  114.1  C    Ukriticno =289.14 m/s    
dT=  114.2  C    Ukriticno =289.177 m/s    
dT=  114.3  C    Ukriticno =289.214 m/s    
dT=  114.4  C    Ukriticno =289.252 m/s    
dT=  114.5  C    Ukriticno =289.289 m/s    
dT=  114.6  C    Ukriticno =289.326 m/s    
dT=  114.7  C    Ukriticno =289.364 m/s    
dT=  114.8  C    Ukriticno =289.401 m/s    
dT=  114.9  C    Ukriticno =289.438 m/s    
dT=  115  C    Ukriticno =289.475 m/s    
dT=  115.1  C    Ukriticno =289.513 m/s    
dT=  115.2  C    Ukriticno =289.55 m/s    
dT=  115.3  C    Ukriticno =289.587 m/s    
dT=  115.4  C    Ukriticno =289.625 m/s    
dT=  115.5  C    Ukriticno =289.662 m/s    
dT=  115.6  C    Ukriticno =289.699 m/s    
dT=  115.7  C    Ukriticno =289.736 m/s    
dT=  115.8  C    Ukriticno =289.774 m/s    
dT=  115.9  C    Ukriticno =289.811 m/s    
dT=  116  C    Ukriticno =289.848 m/s    
dT=  116.1  C    Ukriticno =289.885 m/s    
dT=  116.2  C    Ukriticno =289.923 m/s    
dT=  116.3  C    Ukriticno =289.96 m/s    
dT=  116.4  C    Ukriticno =289.997 m/s    
dT=  116.5  C    Ukriticno =290.034 m/s    
dT=  116.6  C    Ukriticno =290.071 m/s    
dT=  116.7  C    Ukriticno =290.109 m/s    
dT=  116.8  C    Ukriticno =290.146 m/s    
dT=  116.9  C    Ukriticno =290.183 m/s    
dT=  117  C    Ukriticno =290.22 m/s    
dT=  117.1  C    Ukriticno =290.257 m/s    
dT=  117.2  C    Ukriticno =290.295 m/s    
dT=  117.3  C    Ukriticno =290.332 m/s    
dT=  117.4  C    Ukriticno =290.369 m/s    
dT=  117.5  C    Ukriticno =290.406 m/s    
dT=  117.6  C    Ukriticno =290.443 m/s    
dT=  117.7  C    Ukriticno =290.481 m/s    
dT=  117.8  C    Ukriticno =290.518 m/s    
dT=  117.9  C    Ukriticno =290.555 m/s    
dT=  118  C    Ukriticno =290.592 m/s    
dT=  118.1  C    Ukriticno =290.629 m/s    
dT=  118.2  C    Ukriticno =290.666 m/s    
dT=  118.3  C    Ukriticno =290.703 m/s    
dT=  118.4  C    Ukriticno =290.741 m/s    
dT=  118.5  C    Ukriticno =290.778 m/s    
dT=  118.6  C    Ukriticno =290.815 m/s    
dT=  118.7  C    Ukriticno =290.852 m/s    
dT=  118.8  C    Ukriticno =290.889 m/s    
dT=  118.9  C    Ukriticno =290.926 m/s    
dT=  119  C    Ukriticno =290.963 m/s    
dT=  119.1  C    Ukriticno =291 m/s    
dT=  119.2  C    Ukriticno =291.037 m/s    
dT=  119.3  C    Ukriticno =291.074 m/s    
dT=  119.4  C    Ukriticno =291.112 m/s    
dT=  119.5  C    Ukriticno =291.149 m/s    
dT=  119.6  C    Ukriticno =291.186 m/s    
dT=  119.7  C    Ukriticno =291.223 m/s    
dT=  119.8  C    Ukriticno =291.26 m/s    
dT=  119.9  C    Ukriticno =291.297 m/s    
dT=  120  C    Ukriticno =291.334 m/s    
dT=  120.1  C    Ukriticno =291.371 m/s    
dT=  120.2  C    Ukriticno =291.408 m/s    
dT=  120.3  C    Ukriticno =291.445 m/s    
dT=  120.4  C    Ukriticno =291.482 m/s    
dT=  120.5  C    Ukriticno =291.519 m/s    
dT=  120.6  C    Ukriticno =291.556 m/s    
dT=  120.7  C    Ukriticno =291.593 m/s    
dT=  120.8  C    Ukriticno =291.63 m/s    
dT=  120.9  C    Ukriticno =291.667 m/s    
dT=  121  C    Ukriticno =291.704 m/s    
dT=  121.1  C    Ukriticno =291.741 m/s    
dT=  121.2  C    Ukriticno =291.778 m/s    
dT=  121.3  C    Ukriticno =291.815 m/s    
dT=  121.4  C    Ukriticno =291.852 m/s    
dT=  121.5  C    Ukriticno =291.889 m/s    
dT=  121.6  C    Ukriticno =291.926 m/s    
dT=  121.7  C    Ukriticno =291.963 m/s    
dT=  121.8  C    Ukriticno =292 m/s    
dT=  121.9  C    Ukriticno =292.037 m/s    
dT=  122  C    Ukriticno =292.074 m/s    
dT=  122.1  C    Ukriticno =292.111 m/s    
dT=  122.2  C    Ukriticno =292.148 m/s    
dT=  122.3  C    Ukriticno =292.185 m/s    
dT=  122.4  C    Ukriticno =292.222 m/s    
dT=  122.5  C    Ukriticno =292.259 m/s    
dT=  122.6  C    Ukriticno =292.296 m/s    
dT=  122.7  C    Ukriticno =292.333 m/s    
dT=  122.8  C    Ukriticno =292.37 m/s    
dT=  122.9  C    Ukriticno =292.406 m/s    
dT=  123  C    Ukriticno =292.443 m/s    
dT=  123.1  C    Ukriticno =292.48 m/s    
dT=  123.2  C    Ukriticno =292.517 m/s    
dT=  123.3  C    Ukriticno =292.554 m/s    
dT=  123.4  C    Ukriticno =292.591 m/s    
dT=  123.5  C    Ukriticno =292.628 m/s    
dT=  123.6  C    Ukriticno =292.665 m/s    
dT=  123.7  C    Ukriticno =292.702 m/s    
dT=  123.8  C    Ukriticno =292.739 m/s    
dT=  123.9  C    Ukriticno =292.775 m/s    
dT=  124  C    Ukriticno =292.812 m/s    
dT=  124.1  C    Ukriticno =292.849 m/s    
dT=  124.2  C    Ukriticno =292.886 m/s    
dT=  124.3  C    Ukriticno =292.923 m/s    
dT=  124.4  C    Ukriticno =292.96 m/s    
dT=  124.5  C    Ukriticno =292.997 m/s    
dT=  124.6  C    Ukriticno =293.033 m/s    
dT=  124.7  C    Ukriticno =293.07 m/s    
dT=  124.8  C    Ukriticno =293.107 m/s    
dT=  124.9  C    Ukriticno =293.144 m/s    
dT=  125  C    Ukriticno =293.181 m/s    
dT=  125.1  C    Ukriticno =293.217 m/s    
dT=  125.2  C    Ukriticno =293.254 m/s    
dT=  125.3  C    Ukriticno =293.291 m/s    
dT=  125.4  C    Ukriticno =293.328 m/s    
dT=  125.5  C    Ukriticno =293.365 m/s    
dT=  125.6  C    Ukriticno =293.401 m/s    
dT=  125.7  C    Ukriticno =293.438 m/s    
dT=  125.8  C    Ukriticno =293.475 m/s    
dT=  125.9  C    Ukriticno =293.512 m/s    
dT=  126  C    Ukriticno =293.549 m/s    
dT=  126.1  C    Ukriticno =293.585 m/s    
dT=  126.2  C    Ukriticno =293.622 m/s    
dT=  126.3  C    Ukriticno =293.659 m/s    
dT=  126.4  C    Ukriticno =293.696 m/s    
dT=  126.5  C    Ukriticno =293.732 m/s    
dT=  126.6  C    Ukriticno =293.769 m/s    
dT=  126.7  C    Ukriticno =293.806 m/s    
dT=  126.8  C    Ukriticno =293.843 m/s    
dT=  126.9  C    Ukriticno =293.879 m/s    
dT=  127  C    Ukriticno =293.916 m/s    
dT=  127.1  C    Ukriticno =293.953 m/s    
dT=  127.2  C    Ukriticno =293.99 m/s    
dT=  127.3  C    Ukriticno =294.026 m/s    
dT=  127.4  C    Ukriticno =294.063 m/s    
dT=  127.5  C    Ukriticno =294.1 m/s    
dT=  127.6  C    Ukriticno =294.136 m/s    
dT=  127.7  C    Ukriticno =294.173 m/s    
dT=  127.8  C    Ukriticno =294.21 m/s    
dT=  127.9  C    Ukriticno =294.246 m/s    
dT=  128  C    Ukriticno =294.283 m/s    
dT=  128.1  C    Ukriticno =294.32 m/s    
dT=  128.2  C    Ukriticno =294.356 m/s    
dT=  128.3  C    Ukriticno =294.393 m/s    
dT=  128.4  C    Ukriticno =294.43 m/s    
dT=  128.5  C    Ukriticno =294.466 m/s    
dT=  128.6  C    Ukriticno =294.503 m/s    
dT=  128.7  C    Ukriticno =294.54 m/s    
dT=  128.8  C    Ukriticno =294.576 m/s    
dT=  128.9  C    Ukriticno =294.613 m/s    
dT=  129  C    Ukriticno =294.65 m/s    
dT=  129.1  C    Ukriticno =294.686 m/s    
dT=  129.2  C    Ukriticno =294.723 m/s    
dT=  129.3  C    Ukriticno =294.76 m/s    
dT=  129.4  C    Ukriticno =294.796 m/s    
dT=  129.5  C    Ukriticno =294.833 m/s    
dT=  129.6  C    Ukriticno =294.869 m/s    
dT=  129.7  C    Ukriticno =294.906 m/s    
dT=  129.8  C    Ukriticno =294.943 m/s    
dT=  129.9  C    Ukriticno =294.979 m/s    
dT=  130  C    Ukriticno =295.016 m/s    
dT=  130.1  C    Ukriticno =295.052 m/s    
dT=  130.2  C    Ukriticno =295.089 m/s    
dT=  130.3  C    Ukriticno =295.126 m/s    
dT=  130.4  C    Ukriticno =295.162 m/s    
dT=  130.5  C    Ukriticno =295.199 m/s    
dT=  130.6  C    Ukriticno =295.235 m/s    
dT=  130.7  C    Ukriticno =295.272 m/s    
dT=  130.8  C    Ukriticno =295.308 m/s    
dT=  130.9  C    Ukriticno =295.345 m/s    
dT=  131  C    Ukriticno =295.381 m/s    
dT=  131.1  C    Ukriticno =295.418 m/s    
dT=  131.2  C    Ukriticno =295.455 m/s    
dT=  131.3  C    Ukriticno =295.491 m/s    
dT=  131.4  C    Ukriticno =295.528 m/s    
dT=  131.5  C    Ukriticno =295.564 m/s    
dT=  131.6  C    Ukriticno =295.601 m/s    
dT=  131.7  C    Ukriticno =295.637 m/s    
dT=  131.8  C    Ukriticno =295.674 m/s    
dT=  131.9  C    Ukriticno =295.71 m/s    
dT=  132  C    Ukriticno =295.747 m/s    
dT=  132.1  C    Ukriticno =295.783 m/s    
dT=  132.2  C    Ukriticno =295.82 m/s    
dT=  132.3  C    Ukriticno =295.856 m/s    
dT=  132.4  C    Ukriticno =295.893 m/s    
dT=  132.5  C    Ukriticno =295.929 m/s    
dT=  132.6  C    Ukriticno =295.966 m/s    
dT=  132.7  C    Ukriticno =296.002 m/s    
dT=  132.8  C    Ukriticno =296.039 m/s    
dT=  132.9  C    Ukriticno =296.075 m/s    
dT=  133  C    Ukriticno =296.111 m/s    
dT=  133.1  C    Ukriticno =296.148 m/s    
dT=  133.2  C    Ukriticno =296.184 m/s    
dT=  133.3  C    Ukriticno =296.221 m/s    
dT=  133.4  C    Ukriticno =296.257 m/s    
dT=  133.5  C    Ukriticno =296.294 m/s    
dT=  133.6  C    Ukriticno =296.33 m/s    
dT=  133.7  C    Ukriticno =296.367 m/s    
dT=  133.8  C    Ukriticno =296.403 m/s    
dT=  133.9  C    Ukriticno =296.439 m/s    
dT=  134  C    Ukriticno =296.476 m/s    
dT=  134.1  C    Ukriticno =296.512 m/s    
dT=  134.2  C    Ukriticno =296.549 m/s    
dT=  134.3  C    Ukriticno =296.585 m/s    
dT=  134.4  C    Ukriticno =296.621 m/s    
dT=  134.5  C    Ukriticno =296.658 m/s    
dT=  134.6  C    Ukriticno =296.694 m/s    
dT=  134.7  C    Ukriticno =296.73 m/s    
dT=  134.8  C    Ukriticno =296.767 m/s    
dT=  134.9  C    Ukriticno =296.803 m/s    
dT=  135  C    Ukriticno =296.84 m/s    
dT=  135.1  C    Ukriticno =296.876 m/s    
dT=  135.2  C    Ukriticno =296.912 m/s    
dT=  135.3  C    Ukriticno =296.949 m/s    
dT=  135.4  C    Ukriticno =296.985 m/s    
dT=  135.5  C    Ukriticno =297.021 m/s    
dT=  135.6  C    Ukriticno =297.058 m/s    
dT=  135.7  C    Ukriticno =297.094 m/s    
dT=  135.8  C    Ukriticno =297.13 m/s    
dT=  135.9  C    Ukriticno =297.167 m/s    
dT=  136  C    Ukriticno =297.203 m/s    
dT=  136.1  C    Ukriticno =297.239 m/s    
dT=  136.2  C    Ukriticno =297.276 m/s    
dT=  136.3  C    Ukriticno =297.312 m/s    
dT=  136.4  C    Ukriticno =297.348 m/s    
dT=  136.5  C    Ukriticno =297.385 m/s    
dT=  136.6  C    Ukriticno =297.421 m/s    
dT=  136.7  C    Ukriticno =297.457 m/s    
dT=  136.8  C    Ukriticno =297.493 m/s    
dT=  136.9  C    Ukriticno =297.53 m/s    
dT=  137  C    Ukriticno =297.566 m/s    
dT=  137.1  C    Ukriticno =297.602 m/s    
dT=  137.2  C    Ukriticno =297.639 m/s    
dT=  137.3  C    Ukriticno =297.675 m/s    
dT=  137.4  C    Ukriticno =297.711 m/s    
dT=  137.5  C    Ukriticno =297.747 m/s    
dT=  137.6  C    Ukriticno =297.784 m/s    
dT=  137.7  C    Ukriticno =297.82 m/s    
dT=  137.8  C    Ukriticno =297.856 m/s    
dT=  137.9  C    Ukriticno =297.892 m/s    
dT=  138  C    Ukriticno =297.929 m/s    
dT=  138.1  C    Ukriticno =297.965 m/s    
dT=  138.2  C    Ukriticno =298.001 m/s    
dT=  138.3  C    Ukriticno =298.037 m/s    
dT=  138.4  C    Ukriticno =298.073 m/s    
dT=  138.5  C    Ukriticno =298.11 m/s    
dT=  138.6  C    Ukriticno =298.146 m/s    
dT=  138.7  C    Ukriticno =298.182 m/s    
dT=  138.8  C    Ukriticno =298.218 m/s    
dT=  138.9  C    Ukriticno =298.254 m/s    
dT=  139  C    Ukriticno =298.291 m/s    
dT=  139.1  C    Ukriticno =298.327 m/s    
dT=  139.2  C    Ukriticno =298.363 m/s    
dT=  139.3  C    Ukriticno =298.399 m/s    
dT=  139.4  C    Ukriticno =298.435 m/s    
dT=  139.5  C    Ukriticno =298.472 m/s    
dT=  139.6  C    Ukriticno =298.508 m/s    
dT=  139.7  C    Ukriticno =298.544 m/s    
dT=  139.8  C    Ukriticno =298.58 m/s    
dT=  139.9  C    Ukriticno =298.616 m/s    
dT=  140  C    Ukriticno =298.652 m/s    
dT=  140.1  C    Ukriticno =298.688 m/s    
dT=  140.2  C    Ukriticno =298.725 m/s    
dT=  140.3  C    Ukriticno =298.761 m/s    
dT=  140.4  C    Ukriticno =298.797 m/s    
dT=  140.5  C    Ukriticno =298.833 m/s    
dT=  140.6  C    Ukriticno =298.869 m/s    
dT=  140.7  C    Ukriticno =298.905 m/s    
dT=  140.8  C    Ukriticno =298.941 m/s    
dT=  140.9  C    Ukriticno =298.977 m/s    
dT=  141  C    Ukriticno =299.013 m/s    
dT=  141.1  C    Ukriticno =299.05 m/s    
dT=  141.2  C    Ukriticno =299.086 m/s    
dT=  141.3  C    Ukriticno =299.122 m/s    
dT=  141.4  C    Ukriticno =299.158 m/s    
dT=  141.5  C    Ukriticno =299.194 m/s    
dT=  141.6  C    Ukriticno =299.23 m/s    
dT=  141.7  C    Ukriticno =299.266 m/s    
dT=  141.8  C    Ukriticno =299.302 m/s    
dT=  141.9  C    Ukriticno =299.338 m/s    
dT=  142  C    Ukriticno =299.374 m/s    
dT=  142.1  C    Ukriticno =299.41 m/s    
dT=  142.2  C    Ukriticno =299.446 m/s    
dT=  142.3  C    Ukriticno =299.482 m/s    
dT=  142.4  C    Ukriticno =299.518 m/s    
dT=  142.5  C    Ukriticno =299.554 m/s    
dT=  142.6  C    Ukriticno =299.591 m/s    
dT=  142.7  C    Ukriticno =299.627 m/s    
dT=  142.8  C    Ukriticno =299.663 m/s    
dT=  142.9  C    Ukriticno =299.699 m/s    
dT=  143  C    Ukriticno =299.735 m/s    
dT=  143.1  C    Ukriticno =299.771 m/s    
dT=  143.2  C    Ukriticno =299.807 m/s    
dT=  143.3  C    Ukriticno =299.843 m/s    
dT=  143.4  C    Ukriticno =299.879 m/s    
dT=  143.5  C    Ukriticno =299.915 m/s    
dT=  143.6  C    Ukriticno =299.951 m/s    
dT=  143.7  C    Ukriticno =299.987 m/s    
dT=  143.8  C    Ukriticno =300.023 m/s    
dT=  143.9  C    Ukriticno =300.059 m/s    
dT=  144  C    Ukriticno =300.095 m/s    
dT=  144.1  C    Ukriticno =300.13 m/s    
dT=  144.2  C    Ukriticno =300.166 m/s    
dT=  144.3  C    Ukriticno =300.202 m/s    
dT=  144.4  C    Ukriticno =300.238 m/s    
dT=  144.5  C    Ukriticno =300.274 m/s    
dT=  144.6  C    Ukriticno =300.31 m/s    
dT=  144.7  C    Ukriticno =300.346 m/s    
dT=  144.8  C    Ukriticno =300.382 m/s    
dT=  144.9  C    Ukriticno =300.418 m/s    
dT=  145  C    Ukriticno =300.454 m/s    
dT=  145.1  C    Ukriticno =300.49 m/s    
dT=  145.2  C    Ukriticno =300.526 m/s    
dT=  145.3  C    Ukriticno =300.562 m/s    
dT=  145.4  C    Ukriticno =300.598 m/s    
dT=  145.5  C    Ukriticno =300.634 m/s    
dT=  145.6  C    Ukriticno =300.669 m/s    
dT=  145.7  C    Ukriticno =300.705 m/s    
dT=  145.8  C    Ukriticno =300.741 m/s    
dT=  145.9  C    Ukriticno =300.777 m/s    
dT=  146  C    Ukriticno =300.813 m/s    
dT=  146.1  C    Ukriticno =300.849 m/s    
dT=  146.2  C    Ukriticno =300.885 m/s    
dT=  146.3  C    Ukriticno =300.921 m/s    
dT=  146.4  C    Ukriticno =300.957 m/s    
dT=  146.5  C    Ukriticno =300.992 m/s    
dT=  146.6  C    Ukriticno =301.028 m/s    
dT=  146.7  C    Ukriticno =301.064 m/s    
dT=  146.8  C    Ukriticno =301.1 m/s    
dT=  146.9  C    Ukriticno =301.136 m/s    
dT=  147  C    Ukriticno =301.172 m/s    
dT=  147.1  C    Ukriticno =301.208 m/s    
dT=  147.2  C    Ukriticno =301.243 m/s    
dT=  147.3  C    Ukriticno =301.279 m/s    
dT=  147.4  C    Ukriticno =301.315 m/s    
dT=  147.5  C    Ukriticno =301.351 m/s    
dT=  147.6  C    Ukriticno =301.387 m/s    
dT=  147.7  C    Ukriticno =301.422 m/s    
dT=  147.8  C    Ukriticno =301.458 m/s    
dT=  147.9  C    Ukriticno =301.494 m/s    
dT=  148  C    Ukriticno =301.53 m/s    
dT=  148.1  C    Ukriticno =301.566 m/s    
dT=  148.2  C    Ukriticno =301.601 m/s    
dT=  148.3  C    Ukriticno =301.637 m/s    
dT=  148.4  C    Ukriticno =301.673 m/s    
dT=  148.5  C    Ukriticno =301.709 m/s    
dT=  148.6  C    Ukriticno =301.745 m/s    
dT=  148.7  C    Ukriticno =301.78 m/s    
dT=  148.8  C    Ukriticno =301.816 m/s    
dT=  148.9  C    Ukriticno =301.852 m/s    
dT=  149  C    Ukriticno =301.888 m/s    
dT=  149.1  C    Ukriticno =301.923 m/s    
dT=  149.2  C    Ukriticno =301.959 m/s    
dT=  149.3  C    Ukriticno =301.995 m/s    
dT=  149.4  C    Ukriticno =302.031 m/s    
dT=  149.5  C    Ukriticno =302.066 m/s    
dT=  149.6  C    Ukriticno =302.102 m/s    
dT=  149.7  C    Ukriticno =302.138 m/s    
dT=  149.8  C    Ukriticno =302.174 m/s    
dT=  149.9  C    Ukriticno =302.209 m/s    
dT=  150  C    Ukriticno =302.245 m/s    
dT=  150.1  C    Ukriticno =302.281 m/s    
dT=  150.2  C    Ukriticno =302.316 m/s    
dT=  150.3  C    Ukriticno =302.352 m/s    
dT=  150.4  C    Ukriticno =302.388 m/s    
dT=  150.5  C    Ukriticno =302.424 m/s    
dT=  150.6  C    Ukriticno =302.459 m/s    
dT=  150.7  C    Ukriticno =302.495 m/s    
dT=  150.8  C    Ukriticno =302.531 m/s    
dT=  150.9  C    Ukriticno =302.566 m/s    
dT=  151  C    Ukriticno =302.602 m/s    
dT=  151.1  C    Ukriticno =302.638 m/s    
dT=  151.2  C    Ukriticno =302.673 m/s    
dT=  151.3  C    Ukriticno =302.709 m/s    
dT=  151.4  C    Ukriticno =302.745 m/s    
dT=  151.5  C    Ukriticno =302.78 m/s    
dT=  151.6  C    Ukriticno =302.816 m/s    
dT=  151.7  C    Ukriticno =302.852 m/s    
dT=  151.8  C    Ukriticno =302.887 m/s    
dT=  151.9  C    Ukriticno =302.923 m/s    
dT=  152  C    Ukriticno =302.958 m/s    
dT=  152.1  C    Ukriticno =302.994 m/s    
dT=  152.2  C    Ukriticno =303.03 m/s    
dT=  152.3  C    Ukriticno =303.065 m/s    
dT=  152.4  C    Ukriticno =303.101 m/s    
dT=  152.5  C    Ukriticno =303.137 m/s    
dT=  152.6  C    Ukriticno =303.172 m/s    
dT=  152.7  C    Ukriticno =303.208 m/s    
dT=  152.8  C    Ukriticno =303.243 m/s    
dT=  152.9  C    Ukriticno =303.279 m/s    
dT=  153  C    Ukriticno =303.315 m/s    
dT=  153.1  C    Ukriticno =303.35 m/s    
dT=  153.2  C    Ukriticno =303.386 m/s    
dT=  153.3  C    Ukriticno =303.421 m/s    
dT=  153.4  C    Ukriticno =303.457 m/s    
dT=  153.5  C    Ukriticno =303.492 m/s    
dT=  153.6  C    Ukriticno =303.528 m/s    
dT=  153.7  C    Ukriticno =303.564 m/s    
dT=  153.8  C    Ukriticno =303.599 m/s    
dT=  153.9  C    Ukriticno =303.635 m/s    
dT=  154  C    Ukriticno =303.67 m/s    
dT=  154.1  C    Ukriticno =303.706 m/s    
dT=  154.2  C    Ukriticno =303.741 m/s    
dT=  154.3  C    Ukriticno =303.777 m/s    
dT=  154.4  C    Ukriticno =303.812 m/s    
dT=  154.5  C    Ukriticno =303.848 m/s    
dT=  154.6  C    Ukriticno =303.883 m/s    
dT=  154.7  C    Ukriticno =303.919 m/s    
dT=  154.8  C    Ukriticno =303.954 m/s    
dT=  154.9  C    Ukriticno =303.99 m/s    
dT=  155  C    Ukriticno =304.025 m/s    
dT=  155.1  C    Ukriticno =304.061 m/s    
dT=  155.2  C    Ukriticno =304.096 m/s    
dT=  155.3  C    Ukriticno =304.132 m/s    
dT=  155.4  C    Ukriticno =304.167 m/s    
dT=  155.5  C    Ukriticno =304.203 m/s    
dT=  155.6  C    Ukriticno =304.238 m/s    
dT=  155.7  C    Ukriticno =304.274 m/s    
dT=  155.8  C    Ukriticno =304.309 m/s    
dT=  155.9  C    Ukriticno =304.345 m/s    
dT=  156  C    Ukriticno =304.38 m/s    
dT=  156.1  C    Ukriticno =304.416 m/s    
dT=  156.2  C    Ukriticno =304.451 m/s    
dT=  156.3  C    Ukriticno =304.487 m/s    
dT=  156.4  C    Ukriticno =304.522 m/s    
dT=  156.5  C    Ukriticno =304.558 m/s    
dT=  156.6  C    Ukriticno =304.593 m/s    
dT=  156.7  C    Ukriticno =304.628 m/s    
dT=  156.8  C    Ukriticno =304.664 m/s    
dT=  156.9  C    Ukriticno =304.699 m/s    
dT=  157  C    Ukriticno =304.735 m/s    
dT=  157.1  C    Ukriticno =304.77 m/s    
dT=  157.2  C    Ukriticno =304.806 m/s    
dT=  157.3  C    Ukriticno =304.841 m/s    
dT=  157.4  C    Ukriticno =304.876 m/s    
dT=  157.5  C    Ukriticno =304.912 m/s    
dT=  157.6  C    Ukriticno =304.947 m/s    
dT=  157.7  C    Ukriticno =304.983 m/s    
dT=  157.8  C    Ukriticno =305.018 m/s    
dT=  157.9  C    Ukriticno =305.053 m/s    
dT=  158  C    Ukriticno =305.089 m/s    
dT=  158.1  C    Ukriticno =305.124 m/s    
dT=  158.2  C    Ukriticno =305.159 m/s    
dT=  158.3  C    Ukriticno =305.195 m/s    
dT=  158.4  C    Ukriticno =305.23 m/s    
dT=  158.5  C    Ukriticno =305.266 m/s    
dT=  158.6  C    Ukriticno =305.301 m/s    
dT=  158.7  C    Ukriticno =305.336 m/s    
dT=  158.8  C    Ukriticno =305.372 m/s    
dT=  158.9  C    Ukriticno =305.407 m/s    
dT=  159  C    Ukriticno =305.442 m/s    
dT=  159.1  C    Ukriticno =305.478 m/s    
dT=  159.2  C    Ukriticno =305.513 m/s    
dT=  159.3  C    Ukriticno =305.548 m/s    
dT=  159.4  C    Ukriticno =305.584 m/s    
dT=  159.5  C    Ukriticno =305.619 m/s    
dT=  159.6  C    Ukriticno =305.654 m/s    
dT=  159.7  C    Ukriticno =305.69 m/s    
dT=  159.8  C    Ukriticno =305.725 m/s    
dT=  159.9  C    Ukriticno =305.76 m/s    
dT=  160  C    Ukriticno =305.796 m/s    
dT=  160.1  C    Ukriticno =305.831 m/s    
dT=  160.2  C    Ukriticno =305.866 m/s    
dT=  160.3  C    Ukriticno =305.901 m/s    
dT=  160.4  C    Ukriticno =305.937 m/s    
dT=  160.5  C    Ukriticno =305.972 m/s    
dT=  160.6  C    Ukriticno =306.007 m/s    
dT=  160.7  C    Ukriticno =306.043 m/s    
dT=  160.8  C    Ukriticno =306.078 m/s    
dT=  160.9  C    Ukriticno =306.113 m/s    
dT=  161  C    Ukriticno =306.148 m/s    
dT=  161.1  C    Ukriticno =306.184 m/s    
dT=  161.2  C    Ukriticno =306.219 m/s    
dT=  161.3  C    Ukriticno =306.254 m/s    
dT=  161.4  C    Ukriticno =306.289 m/s    
dT=  161.5  C    Ukriticno =306.325 m/s    
dT=  161.6  C    Ukriticno =306.36 m/s    
dT=  161.7  C    Ukriticno =306.395 m/s    
dT=  161.8  C    Ukriticno =306.43 m/s    
dT=  161.9  C    Ukriticno =306.465 m/s    
dT=  162  C    Ukriticno =306.501 m/s    
dT=  162.1  C    Ukriticno =306.536 m/s    
dT=  162.2  C    Ukriticno =306.571 m/s    
dT=  162.3  C    Ukriticno =306.606 m/s    
dT=  162.4  C    Ukriticno =306.642 m/s    
dT=  162.5  C    Ukriticno =306.677 m/s    
dT=  162.6  C    Ukriticno =306.712 m/s    
dT=  162.7  C    Ukriticno =306.747 m/s    
dT=  162.8  C    Ukriticno =306.782 m/s    
dT=  162.9  C    Ukriticno =306.817 m/s    
dT=  163  C    Ukriticno =306.853 m/s    
dT=  163.1  C    Ukriticno =306.888 m/s    
dT=  163.2  C    Ukriticno =306.923 m/s    
dT=  163.3  C    Ukriticno =306.958 m/s    
dT=  163.4  C    Ukriticno =306.993 m/s    
dT=  163.5  C    Ukriticno =307.028 m/s    
dT=  163.6  C    Ukriticno =307.064 m/s    
dT=  163.7  C    Ukriticno =307.099 m/s    
dT=  163.8  C    Ukriticno =307.134 m/s    
dT=  163.9  C    Ukriticno =307.169 m/s    
dT=  164  C    Ukriticno =307.204 m/s    
dT=  164.1  C    Ukriticno =307.239 m/s    
dT=  164.2  C    Ukriticno =307.274 m/s    
dT=  164.3  C    Ukriticno =307.31 m/s    
dT=  164.4  C    Ukriticno =307.345 m/s    
dT=  164.5  C    Ukriticno =307.38 m/s    
dT=  164.6  C    Ukriticno =307.415 m/s    
dT=  164.7  C    Ukriticno =307.45 m/s    
dT=  164.8  C    Ukriticno =307.485 m/s    
dT=  164.9  C    Ukriticno =307.52 m/s    
dT=  165  C    Ukriticno =307.555 m/s    
dT=  165.1  C    Ukriticno =307.59 m/s    
dT=  165.2  C    Ukriticno =307.626 m/s    
dT=  165.3  C    Ukriticno =307.661 m/s    
dT=  165.4  C    Ukriticno =307.696 m/s    
dT=  165.5  C    Ukriticno =307.731 m/s    
dT=  165.6  C    Ukriticno =307.766 m/s    
dT=  165.7  C    Ukriticno =307.801 m/s    
dT=  165.8  C    Ukriticno =307.836 m/s    
dT=  165.9  C    Ukriticno =307.871 m/s    
dT=  166  C    Ukriticno =307.906 m/s    
dT=  166.1  C    Ukriticno =307.941 m/s    
dT=  166.2  C    Ukriticno =307.976 m/s    
dT=  166.3  C    Ukriticno =308.011 m/s    
dT=  166.4  C    Ukriticno =308.046 m/s    
dT=  166.5  C    Ukriticno =308.081 m/s    
dT=  166.6  C    Ukriticno =308.116 m/s    
dT=  166.7  C    Ukriticno =308.151 m/s    
dT=  166.8  C    Ukriticno =308.187 m/s    
dT=  166.9  C    Ukriticno =308.222 m/s    
dT=  167  C    Ukriticno =308.257 m/s    
dT=  167.1  C    Ukriticno =308.292 m/s    
dT=  167.2  C    Ukriticno =308.327 m/s    
dT=  167.3  C    Ukriticno =308.362 m/s    
dT=  167.4  C    Ukriticno =308.397 m/s    
dT=  167.5  C    Ukriticno =308.432 m/s    
dT=  167.6  C    Ukriticno =308.467 m/s    
dT=  167.7  C    Ukriticno =308.502 m/s    
dT=  167.8  C    Ukriticno =308.537 m/s    
dT=  167.9  C    Ukriticno =308.572 m/s    
dT=  168  C    Ukriticno =308.607 m/s    
dT=  168.1  C    Ukriticno =308.641 m/s    
dT=  168.2  C    Ukriticno =308.676 m/s    
dT=  168.3  C    Ukriticno =308.711 m/s    
dT=  168.4  C    Ukriticno =308.746 m/s    
dT=  168.5  C    Ukriticno =308.781 m/s    
dT=  168.6  C    Ukriticno =308.816 m/s    
dT=  168.7  C    Ukriticno =308.851 m/s    
dT=  168.8  C    Ukriticno =308.886 m/s    
dT=  168.9  C    Ukriticno =308.921 m/s    
dT=  169  C    Ukriticno =308.956 m/s    
dT=  169.1  C    Ukriticno =308.991 m/s    
dT=  169.2  C    Ukriticno =309.026 m/s    
dT=  169.3  C    Ukriticno =309.061 m/s    
dT=  169.4  C    Ukriticno =309.096 m/s    
dT=  169.5  C    Ukriticno =309.131 m/s    
dT=  169.6  C    Ukriticno =309.166 m/s    
dT=  169.7  C    Ukriticno =309.201 m/s    
dT=  169.8  C    Ukriticno =309.235 m/s    
dT=  169.9  C    Ukriticno =309.27 m/s    
dT=  170  C    Ukriticno =309.305 m/s    
dT=  170.1  C    Ukriticno =309.34 m/s    
dT=  170.2  C    Ukriticno =309.375 m/s    
dT=  170.3  C    Ukriticno =309.41 m/s    
dT=  170.4  C    Ukriticno =309.445 m/s    
dT=  170.5  C    Ukriticno =309.48 m/s    
dT=  170.6  C    Ukriticno =309.515 m/s    
dT=  170.7  C    Ukriticno =309.549 m/s    
dT=  170.8  C    Ukriticno =309.584 m/s    
dT=  170.9  C    Ukriticno =309.619 m/s    
dT=  171  C    Ukriticno =309.654 m/s    
dT=  171.1  C    Ukriticno =309.689 m/s    
dT=  171.2  C    Ukriticno =309.724 m/s    
dT=  171.3  C    Ukriticno =309.759 m/s    
dT=  171.4  C    Ukriticno =309.793 m/s    
dT=  171.5  C    Ukriticno =309.828 m/s    
dT=  171.6  C    Ukriticno =309.863 m/s    
dT=  171.7  C    Ukriticno =309.898 m/s    
dT=  171.8  C    Ukriticno =309.933 m/s    
dT=  171.9  C    Ukriticno =309.968 m/s    
dT=  172  C    Ukriticno =310.002 m/s    
dT=  172.1  C    Ukriticno =310.037 m/s    
dT=  172.2  C    Ukriticno =310.072 m/s    
dT=  172.3  C    Ukriticno =310.107 m/s    
dT=  172.4  C    Ukriticno =310.142 m/s    
dT=  172.5  C    Ukriticno =310.177 m/s    
dT=  172.6  C    Ukriticno =310.211 m/s    
dT=  172.7  C    Ukriticno =310.246 m/s    
dT=  172.8  C    Ukriticno =310.281 m/s    
dT=  172.9  C    Ukriticno =310.316 m/s    
dT=  173  C    Ukriticno =310.35 m/s    
dT=  173.1  C    Ukriticno =310.385 m/s    
dT=  173.2  C    Ukriticno =310.42 m/s    
dT=  173.3  C    Ukriticno =310.455 m/s    
dT=  173.4  C    Ukriticno =310.49 m/s    
dT=  173.5  C    Ukriticno =310.524 m/s    
dT=  173.6  C    Ukriticno =310.559 m/s    
dT=  173.7  C    Ukriticno =310.594 m/s    
dT=  173.8  C    Ukriticno =310.629 m/s    
dT=  173.9  C    Ukriticno =310.663 m/s    
dT=  174  C    Ukriticno =310.698 m/s    
dT=  174.1  C    Ukriticno =310.733 m/s    
dT=  174.2  C    Ukriticno =310.768 m/s    
dT=  174.3  C    Ukriticno =310.802 m/s    
dT=  174.4  C    Ukriticno =310.837 m/s    
dT=  174.5  C    Ukriticno =310.872 m/s    
dT=  174.6  C    Ukriticno =310.906 m/s    
dT=  174.7  C    Ukriticno =310.941 m/s    
dT=  174.8  C    Ukriticno =310.976 m/s    
dT=  174.9  C    Ukriticno =311.011 m/s    
dT=  175  C    Ukriticno =311.045 m/s    
dT=  175.1  C    Ukriticno =311.08 m/s    
dT=  175.2  C    Ukriticno =311.115 m/s    
dT=  175.3  C    Ukriticno =311.149 m/s    
dT=  175.4  C    Ukriticno =311.184 m/s    
dT=  175.5  C    Ukriticno =311.219 m/s    
dT=  175.6  C    Ukriticno =311.253 m/s    
dT=  175.7  C    Ukriticno =311.288 m/s    
dT=  175.8  C    Ukriticno =311.323 m/s    
dT=  175.9  C    Ukriticno =311.357 m/s    
dT=  176  C    Ukriticno =311.392 m/s    
dT=  176.1  C    Ukriticno =311.427 m/s    
dT=  176.2  C    Ukriticno =311.461 m/s    
dT=  176.3  C    Ukriticno =311.496 m/s    
dT=  176.4  C    Ukriticno =311.531 m/s    
dT=  176.5  C    Ukriticno =311.565 m/s    
dT=  176.6  C    Ukriticno =311.6 m/s    
dT=  176.7  C    Ukriticno =311.635 m/s    
dT=  176.8  C    Ukriticno =311.669 m/s    
dT=  176.9  C    Ukriticno =311.704 m/s    
dT=  177  C    Ukriticno =311.739 m/s    
dT=  177.1  C    Ukriticno =311.773 m/s    
dT=  177.2  C    Ukriticno =311.808 m/s    
dT=  177.3  C    Ukriticno =311.842 m/s    
dT=  177.4  C    Ukriticno =311.877 m/s    
dT=  177.5  C    Ukriticno =311.912 m/s    
dT=  177.6  C    Ukriticno =311.946 m/s    
dT=  177.7  C    Ukriticno =311.981 m/s    
dT=  177.8  C    Ukriticno =312.015 m/s    
dT=  177.9  C    Ukriticno =312.05 m/s    
dT=  178  C    Ukriticno =312.085 m/s    
dT=  178.1  C    Ukriticno =312.119 m/s    
dT=  178.2  C    Ukriticno =312.154 m/s    
dT=  178.3  C    Ukriticno =312.188 m/s    
dT=  178.4  C    Ukriticno =312.223 m/s    
dT=  178.5  C    Ukriticno =312.258 m/s    
dT=  178.6  C    Ukriticno =312.292 m/s    
dT=  178.7  C    Ukriticno =312.327 m/s    
dT=  178.8  C    Ukriticno =312.361 m/s    
dT=  178.9  C    Ukriticno =312.396 m/s    
dT=  179  C    Ukriticno =312.43 m/s    
dT=  179.1  C    Ukriticno =312.465 m/s    
dT=  179.2  C    Ukriticno =312.499 m/s    
dT=  179.3  C    Ukriticno =312.534 m/s    
dT=  179.4  C    Ukriticno =312.569 m/s    
dT=  179.5  C    Ukriticno =312.603 m/s    
dT=  179.6  C    Ukriticno =312.638 m/s    
dT=  179.7  C    Ukriticno =312.672 m/s    
dT=  179.8  C    Ukriticno =312.707 m/s    
dT=  179.9  C    Ukriticno =312.741 m/s    
dT=  180  C    Ukriticno =312.776 m/s    
dT=  180.1  C    Ukriticno =312.81 m/s    
dT=  180.2  C    Ukriticno =312.845 m/s    
dT=  180.3  C    Ukriticno =312.879 m/s    
dT=  180.4  C    Ukriticno =312.914 m/s    
dT=  180.5  C    Ukriticno =312.948 m/s    
dT=  180.6  C    Ukriticno =312.983 m/s    
dT=  180.7  C    Ukriticno =313.017 m/s    
dT=  180.8  C    Ukriticno =313.052 m/s    
dT=  180.9  C    Ukriticno =313.086 m/s    
dT=  181  C    Ukriticno =313.121 m/s    
dT=  181.1  C    Ukriticno =313.155 m/s    
dT=  181.2  C    Ukriticno =313.19 m/s    
dT=  181.3  C    Ukriticno =313.224 m/s    
dT=  181.4  C    Ukriticno =313.258 m/s    
dT=  181.5  C    Ukriticno =313.293 m/s    
dT=  181.6  C    Ukriticno =313.327 m/s    
dT=  181.7  C    Ukriticno =313.362 m/s    
dT=  181.8  C    Ukriticno =313.396 m/s    
dT=  181.9  C    Ukriticno =313.431 m/s    
dT=  182  C    Ukriticno =313.465 m/s    
dT=  182.1  C    Ukriticno =313.5 m/s    
dT=  182.2  C    Ukriticno =313.534 m/s    
dT=  182.3  C    Ukriticno =313.568 m/s    
dT=  182.4  C    Ukriticno =313.603 m/s    
dT=  182.5  C    Ukriticno =313.637 m/s    
dT=  182.6  C    Ukriticno =313.672 m/s    
dT=  182.7  C    Ukriticno =313.706 m/s    
dT=  182.8  C    Ukriticno =313.74 m/s    
dT=  182.9  C    Ukriticno =313.775 m/s    
dT=  183  C    Ukriticno =313.809 m/s    
dT=  183.1  C    Ukriticno =313.844 m/s    
dT=  183.2  C    Ukriticno =313.878 m/s    
dT=  183.3  C    Ukriticno =313.912 m/s    
dT=  183.4  C    Ukriticno =313.947 m/s    
dT=  183.5  C    Ukriticno =313.981 m/s    
dT=  183.6  C    Ukriticno =314.016 m/s    
dT=  183.7  C    Ukriticno =314.05 m/s    
dT=  183.8  C    Ukriticno =314.084 m/s    
dT=  183.9  C    Ukriticno =314.119 m/s    
dT=  184  C    Ukriticno =314.153 m/s    
dT=  184.1  C    Ukriticno =314.187 m/s    
dT=  184.2  C    Ukriticno =314.222 m/s    
dT=  184.3  C    Ukriticno =314.256 m/s    
dT=  184.4  C    Ukriticno =314.29 m/s    
dT=  184.5  C    Ukriticno =314.325 m/s    
dT=  184.6  C    Ukriticno =314.359 m/s    
dT=  184.7  C    Ukriticno =314.394 m/s    
dT=  184.8  C    Ukriticno =314.428 m/s    
dT=  184.9  C    Ukriticno =314.462 m/s    
dT=  185  C    Ukriticno =314.496 m/s    
dT=  185.1  C    Ukriticno =314.531 m/s    
dT=  185.2  C    Ukriticno =314.565 m/s    
dT=  185.3  C    Ukriticno =314.599 m/s    
dT=  185.4  C    Ukriticno =314.634 m/s    
dT=  185.5  C    Ukriticno =314.668 m/s    
dT=  185.6  C    Ukriticno =314.702 m/s    
dT=  185.7  C    Ukriticno =314.737 m/s    
dT=  185.8  C    Ukriticno =314.771 m/s    
dT=  185.9  C    Ukriticno =314.805 m/s    
dT=  186  C    Ukriticno =314.84 m/s    
dT=  186.1  C    Ukriticno =314.874 m/s    
dT=  186.2  C    Ukriticno =314.908 m/s    
dT=  186.3  C    Ukriticno =314.942 m/s    
dT=  186.4  C    Ukriticno =314.977 m/s    
dT=  186.5  C    Ukriticno =315.011 m/s    
dT=  186.6  C    Ukriticno =315.045 m/s    
dT=  186.7  C    Ukriticno =315.079 m/s    
dT=  186.8  C    Ukriticno =315.114 m/s    
dT=  186.9  C    Ukriticno =315.148 m/s    
dT=  187  C    Ukriticno =315.182 m/s    
dT=  187.1  C    Ukriticno =315.216 m/s    
dT=  187.2  C    Ukriticno =315.251 m/s    
dT=  187.3  C    Ukriticno =315.285 m/s    
dT=  187.4  C    Ukriticno =315.319 m/s    
dT=  187.5  C    Ukriticno =315.353 m/s    
dT=  187.6  C    Ukriticno =315.388 m/s    
dT=  187.7  C    Ukriticno =315.422 m/s    
dT=  187.8  C    Ukriticno =315.456 m/s    
dT=  187.9  C    Ukriticno =315.49 m/s    
dT=  188  C    Ukriticno =315.524 m/s    
dT=  188.1  C    Ukriticno =315.559 m/s    
dT=  188.2  C    Ukriticno =315.593 m/s    
dT=  188.3  C    Ukriticno =315.627 m/s    
dT=  188.4  C    Ukriticno =315.661 m/s    
dT=  188.5  C    Ukriticno =315.695 m/s    
dT=  188.6  C    Ukriticno =315.73 m/s    
dT=  188.7  C    Ukriticno =315.764 m/s    
dT=  188.8  C    Ukriticno =315.798 m/s    
dT=  188.9  C    Ukriticno =315.832 m/s    
dT=  189  C    Ukriticno =315.866 m/s    
dT=  189.1  C    Ukriticno =315.901 m/s    
dT=  189.2  C    Ukriticno =315.935 m/s    
dT=  189.3  C    Ukriticno =315.969 m/s    
dT=  189.4  C    Ukriticno =316.003 m/s    
dT=  189.5  C    Ukriticno =316.037 m/s    
dT=  189.6  C    Ukriticno =316.071 m/s    
dT=  189.7  C    Ukriticno =316.106 m/s    
dT=  189.8  C    Ukriticno =316.14 m/s    
dT=  189.9  C    Ukriticno =316.174 m/s    
dT=  190  C    Ukriticno =316.208 m/s    
dT=  190.1  C    Ukriticno =316.242 m/s    
dT=  190.2  C    Ukriticno =316.276 m/s    
dT=  190.3  C    Ukriticno =316.31 m/s    
dT=  190.4  C    Ukriticno =316.344 m/s    
dT=  190.5  C    Ukriticno =316.379 m/s    
dT=  190.6  C    Ukriticno =316.413 m/s    
dT=  190.7  C    Ukriticno =316.447 m/s    
dT=  190.8  C    Ukriticno =316.481 m/s    
dT=  190.9  C    Ukriticno =316.515 m/s    
dT=  191  C    Ukriticno =316.549 m/s    
dT=  191.1  C    Ukriticno =316.583 m/s    
dT=  191.2  C    Ukriticno =316.617 m/s    
dT=  191.3  C    Ukriticno =316.651 m/s    
dT=  191.4  C    Ukriticno =316.686 m/s    
dT=  191.5  C    Ukriticno =316.72 m/s    
dT=  191.6  C    Ukriticno =316.754 m/s    
dT=  191.7  C    Ukriticno =316.788 m/s    
dT=  191.8  C    Ukriticno =316.822 m/s    
dT=  191.9  C    Ukriticno =316.856 m/s    
dT=  192  C    Ukriticno =316.89 m/s    
dT=  192.1  C    Ukriticno =316.924 m/s    
dT=  192.2  C    Ukriticno =316.958 m/s    
dT=  192.3  C    Ukriticno =316.992 m/s    
dT=  192.4  C    Ukriticno =317.026 m/s    
dT=  192.5  C    Ukriticno =317.06 m/s    
dT=  192.6  C    Ukriticno =317.094 m/s    
dT=  192.7  C    Ukriticno =317.128 m/s    
dT=  192.8  C    Ukriticno =317.162 m/s    
dT=  192.9  C    Ukriticno =317.196 m/s    
dT=  193  C    Ukriticno =317.23 m/s    
dT=  193.1  C    Ukriticno =317.264 m/s    
dT=  193.2  C    Ukriticno =317.298 m/s    
dT=  193.3  C    Ukriticno =317.332 m/s    
dT=  193.4  C    Ukriticno =317.366 m/s    
dT=  193.5  C    Ukriticno =317.4 m/s    
dT=  193.6  C    Ukriticno =317.434 m/s    
dT=  193.7  C    Ukriticno =317.468 m/s    
dT=  193.8  C    Ukriticno =317.502 m/s    
dT=  193.9  C    Ukriticno =317.536 m/s    
dT=  194  C    Ukriticno =317.57 m/s    
dT=  194.1  C    Ukriticno =317.604 m/s    
dT=  194.2  C    Ukriticno =317.638 m/s    
dT=  194.3  C    Ukriticno =317.672 m/s    
dT=  194.4  C    Ukriticno =317.706 m/s    
dT=  194.5  C    Ukriticno =317.74 m/s    
dT=  194.6  C    Ukriticno =317.774 m/s    
dT=  194.7  C    Ukriticno =317.808 m/s    
dT=  194.8  C    Ukriticno =317.842 m/s    
dT=  194.9  C    Ukriticno =317.876 m/s    
dT=  195  C    Ukriticno =317.91 m/s    
dT=  195.1  C    Ukriticno =317.944 m/s    
dT=  195.2  C    Ukriticno =317.978 m/s    
dT=  195.3  C    Ukriticno =318.012 m/s    
dT=  195.4  C    Ukriticno =318.046 m/s    
dT=  195.5  C    Ukriticno =318.08 m/s    
dT=  195.6  C    Ukriticno =318.114 m/s    
dT=  195.7  C    Ukriticno =318.148 m/s    
dT=  195.8  C    Ukriticno =318.182 m/s    
dT=  195.9  C    Ukriticno =318.216 m/s    
dT=  196  C    Ukriticno =318.25 m/s    
dT=  196.1  C    Ukriticno =318.283 m/s    
dT=  196.2  C    Ukriticno =318.317 m/s    
dT=  196.3  C    Ukriticno =318.351 m/s    
dT=  196.4  C    Ukriticno =318.385 m/s    
dT=  196.5  C    Ukriticno =318.419 m/s    
dT=  196.6  C    Ukriticno =318.453 m/s    
dT=  196.7  C    Ukriticno =318.487 m/s    
dT=  196.8  C    Ukriticno =318.521 m/s    
dT=  196.9  C    Ukriticno =318.555 m/s    
dT=  197  C    Ukriticno =318.589 m/s    
dT=  197.1  C    Ukriticno =318.622 m/s    
dT=  197.2  C    Ukriticno =318.656 m/s    
dT=  197.3  C    Ukriticno =318.69 m/s    
dT=  197.4  C    Ukriticno =318.724 m/s    
dT=  197.5  C    Ukriticno =318.758 m/s    
dT=  197.6  C    Ukriticno =318.792 m/s    
dT=  197.7  C    Ukriticno =318.826 m/s    
dT=  197.8  C    Ukriticno =318.859 m/s    
dT=  197.9  C    Ukriticno =318.893 m/s    
dT=  198  C    Ukriticno =318.927 m/s    
dT=  198.1  C    Ukriticno =318.961 m/s    
dT=  198.2  C    Ukriticno =318.995 m/s    
dT=  198.3  C    Ukriticno =319.029 m/s    
dT=  198.4  C    Ukriticno =319.063 m/s    
dT=  198.5  C    Ukriticno =319.096 m/s    
dT=  198.6  C    Ukriticno =319.13 m/s    
dT=  198.7  C    Ukriticno =319.164 m/s    
dT=  198.8  C    Ukriticno =319.198 m/s    
dT=  198.9  C    Ukriticno =319.232 m/s    
dT=  199  C    Ukriticno =319.265 m/s    
dT=  199.1  C    Ukriticno =319.299 m/s    
dT=  199.2  C    Ukriticno =319.333 m/s    
dT=  199.3  C    Ukriticno =319.367 m/s    
dT=  199.4  C    Ukriticno =319.401 m/s    
dT=  199.5  C    Ukriticno =319.434 m/s    
dT=  199.6  C    Ukriticno =319.468 m/s    
dT=  199.7  C    Ukriticno =319.502 m/s    
dT=  199.8  C    Ukriticno =319.536 m/s    
dT=  199.9  C    Ukriticno =319.57 m/s    
